Lab6/src/sim/bdtu_tb.vcd
$date
	Wed Feb 18 15:58:05 2026
$end
$version
	Icarus Verilog
$end
$timescale
	1ps
$end
$scope module bdtu_tb $end
$var wire 1 ! wr_en2 $end
$var wire 1 " wr_en1 $end
$var wire 32 # wr_data2 [31:0] $end
$var wire 32 $ wr_data1 [31:0] $end
$var wire 4 % wr_addr2 [3:0] $end
$var wire 4 & wr_addr1 [3:0] $end
$var wire 4 ' rf_rd_addr [3:0] $end
$var wire 1 ( mem_wr $end
$var wire 32 ) mem_wdata [31:0] $end
$var wire 2 * mem_size [1:0] $end
$var wire 1 + mem_rd $end
$var wire 32 , mem_addr [31:0] $end
$var wire 1 - busy $end
$var parameter 32 . CLK_PERIOD $end
$var reg 4 / base_reg [3:0] $end
$var reg 32 0 base_value [31:0] $end
$var reg 1 1 bdt_load $end
$var reg 1 2 bdt_s $end
$var reg 1 3 bdt_wb $end
$var reg 1 4 clk $end
$var reg 32 5 mem_rdata [31:0] $end
$var reg 1 6 op_bdt $end
$var reg 1 7 op_swp $end
$var reg 1 8 pre_index $end
$var reg 16 9 reg_list [15:0] $end
$var reg 32 : rf_rd_data [31:0] $end
$var reg 1 ; rst_n $end
$var reg 1 < start $end
$var reg 1 = swap_byte $end
$var reg 4 > swp_rd [3:0] $end
$var reg 4 ? swp_rm [3:0] $end
$var reg 1 @ up_down $end
$var integer 32 A errors [31:0] $end
$var integer 32 B i [31:0] $end
$var integer 32 C test_num [31:0] $end
$scope module uut $end
$var wire 4 D base_reg [3:0] $end
$var wire 32 E base_value [31:0] $end
$var wire 1 1 bdt_load $end
$var wire 1 2 bdt_s $end
$var wire 1 3 bdt_wb $end
$var wire 1 4 clk $end
$var wire 1 F is_last $end
$var wire 32 G mem_addr [31:0] $end
$var wire 1 + mem_rd $end
$var wire 32 H mem_rdata [31:0] $end
$var wire 32 I mem_wdata [31:0] $end
$var wire 1 ( mem_wr $end
$var wire 1 6 op_bdt $end
$var wire 1 7 op_swp $end
$var wire 1 8 pre_index $end
$var wire 16 J reg_list [15:0] $end
$var wire 32 K rf_rd_data [31:0] $end
$var wire 1 ; rst_n $end
$var wire 1 < start $end
$var wire 1 = swap_byte $end
$var wire 4 L swp_rd [3:0] $end
$var wire 4 M swp_rm [3:0] $end
$var wire 1 @ up_down $end
$var wire 4 N wr_addr2 [3:0] $end
$var wire 32 O wr_data2 [31:0] $end
$var wire 1 " wr_en1 $end
$var wire 1 ! wr_en2 $end
$var wire 32 P wr_data1 [31:0] $end
$var wire 4 Q wr_addr1 [3:0] $end
$var wire 32 R total_off [31:0] $end
$var wire 32 S start_addr [31:0] $end
$var wire 4 T rf_rd_addr [3:0] $end
$var wire 4 U pc_l3_1 [3:0] $end
$var wire 4 V pc_l3_0 [3:0] $end
$var wire 3 W pc_l2_3 [2:0] $end
$var wire 3 X pc_l2_2 [2:0] $end
$var wire 3 Y pc_l2_1 [2:0] $end
$var wire 3 Z pc_l2_0 [2:0] $end
$var wire 2 [ pc_l1_7 [1:0] $end
$var wire 2 \ pc_l1_6 [1:0] $end
$var wire 2 ] pc_l1_5 [1:0] $end
$var wire 2 ^ pc_l1_4 [1:0] $end
$var wire 2 _ pc_l1_3 [1:0] $end
$var wire 2 ` pc_l1_2 [1:0] $end
$var wire 2 a pc_l1_1 [1:0] $end
$var wire 2 b pc_l1_0 [1:0] $end
$var wire 5 c num_regs [4:0] $end
$var wire 2 d mem_size [1:0] $end
$var wire 4 e cur_reg [3:0] $end
$var wire 32 f calc_new_base [31:0] $end
$var wire 1 - busy $end
$var wire 32 g base_up [31:0] $end
$var wire 32 h base_dn [31:0] $end
$var parameter 3 i S_BDT_LAST $end
$var parameter 3 j S_BDT_WB $end
$var parameter 3 k S_BDT_XFER $end
$var parameter 3 l S_DONE $end
$var parameter 3 m S_IDLE $end
$var parameter 3 n S_SWP_RD $end
$var parameter 3 o S_SWP_RD_WAIT $end
$var parameter 3 p S_SWP_WR $end
$var reg 32 q cur_addr [31:0] $end
$var reg 4 r prev_reg [3:0] $end
$var reg 4 s r_base_reg [3:0] $end
$var reg 1 t r_byte $end
$var reg 1 u r_is_swp $end
$var reg 1 v r_load $end
$var reg 32 w r_new_base [31:0] $end
$var reg 4 x r_swp_rd [3:0] $end
$var reg 4 y r_swp_rm [3:0] $end
$var reg 1 z r_wb $end
$var reg 1 { rd_pending $end
$var reg 16 | remaining [15:0] $end
$var reg 3 } state [2:0] $end
$var reg 32 ~ swp_temp [31:0] $end
$upscope $end
$scope task check_mem $end
$var reg 32 !" addr [31:0] $end
$var reg 32 "" expected [31:0] $end
$upscope $end
$scope task check_reg $end
$var reg 32 #" expected [31:0] $end
$var reg 4 $" rnum [3:0] $end
$upscope $end
$scope task do_reset $end
$upscope $end
$scope task fire_start $end
$upscope $end
$scope task init_all $end
$var integer 32 %" j [31:0] $end
$upscope $end
$scope task wait_done $end
$var integer 32 &" cnt [31:0] $end
$var integer 32 '" timeout [31:0] $end
$upscope $end
$upscope $end
$enddefinitions $end
$comment Show the parameter values. $end
$dumpall
b110 p
b101 o
b100 n
b0 m
b111 l
b1 k
b11 j
b10 i
b1010 .
$end
#0
$dumpvars
bx '"
bx &"
bx %"
bx $"
bx #"
bx ""
bx !"
b0 ~
b0 }
b0 |
0{
0z
b0 y
b0 x
b0 w
0v
0u
0t
b0 s
b0 r
b0 q
b0 h
b0 g
b0 f
b0 e
b10 d
b0 c
b0 b
b0 a
b0 `
b0 _
b0 ^
b0 ]
b0 \
b0 [
b0 Z
b0 Y
b0 X
b0 W
b0 V
b0 U
b0 T
b100 S
b0 R
b0 Q
b0 P
b0 O
b0 N
b0 M
b0 L
bx K
b0 J
bx I
b0 H
b0 G
0F
b0 E
b0 D
bx C
bx B
b0 A
0@
b0 ?
b0 >
0=
0<
0;
bx :
b0 9
08
07
06
b0 5
04
03
02
01
b0 0
b0 /
0-
b0 ,
0+
b10 *
bx )
0(
b0 '
b0 &
b0 %
b0 $
b0 #
0"
0!
$end
#5000
14
#10000
04
#15000
1;
14
#20000
04
#25000
b0 )
b0 I
b0 :
b0 K
b1 C
b10000 %"
14
#30000
1-
b1000000000000 S
b1000000001100 f
b10 b
b1100 R
b11 c
b11 V
b11 Z
b1 a
1<
b1000000001100 g
b111111110100 h
b1000000000000 0
b1000000000000 E
b1101 /
b1101 D
1@
11
b111 9
b111 J
16
04
#35000
1+
b1 }
b1000000000000 ,
b1000000000000 G
b1000000000000 q
b111 |
b1000000001100 #
b1000000001100 O
b1000000001100 w
1v
b1101 %
b1101 N
b1101 s
14
#40000
b0 &"
b10100 '"
06
0<
04
#45000
1"
b1 e
b10101010101010100000000000000000 $
b10101010101010100000000000000000 P
1{
b110 |
b1000000000100 ,
b1000000000100 G
b1000000000100 q
b10101010101010100000000000000000 5
b10101010101010100000000000000000 H
b1 &"
14
#50000
04
#55000
b10 e
1F
b1 &
b1 Q
b10111011101110110001000100010001 $
b10111011101110110001000100010001 P
b10101010101010100000000000000000 )
b10101010101010100000000000000000 I
b10101010101010100000000000000000 :
b10101010101010100000000000000000 K
b1 r
b100 |
b1000000001000 ,
b1000000001000 G
b1000000001000 q
b10111011101110110001000100010001 5
b10111011101110110001000100010001 H
b10 &"
14
#60000
04
#65000
b0 e
0+
b10 &
b10 Q
0F
b11001100110011000010001000100010 $
b11001100110011000010001000100010 P
b10 }
b10 r
b0 |
b1000000001100 ,
b1000000001100 G
b1000000001100 q
b11001100110011000010001000100010 5
b11001100110011000010001000100010 H
b11 &"
14
#70000
04
#75000
0-
0"
b111 }
0{
b100 &"
14
#80000
04
#85000
b0 }
b101 &"
14
#90000
04
#95000
b10001000100010001000100010001 )
b10001000100010001000100010001 I
b10001000100010001000100010001 :
b10001000100010001000100010001 K
b10000 %"
b10 C
b1000000000000 #"
b1101 $"
14
#100000
b10000000000000 S
1-
b10000000001100 f
1<
b10000000001100 g
b1111111110100 h
b10000000000000 0
b10000000000000 E
01
16
04
#105000
1(
b1 }
b10000000000000 ,
b10000000000000 G
b10000000000000 q
b111 |
b10000000001100 #
b10000000001100 O
b10000000001100 w
0v
14
#110000
b0 &"
06
0<
04
#115000
b100010001000100010001000100010 )
b100010001000100010001000100010 I
b100010001000100010001000100010 :
b100010001000100010001000100010 K
b1 '
b1 T
b1 e
b110 |
b10000000000100 ,
b10000000000100 G
b10000000000100 q
b1 &"
14
#120000
04
#125000
b110011001100110011001100110011 )
b110011001100110011001100110011 I
b110011001100110011001100110011 :
b110011001100110011001100110011 K
b10 '
b10 T
b10 e
1F
b100 |
b10000000001000 ,
b10000000001000 G
b10000000001000 q
b10 &"
14
#130000
04
#135000
b0 e
b10001000100010001000100010001 )
b10001000100010001000100010001 I
b10001000100010001000100010001 :
b10001000100010001000100010001 K
0-
b0 '
b0 T
0(
0F
b111 }
b0 |
b10000000001100 ,
b10000000001100 G
b10000000001100 q
b11 &"
14
#140000
04
#145000
b0 }
b100 &"
14
#150000
04
#155000
b0 )
b0 I
b0 :
b0 K
b10000 %"
b11 C
b10000000000000 #"
b110011001100110011001100110011 ""
b10000000001000 !"
14
#160000
b10000000000100 S
b10000000001000 f
1-
b0 b
b0 Z
b0 a
b10000000001000 g
b1111111111000 h
b1000 R
b10 c
b10 V
b10 Y
b10 `
1<
18
13
11
b110000 9
b110000 J
16
04
#165000
b100 e
1+
b1 }
b10000000000100 ,
b10000000000100 G
b10000000000100 q
b110000 |
b10000000001000 #
b10000000001000 O
b10000000001000 w
1z
1v
14
#170000
b0 &"
06
0<
04
#175000
b101 e
1"
1F
b100 &
b100 Q
b11011110101011011011111011101111 $
b11011110101011011011111011101111 P
1{
b100 r
b100000 |
b10000000001000 ,
b10000000001000 G
b10000000001000 q
b11011110101011011011111011101111 5
b11011110101011011011111011101111 H
b1 &"
14
#180000
04
#185000
b0 e
0+
b101 &
b101 Q
0F
b11001010111111101011101010111110 $
b11001010111111101011101010111110 P
b10 }
b101 r
b0 |
b10000000001100 ,
b10000000001100 G
b10000000001100 q
b11001010111111101011101010111110 5
b11001010111111101011101010111110 H
b10 &"
14
#190000
04
#195000
0"
1!
b11 }
0{
b11 &"
14
#200000
04
#205000
0-
0!
b111 }
b100 &"
14
#210000
04
#215000
b0 }
b101 &"
14
#220000
04
#225000
b10101010000000001010101000000000 )
b10101010000000001010101000000000 I
b10101010000000001010101000000000 :
b10101010000000001010101000000000 K
b10000 %"
b100 C
b10000000001000 #"
b1101 $"
14
#230000
1-
b10111111110000 S
b10111111110000 f
b10 b
b100 Z
b10 a
b10000 R
b100 c
b100 V
b0 Y
b0 `
1<
b11000000010000 g
b10111111110000 h
b11000000000000 0
b11000000000000 E
0@
01
b1111 9
b1111 J
16
04
#235000
1(
b1 }
b10111111110000 ,
b10111111110000 G
b10111111110000 q
b1111 |
b10111111110000 #
b10111111110000 O
b10111111110000 w
0v
14
#240000
b0 &"
06
0<
04
#245000
b10111011000100011011101100010001 )
b10111011000100011011101100010001 I
b10111011000100011011101100010001 :
b10111011000100011011101100010001 K
b1 '
b1 T
b1 e
b1110 |
b10111111110100 ,
b10111111110100 G
b10111111110100 q
b1 &"
14
#250000
04
#255000
b11001100001000101100110000100010 )
b11001100001000101100110000100010 I
b11001100001000101100110000100010 :
b11001100001000101100110000100010 K
b10 '
b10 T
b10 e
b1100 |
b10111111111000 ,
b10111111111000 G
b10111111111000 q
b10 &"
14
#260000
04
#265000
b11011101001100111101110100110011 )
b11011101001100111101110100110011 I
b11011101001100111101110100110011 :
b11011101001100111101110100110011 K
b11 '
b11 T
b11 e
1F
b1000 |
b10111111111100 ,
b10111111111100 G
b10111111111100 q
b11 &"
14
#270000
04
#275000
b0 e
b10101010000000001010101000000000 )
b10101010000000001010101000000000 I
b10101010000000001010101000000000 :
b10101010000000001010101000000000 K
b0 '
b0 T
0(
0F
1!
b11 }
b0 |
b11000000000000 ,
b11000000000000 G
b11000000000000 q
b100 &"
14
#280000
04
#285000
0-
0!
b111 }
b101 &"
14
#290000
04
#295000
b0 }
b110 &"
14
#300000
04
#305000
b0 )
b0 I
b0 :
b0 K
b10000 %"
b101 C
b10111111110000 #"
b11011101001100111101110100110011 ""
b10111111111100 !"
14
#310000
b11111111110000 S
1-
b11111111110000 f
1<
b100000000010000 g
b11111111110000 h
b100000000000000 0
b100000000000000 E
b1 /
b1 D
b10 ?
b10 M
b11 >
b11 L
17
04
#315000
1+
b100 }
b100000000000000 ,
b100000000000000 G
b100000000000000 q
b10 y
b11 x
1u
b1 %
b1 N
b1 s
14
#320000
b0 &"
07
0<
04
#325000
0+
b10010001101000101011001111000 $
b10010001101000101011001111000 P
b101 }
b10010001101000101011001111000 5
b10010001101000101011001111000 H
b1 &"
14
#330000
04
#335000
b10101011110011011110111100000000 )
b10101011110011011110111100000000 I
b10101011110011011110111100000000 :
b10101011110011011110111100000000 K
b10 '
b10 T
1(
b11 &
b11 Q
1"
b110 }
b10010001101000101011001111000 ~
b10 &"
14
#340000
04
#345000
b0 )
b0 I
b0 :
b0 K
0-
b0 '
b0 T
0(
b101 &
b101 Q
0"
b111 }
b11 &"
14
#350000
04
#355000
b0 }
b100 &"
14
#360000
04
#365000
b10000 %"
b110 C
b10101011110011011110111100000000 ""
b100000000000000 !"
b10010001101000101011001111000 #"
b11 $"
14
#370000
b100111111110000 S
1-
b100111111110000 f
1<
b101000000010000 g
b100111111110000 h
b101000000000000 0
b101000000000000 E
b110 /
b110 D
b100 ?
b100 M
b101 >
b101 L
1=
17
04
#375000
b0 *
b0 d
1+
b100 }
b101000000000000 ,
b101000000000000 G
b101000000000000 q
b100 y
b101 x
1t
b110 %
b110 N
b110 s
14
#380000
b0 &"
07
0<
04
#385000
0+
b10101011 $
b10101011 P
b101 }
b10101011 5
b10101011 H
b1 &"
14
#390000
04
#395000
b11111111 )
b11111111 I
b11111111 :
b11111111 K
b100 '
b100 T
1(
1"
b110 }
b10101011 ~
b10 &"
14
#400000
04
#405000
b0 )
b0 I
b0 :
b0 K
0-
b0 '
b0 T
0(
0"
b111 }
b11 &"
14
#410000
04
#415000
b0 }
b100 &"
14
#420000
04
#425000
b10000 %"
b111 C
b11111111 ""
b101000000000000 !"
b10101011 #"
b101 $"
14
#430000
b110000000000000 S
1-
b101111111111100 f
b0 b
b0 Z
b0 a
b100 R
b1 c
b1 V
b1 Y
b1 _
1<
b110000000000100 g
b101111111111100 h
b110000000000000 0
b110000000000000 E
b1010 /
b1010 D
08
03
11
b10000000 9
b10000000 J
16
04
#435000
b111 e
1+
b10 *
b10 d
1F
b1 }
b110000000000000 ,
b110000000000000 G
b110000000000000 q
b10000000 |
b101111111111100 #
b101111111111100 O
b101111111111100 w
0z
1v
0u
b1010 %
b1010 N
b1010 s
14
#440000
b0 &"
06
0<
04
#445000
b0 e
1"
0+
b111 &
b111 Q
0F
b11111010110011101011000000001100 $
b11111010110011101011000000001100 P
b10 }
1{
b111 r
b0 |
b110000000000100 ,
b110000000000100 G
b110000000000100 q
b11111010110011101011000000001100 5
b11111010110011101011000000001100 H
b1 &"
14
#450000
04
#455000
0-
0"
b111 }
0{
b10 &"
14
#460000
04
#465000
b0 }
b11 &"
14
#470000
04
#475000
b10000 %"
b1000 C
b11111010110011101011000000001100 #"
b111 $"
14
#480000
b111000000000000 S
1-
b111000000000100 f
b0 V
b0 Y
b0 _
b100 R
b1 c
b1 U
b1 X
b1 ^
1<
b111000000000100 g
b110111111111100 h
b111000000000000 0
b111000000000000 E
b1001 /
b1001 D
1@
01
b100000000 9
b100000000 J
16
04
#485000
b10001000100010001000100010001000 )
b10001000100010001000100010001000 I
b10001000100010001000100010001000 :
b10001000100010001000100010001000 K
b1000 '
b1000 T
b1000 e
1(
1F
b1 }
b111000000000000 ,
b111000000000000 G
b111000000000000 q
b100000000 |
b111000000000100 #
b111000000000100 O
b111000000000100 w
0v
b1001 %
b1001 N
b1001 s
14
#490000
b0 &"
06
0<
04
#495000
b0 e
b0 )
b0 I
b0 :
b0 K
0-
b0 '
b0 T
0(
0F
b111 }
b0 |
b111000000000100 ,
b111000000000100 G
b111000000000100 q
b1 &"
14
#500000
04
#505000
b0 }
b10 &"
14
#510000
04
#515000
b100000000 )
b100000000 I
b100000000 :
b100000000 K
b1110 B
b10000 %"
b1001 C
b10001000100010001000100010001000 ""
b111000000000000 !"
14
#520000
b100000000 S
1-
b100111000 f
b1 b
b11 Z
b10 a
b10 `
b111 V
b100 Y
b10 _
b10 ^
b100 X
b10 ]
b10 \
b111000 R
b1110 c
b111 U
b11 W
b1 [
1<
b100111000 g
b11001000 h
b100000000 0
b100000000 E
b0 /
b0 D
13
11
b111111111111110 9
b111111111111110 J
16
04
#525000
b1 e
1+
b1 }
b100000000 ,
b100000000 G
b100000000 q
b111111111111110 |
b100111000 #
b100111000 O
b100111000 w
1z
1v
b0 %
b0 N
b0 s
14
#530000
b0 &"
b11110 '"
06
0<
04
#535000
b10 e
1"
b1 &
b1 Q
b10000000000000000000000000000 $
b10000000000000000000000000000 P
1{
b1 r
b111111111111100 |
b100000100 ,
b100000100 G
b100000100 q
b10000000000000000000000000000 5
b10000000000000000000000000000 H
b1 &"
14
#540000
04
#545000
b11 e
b10 &
b10 Q
b10000000000000000000000000001 $
b10000000000000000000000000001 P
b10 r
b111111111111000 |
b100001000 ,
b100001000 G
b100001000 q
b10000000000000000000000000001 5
b10000000000000000000000000001 H
b10 &"
14
#550000
04
#555000
b100 e
b11 &
b11 Q
b10000000000000000000000000010 $
b10000000000000000000000000010 P
b11 r
b111111111110000 |
b100001100 ,
b100001100 G
b100001100 q
b10000000000000000000000000010 5
b10000000000000000000000000010 H
b11 &"
14
#560000
04
#565000
b101 e
b100 &
b100 Q
b10000000000000000000000000011 $
b10000000000000000000000000011 P
b100 r
b111111111100000 |
b100010000 ,
b100010000 G
b100010000 q
b10000000000000000000000000011 5
b10000000000000000000000000011 H
b100 &"
14
#570000
04
#575000
b110 e
b101 &
b101 Q
b10000000000000000000000000100 $
b10000000000000000000000000100 P
b101 r
b111111111000000 |
b100010100 ,
b100010100 G
b100010100 q
b10000000000000000000000000100 5
b10000000000000000000000000100 H
b101 &"
14
#580000
04
#585000
b111 e
b110 &
b110 Q
b10000000000000000000000000101 $
b10000000000000000000000000101 P
b110 r
b111111110000000 |
b100011000 ,
b100011000 G
b100011000 q
b10000000000000000000000000101 5
b10000000000000000000000000101 H
b110 &"
14
#590000
04
#595000
b1000 e
b111 &
b111 Q
b10000000000000000000000000110 $
b10000000000000000000000000110 P
b111 r
b111111100000000 |
b100011100 ,
b100011100 G
b100011100 q
b10000000000000000000000000110 5
b10000000000000000000000000110 H
b111 &"
14
#600000
04
#605000
b1001 e
b1000 &
b1000 Q
b10000000000000000000000000111 $
b10000000000000000000000000111 P
b1000 r
b111111000000000 |
b100100000 ,
b100100000 G
b100100000 q
b10000000000000000000000000111 5
b10000000000000000000000000111 H
b1000 &"
14
#610000
04
#615000
b1010 e
b1001 &
b1001 Q
b10000000000000000000000001000 $
b10000000000000000000000001000 P
b1001 r
b111110000000000 |
b100100100 ,
b100100100 G
b100100100 q
b10000000000000000000000001000 5
b10000000000000000000000001000 H
b1001 &"
14
#620000
04
#625000
b1011 e
b1010 &
b1010 Q
b10000000000000000000000001001 $
b10000000000000000000000001001 P
b1010 r
b111100000000000 |
b100101000 ,
b100101000 G
b100101000 q
b10000000000000000000000001001 5
b10000000000000000000000001001 H
b1010 &"
14
#630000
04
#635000
b1100 e
b1011 &
b1011 Q
b10000000000000000000000001010 $
b10000000000000000000000001010 P
b1011 r
b111000000000000 |
b100101100 ,
b100101100 G
b100101100 q
b10000000000000000000000001010 5
b10000000000000000000000001010 H
b1011 &"
14
#640000
04
#645000
b1101 e
b1100 &
b1100 Q
b10000000000000000000000001011 $
b10000000000000000000000001011 P
b1100 r
b110000000000000 |
b100110000 ,
b100110000 G
b100110000 q
b10000000000000000000000001011 5
b10000000000000000000000001011 H
b1100 &"
14
#650000
04
#655000
b1110 e
1F
b1101 &
b1101 Q
b10000000000000000000000001100 $
b10000000000000000000000001100 P
b1101 r
b100000000000000 |
b100110100 ,
b100110100 G
b100110100 q
b10000000000000000000000001100 5
b10000000000000000000000001100 H
b1101 &"
14
#660000
04
#665000
b0 e
0+
b1110 &
b1110 Q
0F
b10000000000000000000000001101 $
b10000000000000000000000001101 P
b10 }
b1110 r
b0 |
b100111000 ,
b100111000 G
b100111000 q
b10000000000000000000000001101 5
b10000000000000000000000001101 H
b1110 &"
14
#670000
04
#675000
0"
1!
b11 }
0{
b1111 &"
14
#680000
04
#685000
0-
b100111000 )
b100111000 I
b100111000 :
b100111000 K
0!
b111 }
b10000 &"
14
#690000
04
#695000
b0 }
b10001 &"
14
#700000
04
#705000
b10101010101010101010101010101010 )
b10101010101010101010101010101010 I
b10101010101010101010101010101010 :
b10101010101010101010101010101010 K
b10000 %"
b1010 C
b100111000 #"
b0 $"
b1111 B
14
#710000
b1000000000000100 S
1-
b1000000000001100 f
b1 b
b10 Z
b1 a
b1 `
b11 V
b1 Y
b0 _
b0 ^
b0 X
b0 ]
b0 \
b1100 R
b11 c
b0 U
b0 W
b0 [
1<
b1000000000001100 g
b111111111110100 h
b1000000000000000 0
b1000000000000000 E
b101 /
b101 D
18
01
b10101 9
b10101 J
16
04
#715000
1(
b1 }
b1000000000000100 ,
b1000000000000100 G
b1000000000000100 q
b10101 |
b1000000000001100 #
b1000000000001100 O
b1000000000001100 w
0v
b101 %
b101 N
b101 s
14
#720000
b0 &"
b10100 '"
06
0<
04
#725000
b10111011101110111011101110111011 )
b10111011101110111011101110111011 I
b10111011101110111011101110111011 :
b10111011101110111011101110111011 K
b10 '
b10 T
b10 e
b10100 |
b1000000000001000 ,
b1000000000001000 G
b1000000000001000 q
b1 &"
14
#730000
04
#735000
b11001100110011001100110011001100 )
b11001100110011001100110011001100 I
b11001100110011001100110011001100 :
b11001100110011001100110011001100 K
b100 '
b100 T
b100 e
1F
b10000 |
b1000000000001100 ,
b1000000000001100 G
b1000000000001100 q
b10 &"
14
#740000
04
#745000
b0 e
b10101010101010101010101010101010 )
b10101010101010101010101010101010 I
b10101010101010101010101010101010 :
b10101010101010101010101010101010 K
b0 '
b0 T
0(
0F
1!
b11 }
b0 |
b1000000000010000 ,
b1000000000010000 G
b1000000000010000 q
b11 &"
14
#750000
04
#755000
0-
0!
b111 }
b100 &"
14
#760000
04
#765000
b0 }
b101 &"
14
#770000
04
#775000
b0 )
b0 I
b0 :
b0 K
b10000 %"
b1011 C
b1000000000001100 #"
b101 $"
b11001100110011001100110011001100 ""
b1000000000001100 !"
14
#780000
1-
b1000111111111000 S
b1000111111111000 f
b10 b
b10 Z
b0 a
b1000 R
b10 c
b10 V
b0 Y
b0 `
1<
b1001000000001000 g
b1000111111111000 h
b1001000000000000 0
b1001000000000000 E
b11 /
b11 D
0@
11
b11 9
b11 J
16
04
#785000
1+
b1 }
b1000111111111000 ,
b1000111111111000 G
b1000111111111000 q
b11 |
b1000111111111000 #
b1000111111111000 O
b1000111111111000 w
1v
b11 %
b11 N
b11 s
14
#790000
b0 &"
06
0<
04
#795000
1"
b1 e
1F
b0 &
b0 Q
b10001000100010001000100010001 $
b10001000100010001000100010001 P
1{
b0 r
b10 |
b1000111111111100 ,
b1000111111111100 G
b1000111111111100 q
b10001000100010001000100010001 5
b10001000100010001000100010001 H
b1 &"
14
#800000
04
#805000
b0 e
0+
b1 &
b1 Q
0F
b10001000100010001000100010001 )
b10001000100010001000100010001 I
b10001000100010001000100010001 :
b10001000100010001000100010001 K
b100010001000100010001000100010 $
b100010001000100010001000100010 P
b10 }
b1 r
b0 |
b1001000000000000 ,
b1001000000000000 G
b1001000000000000 q
b100010001000100010001000100010 5
b100010001000100010001000100010 H
b10 &"
14
#810000
04
#815000
0"
1!
b11 }
0{
b11 &"
14
#820000
04
#825000
0-
0!
b111 }
b100 &"
14
#830000
04
#835000
b0 }
b101 &"
14
#840000
04
#845000
b11111110111011011111101011001110 )
b11111110111011011111101011001110 I
b11111110111011011111101011001110 :
b11111110111011011111101011001110 K
b10000 %"
b1100 C
b1000111111111000 #"
b11 $"
14
#850000
1-
b1010000000000000 S
b1010000000001000 f
1<
b1010000000001000 g
b1001111111111000 h
b1010000000000000 0
b1010000000000000 E
b1010 /
b1010 D
1@
08
03
01
16
04
#855000
1(
b1 }
b1010000000000000 ,
b1010000000000000 G
b1010000000000000 q
b11 |
b1010000000001000 #
b1010000000001000 O
b1010000000001000 w
0z
0v
b1010 %
b1010 N
b1010 s
14
#860000
b0 &"
06
0<
04
#865000
b11011110101011011100101011111110 )
b11011110101011011100101011111110 I
b11011110101011011100101011111110 :
b11011110101011011100101011111110 K
b1 '
b1 T
b1 e
1F
b10 |
b1010000000000100 ,
b1010000000000100 G
b1010000000000100 q
b1 &"
14
#870000
04
#875000
b11111110111011011111101011001110 )
b11111110111011011111101011001110 I
b11111110111011011111101011001110 :
b11111110111011011111101011001110 K
b0 e
0-
b0 '
b0 T
0(
0F
b111 }
b0 |
b1010000000001000 ,
b1010000000001000 G
b1010000000001000 q
b10 &"
14
#880000
04
#885000
b0 }
b11 &"
14
#890000
04
#895000
b11011110101011011100101011111110 ""
b1010000000000100 !"
14
#900000
1-
b0 Z
b0 b
b1010000000001000 g
b1001111111111000 h
b1000 R
b10 c
b10 V
b10 Y
b10 `
1<
11
b110000 9
b110000 J
16
04
#905000
b100 e
1+
b1 }
b1010000000000000 ,
b1010000000000000 G
b1010000000000000 q
b110000 |
1v
14
#910000
b0 &"
06
0<
04
#915000
b101 e
1"
1F
b100 &
b100 Q
b11111110111011011111101011001110 $
b11111110111011011111101011001110 P
1{
b100 r
b100000 |
b1010000000000100 ,
b1010000000000100 G
b1010000000000100 q
b11111110111011011111101011001110 5
b11111110111011011111101011001110 H
b1 &"
14
#920000
04
#925000
b0 e
0+
b101 &
b101 Q
0F
b11011110101011011100101011111110 $
b11011110101011011100101011111110 P
b10 }
b101 r
b0 |
b1010000000001000 ,
b1010000000001000 G
b1010000000001000 q
b11011110101011011100101011111110 5
b11011110101011011100101011111110 H
b10 &"
14
#930000
04
#935000
0-
0"
b111 }
0{
b11 &"
14
#940000
04
#945000
b0 }
b100 &"
14
#950000
04
#955000
b0 )
b0 I
b0 :
b0 K
b10000 %"
b1101 C
b11011110101011011100101011111110 #"
b101 $"
14
#960000
1-
b1010111111111000 S
b1010111111110100 f
b1 b
b10 Z
b1 a
b1100 R
b11 c
b11 V
b1 Y
b1 `
1<
b1011000000001100 g
b1010111111110100 h
b1011000000000000 0
b1011000000000000 E
b111 /
b111 D
0@
01
b101001 9
b101001 J
16
04
#965000
1(
b1 }
b1010111111111000 ,
b1010111111111000 G
b1010111111111000 q
b101001 |
b1010111111110100 #
b1010111111110100 O
b1010111111110100 w
0v
b111 %
b111 N
b111 s
14
#970000
b0 &"
06
0<
04
#975000
b110011001100110011001100110011 )
b110011001100110011001100110011 I
b110011001100110011001100110011 :
b110011001100110011001100110011 K
b11 '
b11 T
b11 e
b101000 |
b1010111111111100 ,
b1010111111111100 G
b1010111111111100 q
b1 &"
14
#980000
04
#985000
b1010101010101010101010101010101 )
b1010101010101010101010101010101 I
b1010101010101010101010101010101 :
b1010101010101010101010101010101 K
b101 '
b101 T
b101 e
1F
b100000 |
b1011000000000000 ,
b1011000000000000 G
b1011000000000000 q
b10 &"
14
#990000
04
#995000
b0 e
b0 )
b0 I
b0 :
b0 K
0-
b0 '
b0 T
0(
0F
b111 }
b0 |
b1011000000000100 ,
b1011000000000100 G
b1011000000000100 q
b11 &"
14
#1000000
04
#1005000
b0 }
b100 &"
14
#1010000
04
#1015000
b1000000000 )
b1000000000 I
b1000000000 :
b1000000000 K
b10000 %"
b1110 C
b1010101010101010101010101010101 ""
b1011000000000000 !"
14
#1020000
1-
b1000000000 S
b1000000000 f
b0 b
b0 Z
b0 a
b0 R
b0 c
b0 V
b0 Y
b0 `
1<
b1000000000 g
b1000000000 h
b1000000000 0
b1000000000 E
b0 /
b0 D
1@
11
b0 9
b0 J
16
04
#1025000
b1 }
b1000000000 ,
b1000000000 G
b1000000000 q
b1000000000 #
b1000000000 O
b1000000000 w
1v
b0 %
b0 N
b0 s
14
#1030000
b0 &"
b1010 '"
06
0<
04
#1035000
0-
b111 }
b1 &"
14
#1040000
04
#1045000
b0 }
b10 &"
14
