Lab6/src/sim/cpu_tb.vcd
$date
	Fri Feb 13 16:19:14 2026
$end
$version
	Icarus Verilog
$end
$timescale
	1ps
$end
$scope module cpu_tb $end
$var wire 64 ! ila_reg_data [63:0] $end
$var wire 9 " i_mem_addr_o [8:0] $end
$var wire 1 # d_mem_wen_o $end
$var wire 64 $ d_mem_data_o [63:0] $end
$var wire 8 % d_mem_addr_o [7:0] $end
$var wire 1 & cpu_done $end
$var parameter 32 ' CLK_PERIOD $end
$var parameter 32 ( D_MEM_DEPTH $end
$var parameter 32 ) I_MEM_DEPTH $end
$var parameter 32 * NOP $end
$var parameter 3 + R0 $end
$var parameter 3 , R1 $end
$var parameter 3 - R2 $end
$var parameter 3 . R3 $end
$var reg 1 / clk $end
$var reg 64 0 d_mem_data_i [63:0] $end
$var reg 32 1 i_mem_data_i [31:0] $end
$var reg 3 2 ila_reg_addr [2:0] $end
$var reg 1 3 rst_n $end
$var integer 32 4 cycle_cnt [31:0] $end
$var integer 32 5 error_cnt [31:0] $end
$var integer 32 6 i [31:0] $end
$var integer 32 7 k [31:0] $end
$scope function build_instr $end
$var reg 1 8 mw $end
$var reg 3 9 r0 [2:0] $end
$var reg 3 : r1 [2:0] $end
$var reg 3 ; rd [2:0] $end
$var reg 1 < rw $end
$upscope $end
$scope module u_cpu $end
$var wire 1 / clk $end
$var wire 64 = d_mem_data_i [63:0] $end
$var wire 64 > d_mem_data_o [63:0] $end
$var wire 1 # d_mem_wen_o $end
$var wire 9 ? i_mem_addr_o [8:0] $end
$var wire 32 @ i_mem_data_i [31:0] $end
$var wire 3 A ila_reg_addr [2:0] $end
$var wire 32 B instr_if [31:0] $end
$var wire 1 C pc_en $end
$var wire 3 D reg_write_addr [2:0] $end
$var wire 64 E reg_write_data [63:0] $end
$var wire 1 F reg_write_en $end
$var wire 1 3 rst_n $end
$var wire 1 G reg_write_wb $end
$var wire 1 H reg_write_mem $end
$var wire 1 I reg_write_id $end
$var wire 1 J reg_write_ex $end
$var wire 3 K rdaddr_wb [2:0] $end
$var wire 3 L rdaddr_mem [2:0] $end
$var wire 3 M rdaddr_id [2:0] $end
$var wire 3 N rdaddr_ex [2:0] $end
$var wire 3 O r1addr_id [2:0] $end
$var wire 64 P r1_out_mem [63:0] $end
$var wire 64 Q r1_out_id [63:0] $end
$var wire 64 R r1_out_ex [63:0] $end
$var wire 3 S r0addr_id [2:0] $end
$var wire 64 T r0_out_mem [63:0] $end
$var wire 64 U r0_out_id [63:0] $end
$var wire 64 V r0_out_ex [63:0] $end
$var wire 9 W pc_if [8:0] $end
$var wire 1 X mem_write_mem $end
$var wire 1 Y mem_write_id $end
$var wire 1 Z mem_write_ex $end
$var wire 32 [ instr_id [31:0] $end
$var wire 64 \ ila_reg_data [63:0] $end
$var wire 8 ] d_mem_addr_o [7:0] $end
$var wire 1 & cpu_done $end
$scope module ex_mem_reg $end
$var wire 133 ^ D [132:0] $end
$var wire 1 / clk $end
$var wire 1 _ en $end
$var wire 1 3 rst_n $end
$var parameter 36 ` NUM_REG $end
$var reg 133 a Q [132:0] $end
$upscope $end
$scope module id_ex_reg $end
$var wire 133 b D [132:0] $end
$var wire 1 / clk $end
$var wire 1 c en $end
$var wire 1 3 rst_n $end
$var parameter 36 d NUM_REG $end
$var reg 133 e Q [132:0] $end
$upscope $end
$scope module if_id_reg $end
$var wire 32 f D [31:0] $end
$var wire 1 / clk $end
$var wire 1 g en $end
$var wire 1 3 rst_n $end
$var parameter 32 h NUM_REG $end
$var reg 32 i Q [31:0] $end
$upscope $end
$scope module mem_wb_reg $end
$var wire 4 j D [3:0] $end
$var wire 1 / clk $end
$var wire 1 k en $end
$var wire 1 3 rst_n $end
$var parameter 33 l NUM_REG $end
$var reg 4 m Q [3:0] $end
$upscope $end
$scope module u_pc $end
$var wire 1 / clk $end
$var wire 1 C en $end
$var wire 1 3 rst_n $end
$var reg 9 n pc_out [8:0] $end
$upscope $end
$scope module u_regfile $end
$var wire 1 / clk $end
$var wire 3 o ila_reg_addr [2:0] $end
$var wire 3 p r0addr [2:0] $end
$var wire 3 q r1addr [2:0] $end
$var wire 3 r waddr [2:0] $end
$var wire 64 s wdata [63:0] $end
$var wire 1 F wena $end
$var reg 64 t ila_reg_data [63:0] $end
$var reg 64 u r0data [63:0] $end
$var reg 64 v r1data [63:0] $end
$upscope $end
$upscope $end
$upscope $end
$enddefinitions $end
$comment Show the parameter values. $end
$dumpall
b100 l
b100000 h
b10000101 d
b10000101 `
b11 .
b10 -
b1 ,
b0 +
b0 *
b1000000 )
b1000000 (
b1010 '
$end
#0
$dumpvars
b0 v
b0 u
b0 t
b100 s
b0 r
b0 q
b0 p
b0 o
b0 n
b0 m
1k
b0 j
b0 i
1g
b1000000010000000000000000000000 f
b0 e
1c
b0 b
b0 a
1_
b0 ^
b0 ]
b0 \
b0 [
0Z
0Y
0X
b0 W
b0 V
b0 U
b0 T
b0 S
b0 R
b0 Q
b0 P
b0 O
b0 N
b0 M
b0 L
b0 K
0J
0I
0H
0G
0F
b100 E
b0 D
1C
b1000000010000000000000000000000 B
b0 A
b1000000010000000000000000000000 @
b0 ?
b0 >
b100 =
0<
b0 ;
b11 :
b10 9
18
b100000 7
b1000000 6
b0 5
b0 4
03
b0 2
b1000000010000000000000000000000 1
b100 0
0/
0&
b0 %
b0 $
0#
b0 "
b0 !
$end
#5000
1/
#10000
0/
#15000
1/
#20000
0/
#25000
1/
#30000
13
0/
#35000
b10 M
b1000000011000000000000000000000 B
b1000000011000000000000000000000 f
b1000000011000000000000000000000 1
b1000000011000000000000000000000 @
b1000000000000000000000000000000000000000000000000000000000000000000000000000000000000000000000000000000000000000000000000000000000010 b
1I
b1 "
b1 ?
b1 W
b1 n
b1000000010000000000000000000000 [
b1000000010000000000000000000000 i
1/
#40000
0/
#45000
b1000000000000000000000000000000000000000000000000000000000000000000000000000000000000000000000000000000000000000000000000000000000011 b
b11 M
b10 N
b1000000000000000000000000000000000000000000000000000000000000000000000000000000000000000000000000000000000000000000000000000000000010 ^
1J
b0 B
b0 f
b0 1
b0 @
b1000000000000000000000000000000000000000000000000000000000000000000000000000000000000000000000000000000000000000000000000000000000010 e
b1000000011000000000000000000000 [
b1000000011000000000000000000000 i
b10 "
b10 ?
b10 W
b10 n
1/
#50000
0/
#55000
b0 M
b0 b
0I
b1000000000000000000000000000000000000000000000000000000000000000000000000000000000000000000000000000000000000000000000000000000000011 ^
b11 N
b10 L
b1010 j
1H
b11 "
b11 ?
b11 W
b11 n
b0 [
b0 i
b1000000000000000000000000000000000000000000000000000000000000000000000000000000000000000000000000000000000000000000000000000000000011 e
b1000000000000000000000000000000000000000000000000000000000000000000000000000000000000000000000000000000000000000000000000000000000010 a
1/
#60000
0/
#65000
b10 D
b10 r
b10 K
1F
1G
b1011 j
b11 L
b0 N
b0 ^
0J
b1010 m
b1000000000000000000000000000000000000000000000000000000000000000000000000000000000000000000000000000000000000000000000000000000000011 a
b0 e
b100 "
b100 ?
b100 W
b100 n
1/
#70000
0/
#75000
b10010011000000000000000000000000 B
b10010011000000000000000000000000 f
b10010011000000000000000000000000 1
b10010011000000000000000000000000 @
b0 L
b0 j
0H
b11 D
b11 r
b11 K
b101 "
b101 ?
b101 W
b101 n
b0 a
b1011 m
1/
#80000
0/
#85000
b100 Q
b100 v
b100 U
b100 u
b10 O
b10 q
b11 S
b11 p
b0 D
b0 r
b0 K
0F
0G
b100000000000000000000000000000000000000000000000000000000000001000000000000000000000000000000000000000000000000000000000000000100000 b
1Y
b0 B
b0 f
b0 1
b0 @
b0 m
b10010011000000000000000000000000 [
b10010011000000000000000000000000 i
b110 "
b110 ?
b110 W
b110 n
1/
#90000
0/
#95000
b0 Q
b0 v
b0 U
b0 u
b0 O
b0 q
b0 S
b0 p
b0 b
0Y
b100 R
b100 V
b100000000000000000000000000000000000000000000000000000000000001000000000000000000000000000000000000000000000000000000000000000100000 ^
1Z
b111 "
b111 ?
b111 W
b111 n
b0 [
b0 i
b100000000000000000000000000000000000000000000000000000000000001000000000000000000000000000000000000000000000000000000000000000100000 e
1/
#100000
0/
#105000
b1100100 E
b1100100 s
b1100100 0
b1100100 =
b100 %
b100 ]
b100 $
b100 >
b100 P
b100 T
1#
1X
b0 R
b0 V
b0 ^
0Z
b100000000000000000000000000000000000000000000000000000000000001000000000000000000000000000000000000000000000000000000000000000100000 a
b0 e
b1000 "
b1000 ?
b1000 W
b1000 n
1/
#110000
0/
#115000
b0 %
b0 ]
b0 $
b0 >
b0 P
b0 T
0#
0X
b100 E
b100 s
b100 0
b100 =
b1001 "
b1001 ?
b1001 W
b1001 n
b0 a
1/
#120000
0/
#125000
b1010 "
b1010 ?
b1010 W
b1010 n
1/
#130000
0/
#135000
b1011 "
b1011 ?
b1011 W
b1011 n
1/
#140000
0/
#145000
b1100 "
b1100 ?
b1100 W
b1100 n
1/
#150000
0/
#155000
b1101 "
b1101 ?
b1101 W
b1101 n
1/
#160000
0/
#165000
b1110 "
b1110 ?
b1110 W
b1110 n
1/
#170000
0/
#175000
b1111 "
b1111 ?
b1111 W
b1111 n
1/
#180000
0/
#185000
b10000 "
b10000 ?
b10000 W
b10000 n
1/
#190000
0/
#195000
b10001 "
b10001 ?
b10001 W
b10001 n
1/
#200000
0/
#205000
b10010 "
b10010 ?
b10010 W
b10010 n
1/
#210000
0/
#215000
b10011 "
b10011 ?
b10011 W
b10011 n
1/
#220000
0/
#225000
b10100 "
b10100 ?
b10100 W
b10100 n
b100 !
b100 \
b100 t
b10 2
b10 A
b10 o
1/
#226000
b11 2
b11 A
b11 o
#227000
b0 !
b0 \
b0 t
b0 2
b0 A
b0 o
