Lab6/src/sim/cu_tb.vcd
$date
	Wed Feb 18 14:16:18 2026
$end
$version
	Icarus Verilog
$end
$timescale
	1ps
$end
$scope module cu_tb $end
$var wire 1 ! wr_en2 $end
$var wire 1 " wr_en1 $end
$var wire 4 # wr_addr2 [3:0] $end
$var wire 4 $ wr_addr1 [3:0] $end
$var wire 3 % wb_sel [2:0] $end
$var wire 1 & use_rs $end
$var wire 1 ' use_rn $end
$var wire 1 ( use_rm $end
$var wire 1 ) use_rd $end
$var wire 1 * t_undef $end
$var wire 1 + t_swp $end
$var wire 1 , t_swi $end
$var wire 1 - t_sdt_rego $end
$var wire 1 . t_sdt_immo $end
$var wire 1 / t_mull $end
$var wire 1 0 t_mul $end
$var wire 1 1 t_msr_reg $end
$var wire 1 2 t_msr_imm $end
$var wire 1 3 t_mrs $end
$var wire 1 4 t_hdt_rego $end
$var wire 1 5 t_hdt_immo $end
$var wire 1 6 t_dp_reg $end
$var wire 1 7 t_dp_imm $end
$var wire 1 8 t_bx $end
$var wire 1 9 t_br $end
$var wire 1 : t_bdt $end
$var wire 1 ; swi_en $end
$var wire 1 < swap_byte $end
$var wire 2 = shift_type [1:0] $end
$var wire 1 > shift_src $end
$var wire 5 ? shift_amount [4:0] $end
$var wire 4 @ rs_addr [3:0] $end
$var wire 4 A rn_addr [3:0] $end
$var wire 4 B rm_addr [3:0] $end
$var wire 4 C rd_addr [3:0] $end
$var wire 1 D psr_wr $end
$var wire 1 E psr_rd $end
$var wire 4 F psr_mask [3:0] $end
$var wire 1 G psr_field_sel $end
$var wire 1 H mul_signed_out $end
$var wire 1 I mul_long $end
$var wire 1 J mul_en $end
$var wire 1 K mul_accumulate $end
$var wire 1 L mem_write $end
$var wire 2 M mem_size [1:0] $end
$var wire 1 N mem_signed $end
$var wire 1 O mem_read $end
$var wire 1 P is_multi_cycle $end
$var wire 32 Q imm32 [31:0] $end
$var wire 1 R cpsr_wen $end
$var wire 1 S branch_link $end
$var wire 1 T branch_exchange $end
$var wire 1 U branch_en $end
$var wire 1 V bdt_wb $end
$var wire 1 W bdt_s $end
$var wire 1 X bdt_load $end
$var wire 16 Y bdt_list [15:0] $end
$var wire 1 Z alu_src_b $end
$var wire 4 [ alu_op [3:0] $end
$var wire 1 \ addr_wb $end
$var wire 1 ] addr_up $end
$var wire 1 ^ addr_pre_idx $end
$var parameter 4 _ ALU_ADC $end
$var parameter 4 ` ALU_ADD $end
$var parameter 4 a ALU_AND $end
$var parameter 4 b ALU_BIC $end
$var parameter 4 c ALU_CMN $end
$var parameter 4 d ALU_CMP $end
$var parameter 4 e ALU_EOR $end
$var parameter 4 f ALU_MOV $end
$var parameter 4 g ALU_MVN $end
$var parameter 4 h ALU_ORR $end
$var parameter 4 i ALU_RSB $end
$var parameter 4 j ALU_RSC $end
$var parameter 4 k ALU_SBC $end
$var parameter 4 l ALU_SUB $end
$var parameter 4 m ALU_TEQ $end
$var parameter 4 n ALU_TST $end
$var parameter 2 o SH_ASR $end
$var parameter 2 p SH_LSL $end
$var parameter 2 q SH_LSR $end
$var parameter 2 r SH_ROR $end
$var parameter 3 s WB_ALU $end
$var parameter 3 t WB_LINK $end
$var parameter 3 u WB_MEM $end
$var parameter 3 v WB_MUL $end
$var parameter 3 w WB_PSR $end
$var reg 1 x cond_met $end
$var reg 32 y instr [31:0] $end
$var integer 32 z checks [31:0] $end
$var integer 32 { errors [31:0] $end
$var integer 32 | passes [31:0] $end
$var integer 32 } test_errors [31:0] $end
$var integer 32 ~ test_num [31:0] $end
$scope module dut $end
$var wire 1 \ addr_wb $end
$var wire 1 Z alu_src_b $end
$var wire 1 !" b7_and_b4 $end
$var wire 1 X bdt_load $end
$var wire 1 U branch_en $end
$var wire 1 T branch_exchange $end
$var wire 1 S branch_link $end
$var wire 1 x cond_met $end
$var wire 1 R cpsr_wen $end
$var wire 1 "" dec_bdt $end
$var wire 1 #" dec_br $end
$var wire 1 $" dec_dp_imm $end
$var wire 1 %" dec_dp_reg $end
$var wire 1 &" dec_hdt_immo $end
$var wire 1 '" dec_hdt_rego $end
$var wire 1 (" dec_mrs $end
$var wire 1 )" dec_msr_imm $end
$var wire 1 *" dec_msr_reg $end
$var wire 1 +" dec_mul $end
$var wire 1 ," dec_mull $end
$var wire 1 -" dec_sdt_immo $end
$var wire 1 ." dec_sdt_rego $end
$var wire 1 /" dec_swi $end
$var wire 1 0" dec_swp $end
$var wire 1 1" dec_undef $end
$var wire 1 2" dec_valid $end
$var wire 1 3" dp_reg_ok $end
$var wire 1 4" hdt_pat $end
$var wire 32 5" instr [31:0] $end
$var wire 1 6" is_dp $end
$var wire 1 7" is_hdt $end
$var wire 1 8" is_load $end
$var wire 1 P is_multi_cycle $end
$var wire 1 9" is_sdt $end
$var wire 1 O mem_read $end
$var wire 1 N mem_signed $end
$var wire 1 L mem_write $end
$var wire 1 K mul_accumulate $end
$var wire 1 J mul_en $end
$var wire 1 I mul_long $end
$var wire 1 H mul_signed $end
$var wire 4 :" psr_mask [3:0] $end
$var wire 1 E psr_rd $end
$var wire 1 D psr_wr $end
$var wire 1 ;" raw_we1 $end
$var wire 1 <" raw_we2 $end
$var wire 4 =" rd_addr [3:0] $end
$var wire 4 >" rm_addr [3:0] $end
$var wire 4 ?" rn_addr [3:0] $end
$var wire 4 @" rs_addr [3:0] $end
$var wire 1 A" sh_active $end
$var wire 1 > shift_src $end
$var wire 1 ; swi_en $end
$var wire 1 : t_bdt $end
$var wire 1 9 t_br $end
$var wire 1 8 t_bx $end
$var wire 1 7 t_dp_imm $end
$var wire 1 6 t_dp_reg $end
$var wire 1 5 t_hdt_immo $end
$var wire 1 4 t_hdt_rego $end
$var wire 1 3 t_mrs $end
$var wire 1 2 t_msr_imm $end
$var wire 1 1 t_msr_reg $end
$var wire 1 0 t_mul $end
$var wire 1 / t_mull $end
$var wire 1 . t_sdt_immo $end
$var wire 1 - t_sdt_rego $end
$var wire 1 , t_swi $end
$var wire 1 + t_swp $end
$var wire 1 * t_undef $end
$var wire 1 ) use_rd $end
$var wire 1 ( use_rm $end
$var wire 1 ' use_rn $end
$var wire 1 & use_rs $end
$var wire 4 B" wr_addr2 [3:0] $end
$var wire 1 " wr_en1 $end
$var wire 1 ! wr_en2 $end
$var wire 4 C" wr_addr1 [3:0] $end
$var wire 1 < swap_byte $end
$var wire 2 D" shift_type [1:0] $end
$var wire 5 E" shift_amount [4:0] $end
$var wire 1 F" sh_nonzero $end
$var wire 5 G" rot_amount [4:0] $end
$var wire 1 G psr_field_sel $end
$var wire 1 H" o111 $end
$var wire 1 I" o101 $end
$var wire 1 J" o100 $end
$var wire 1 K" o011 $end
$var wire 1 L" o010 $end
$var wire 1 M" o001 $end
$var wire 1 N" o000 $end
$var wire 32 O" imm_sdt [31:0] $end
$var wire 32 P" imm_hdt [31:0] $end
$var wire 32 Q" imm_dp [31:0] $end
$var wire 32 R" imm_br [31:0] $end
$var wire 32 S" imm8_ext [31:0] $end
$var wire 5 T" f_shamt [4:0] $end
$var wire 2 U" f_sh [1:0] $end
$var wire 1 V" f_s $end
$var wire 4 W" f_rs [3:0] $end
$var wire 4 X" f_rot [3:0] $end
$var wire 4 Y" f_rn [3:0] $end
$var wire 4 Z" f_rm [3:0] $end
$var wire 4 [" f_rd [3:0] $end
$var wire 3 \" f_primary_opcode [2:0] $end
$var wire 4 ]" f_opcode [3:0] $end
$var wire 24 ^" f_off24 [23:0] $end
$var wire 12 _" f_off12 [11:0] $end
$var wire 1 `" f_l $end
$var wire 8 a" f_imm8 [7:0] $end
$var wire 1 b" f_bit7 $end
$var wire 1 c" f_bit4 $end
$var wire 1 d" dp_test $end
$var wire 1 e" dec_bx $end
$var wire 1 V bdt_wb $end
$var wire 1 W bdt_s $end
$var wire 16 f" bdt_list [15:0] $end
$var wire 1 g" b7_4_eq_1001 $end
$var wire 4 h" alu_op_mem [3:0] $end
$var wire 4 i" alu_op [3:0] $end
$var wire 1 ] addr_up $end
$var wire 1 ^ addr_pre_idx $end
$var reg 32 j" imm32 [31:0] $end
$var reg 2 k" mem_size [1:0] $end
$var reg 3 l" wb_sel [2:0] $end
$upscope $end
$scope task apply $end
$var reg 1 m" cm $end
$var reg 32 n" instruction [31:0] $end
$upscope $end
$scope task check $end
$var reg 32 o" actual [31:0] $end
$var reg 32 p" expected [31:0] $end
$var reg 256 q" name [255:0] $end
$upscope $end
$scope task check_one_type $end
$var reg 17 r" sum [16:0] $end
$upscope $end
$scope task finish_last_test $end
$upscope $end
$scope task header $end
$var reg 800 s" desc [799:0] $end
$upscope $end
$upscope $end
$enddefinitions $end
$comment Show the parameter values. $end
$dumpall
b11 w
b100 v
b1 u
b10 t
b0 s
b11 r
b1 q
b0 p
b10 o
b1000 n
b1001 m
b10 l
b110 k
b111 j
b11 i
b1100 h
b1111 g
b1101 f
b1 e
b1010 d
b1011 c
b1110 b
b0 a
b100 `
b101 _
$end
#0
$dumpvars
bx s"
bx r"
bx q"
bx p"
bx o"
bx n"
xm"
b0 l"
b10 k"
b0 j"
b0 i"
b10 h"
0g"
b0 f"
0e"
0d"
0c"
0b"
b0 a"
0`"
b0 _"
b0 ^"
b0 ]"
b0 \"
b0 ["
b0 Z"
b0 Y"
b0 X"
b0 W"
0V"
b0 U"
b0 T"
b0 S"
b0 R"
b0 Q"
b0 P"
b0 O"
1N"
0M"
0L"
0K"
0J"
0I"
0H"
b0 G"
0F"
b0 E"
b0 D"
b0 C"
b0 B"
1A"
b0 @"
b0 ?"
b0 >"
b0 ="
0<"
1;"
b0 :"
09"
08"
07"
16"
b0 5"
04"
13"
12"
01"
00"
0/"
0."
0-"
0,"
0+"
0*"
0)"
0("
0'"
0&"
1%"
0$"
0#"
0""
0!"
b0 ~
b0 }
b0 |
b0 {
b0 z
b0 y
1x
0^
0]
1\
b0 [
0Z
b0 Y
0X
0W
0V
0U
0T
0S
0R
b0 Q
0P
0O
0N
b10 M
0L
0K
0J
0I
0H
0G
b0 F
0E
0D
b0 C
b0 B
b0 A
b0 @
b0 ?
0>
b0 =
0<
0;
0:
09
08
07
16
05
04
03
02
01
00
0/
0.
0-
0,
0+
0*
0)
1(
1'
0&
b0 %
b0 $
b0 #
1"
0!
$end
#20000
0(
0"
0;"
06"
0A"
06
0%"
1P
b100 $
b100 C"
03"
1d"
b100 [
b100 i"
b0 ?
b0 E"
b10000 G"
0N"
1:
1""
1J"
b100 \"
b1001 ]"
b1101 F
b1101 :"
b1101 #
b1101 B"
b1101 A
b1101 ?"
b1101 Y"
b100 C
b100 ="
b100 ["
b10000000 P"
b1000 @
b1000 @"
b1000 W"
b10000 T"
b1000 X"
b100000000000 O"
b100000000000 _"
b101101010010000000000000 R"
b1011010100100000000000 ^"
1^
b100100000000000 Y
b100100000000000 f"
1V
b11101001001011010100100000000000 y
b11101001001011010100100000000000 5"
1m"
b11101001001011010100100000000000 n"
b1 ~
b110000011110000011000000110000001100000010000001010000010101010101001101001000001000000111101101100110011100000010110001101100011100100111110100100000001010000100010100111001001100100100010000110100001110000011000000110000001010010010000000101101001000000100001001000100010101000010000001110011011101000110111101110010011001010010000001110000011100100110010100101101011001000110010101100011001000000101011101000010 s"
#30000
1"
1;"
0*
01"
12"
1Z
0P
b100 Q
b100 j"
16"
1'
b1011 $
b1011 C"
b100 Q"
17
1$"
0d"
b0 G"
b100 h"
1\
1M"
0:
0""
0J"
b1 \"
b100 ]"
b1011 C
b1011 ="
b1011 ["
b0 @
b0 @"
b0 W"
b0 T"
b100 P"
b100 B
b100 >"
b100 Z"
b100 S"
b100 a"
b0 X"
b100 O"
b100 _"
b11111110001101101100000000010000 R"
b100011011011000000000100 ^"
0^
1]
b1011000000000100 Y
b1011000000000100 f"
0V
b11100010100011011011000000000100 y
b11100010100011011011000000000100 5"
b11100010100011011011000000000100 n"
b10 ~
b1100000111100000110000001100000011010000100000010000010100010001000100001000000110011001110000001011000111001101110000001011000010001100110100001000000010100001000101001100100011100001000100010000100011000000110000001101000010100100100000001011010010000001000100010100000010000001101001011011010110110100100000010000010100010001000100 s"
b0 p"
b0 o"
b11000100111001001100001011011100110001101101000010111110110010101101110 q"
b10000 |
b1 r"
b10000 z
#40000
b1101 $
b1101 C"
b111000 Q
b111000 j"
b10 [
b10 i"
b111000 Q"
b10 h"
b10 ]"
b1101 C
b1101 ="
b1101 ["
1F"
b1 U"
1c"
b1000 P"
b1000 B
b1000 >"
b1000 Z"
b111000 S"
b111000 a"
b111000 O"
b111000 _"
b1001101110100000011100000 R"
b10011011101000000111000 ^"
0]
1G
b1101000000111000 Y
b1101000000111000 f"
1W
1<
b11100010010011011101000000111000 y
b11100010010011011101000000111000 5"
b11100010010011011101000000111000 n"
b11 ~
b110000011110000011000000110000001110000010000001010011010101010100001000100000011100110111000000101100011100110111000000101100001000110011010100110110001000000010100001000101001100100011010001000100010001000011000000110011001110000010100100100000001011010010000001000100010100000010000001101001011011010110110100100000010100110101010101000010 s"
b0 p"
b0 o"
b11101010111001101100101010111110111001001110011 q"
b100010 |
b100010 z
#50000
1O
06"
b1 %
b1 l"
0R
b11 $
b11 C"
b1 Q"
b100000100 Q
b100000100 j"
0\
07
0$"
19"
b100 [
b100 i"
b10 G"
b100 h"
0M"
1.
1-"
1L"
b10 \"
b1100 ]"
1X
18"
1`"
1V"
b1111 F
b1111 :"
b1111 #
b1111 B"
b1111 A
b1111 ?"
b1111 Y"
b11 C
b11 ="
b11 ["
b1 @
b1 @"
b1 W"
b10 T"
0F"
b0 U"
0c"
b10100 P"
b100 B
b100 >"
b100 Z"
b100 S"
b100 a"
b1 X"
b100000100 O"
b100000100 _"
b11111110011111001100010000010000 R"
b100111110011000100000100 ^"
1^
1]
0G
b11000100000100 Y
b11000100000100 f"
0W
0<
b11100101100111110011000100000100 y
b11100101100111110011000100000100 5"
b11100101100111110011000100000100 n"
b100 ~
b1100000111100000110000001100000100001100100000010011000100010001010010001000000111001000110011001011000101101101110000011000110010110000100011001100100011011000110000010111010010000000101000010001010011010100111001010001100011001100110001001100000011010000101001001000000010110100100000010100110100010001010100001000000110100101101101011011010010000001001100010001000101001000100000010101010011110100110001 s"
b1101 p"
b1101 o"
b111011101110010010111110110000101100100011001000111001000110001 q"
b101010 |
b101010 z
#60000
0*
01"
12"
1"
1'
1;"
0)
b10 [
b10 i"
16"
1Z
0L
b1100 $
b1100 C"
b111000 Q"
1\
17
1$"
09"
0O
b0 G"
b111000 Q
b111000 j"
b10 h"
b0 %
b0 l"
b10 M
b10 k"
1M"
0.
0-"
0L"
b1 \"
b10 ]"
0X
08"
0`"
0V"
b1011 F
b1011 :"
b1011 #
b1011 B"
b1011 A
b1011 ?"
b1011 Y"
b1100 C
b1100 ="
b1100 ["
b0 @
b0 @"
b0 W"
b0 T"
1F"
b1 U"
1c"
b1000 P"
b1000 B
b1000 >"
b1000 Z"
b111000 S"
b111000 a"
b0 X"
b111000 O"
b111000 _"
b1001011110000000011100000 R"
b10010111100000000111000 ^"
0^
0]
1G
b1100000000111000 Y
b1100000000111000 f"
1W
1<
b11100010010010111100000000111000 y
b11100010010010111100000000111000 5"
b11100010010010111100000000111000 n"
b101 ~
b110000011110000011000000110001001100000010000001010011010101010100001000100000011010010111000000101100011001100111000000101100001000110011010100110110001000000010100001000101001100100011010001000010010000110011000000110011001110000010100100100000001011010010000001000100010100000010000001101001011011010110110100100000010100110101010101000010 s"
b0 p"
b0 o"
b11101010111001101100101010111110111001001100100 q"
b111101 |
b111101 z
#70000
0*
01"
12"
1(
1"
1;"
1'
1A"
16
1%"
0Z
16"
b1110 $
b1110 C"
b0 Q
b0 j"
13"
07
0$"
b1101 [
b1101 i"
b11 Q"
b100 h"
1N"
0M"
b0 \"
b1101 ]"
b0 F
b0 :"
b0 #
b0 B"
b0 A
b0 ?"
b0 Y"
b1110 C
b1110 ="
b1110 ["
0F"
b0 U"
0c"
b11 P"
b11 B
b11 >"
b11 Z"
b11 S"
b11 a"
b11 O"
b11 _"
b11111110100000111000000000001100 R"
b101000001110000000000011 ^"
1^
1]
0G
b1110000000000011 Y
b1110000000000011 f"
0W
1V
0<
b11100001101000001110000000000011 y
b11100001101000001110000000000011 5"
b11100001101000001110000000000011 n"
b110 ~
b1100000111100000110000001100010011010000100000010011010100111101010110001000000110110001110010001011000111001000110011001000000010100001000101001100010100000100110000010001010011000000110000001100110010100100100000001011010010000001000100010100000010000001110010011001010110011100100000010011010100111101010110 s"
b1100 p"
b1100 o"
b111011101110010010111110110000101100100011001000111001000110001 q"
b1000101 |
b1000101 z
#80000
0"
0;"
0(
06"
0A"
06
0%"
1P
0R
b0 $
b0 C"
03"
b100 [
b100 i"
b1111 Q"
0N"
1:
1""
1J"
b100 \"
b101 ]"
1X
18"
1`"
1V"
b1110 F
b1110 :"
b1110 #
b1110 B"
b1110 A
b1110 ?"
b1110 Y"
b0 C
b0 ="
b0 ["
b1111 P"
b1111 B
b1111 >"
b1111 Z"
b1111 S"
b1111 a"
b1111 O"
b1111 _"
b11111110111110000000000000111100 R"
b101111100000000000001111 ^"
0^
b1111 Y
b1111 f"
b11101000101111100000000000001111 y
b11101000101111100000000000001111 5"
b11101000101111100000000000001111 n"
b111 ~
b1100000111100000110000001100010011100000100000010011000100010001001101010010010100000100100000011011000111001000100001001011000111101101110010001100000010110101110010001100110111110100100000001010000100010100111000010000100100010100110000001100000011000001000110001010010010000000101101001000000100001001000100010101000010000001101100011011110110000101100100001000000100100101000001001000000101011101000010 s"
b0 p"
b0 o"
b11101010111001101100101010111110111001001110011 q"
b1010101 |
b1010101 z
#90000
0X
08"
0`"
0V"
b1100 F
b1100 :"
b1100 #
b1100 B"
b1100 A
b1100 ?"
b1100 Y"
b11111110101100000000000000111100 R"
b101011000000000000001111 ^"
b11101000101011000000000000001111 y
b11101000101011000000000000001111 5"
b11101000101011000000000000001111 n"
b1000 ~
b110000011110000011000000110001010000110010000001010011010101000100110101001001010000010010000001101001011100000010000100101100011110110111001000110000001011010111001000110011011111010010000000101000010001010011100001000001010000110011000000110000001100000100011000101001001000000010110100100000010000100100010001010100001000000111001101110100011011110111001001100101001000000100100101000001001000000101011101000010 s"
b1 p"
b1 o"
b11101010111001101100101010111110111001001101110 q"
b1011111 |
b1011111 z
#100000
b11 Q"
b100 ]"
1X
18"
1`"
1V"
b1110 F
b1110 :"
b1110 #
b1110 B"
b1110 A
b1110 ?"
b1110 Y"
b11 P"
b11 B
b11 >"
b11 Z"
b11 S"
b11 a"
b11 O"
b11 _"
b11111110011110000000000000001100 R"
b100111100000000000000011 ^"
b11 Y
b11 f"
0V
b11101000100111100000000000000011 y
b11101000100111100000000000000011 5"
b11101000100111100000000000000011 n"
b1001 ~
b1100000111100000110000001100100011100000100000010011000100010001001101001000000110110001110010001011000111101101110010001100000010110001110010001100010111110100100000001010000100010100111000001110010100010100110000001100000011000000110011001010010010000000101101001000000100001001000100010101000010000001101100011011110110000101100100001000000110111001101111001000000101011101000010 s"
b0 p"
b0 o"
b11000010110010001100100011100100101111101110000011100100110010101011111011010010110010001111000 q"
b1100111 |
b1100111 z
#110000
0X
08"
0`"
0V"
b1100 F
b1100 :"
b1100 #
b1100 B"
b1100 A
b1100 ?"
b1100 Y"
b11111110001100000000000000001100 R"
b100011000000000000000011 ^"
b11101000100011000000000000000011 y
b11101000100011000000000000000011 5"
b11101000100011000000000000000011 n"
b1010 ~
b110000011110000011000000110010010000110010000001010011010101000100110100100000011010010111000000101100011110110111001000110000001011000111001000110001011111010010000000101000010001010011100000111000010000110011000000110000001100000011001100101001001000000010110100100000010000100100010001010100001000000111001101110100011011110111001001100101001000000110111001101111001000000101011101000010 s"
b0 p"
b0 o"
b11000010110010001100100011100100101111101110000011100100110010101011111011010010110010001111000 q"
b1101110 |
b1101110 z
#120000
1"
1;"
0*
01"
12"
1Z
b1101 [
b1101 i"
0P
16"
1'
b11 $
b11 C"
17
1$"
b0 Q"
1M"
0:
0""
0J"
b1 \"
b1101 ]"
b0 F
b0 :"
b0 #
b0 B"
b0 A
b0 ?"
b0 Y"
b11 C
b11 ="
b11 ["
b0 P"
b0 B
b0 >"
b0 Z"
b0 S"
b0 a"
b0 O"
b0 _"
b11111110100000001100000000000000 R"
b101000000011000000000000 ^"
1^
b11000000000000 Y
b11000000000000 f"
1V
b11100011101000000011000000000000 y
b11100011101000000011000000000000 5"
b11100011101000000011000000000000 n"
b1011 ~
b1100000111100000110000001100110011000000100000010011010100111101010110001000000111001000110011001011000010001100110000001000000010100001000101001100110100000100110000001100110011000000110000001100000010100100100000001011010010000001000100010100000010000001101001011011010110110100100000010011010100111101010110 s"
b0 p"
b0 o"
b11000100110010001110100010111110111011101100010 q"
b1110100 |
b1110100 z
#130000
0"
0;"
1)
1L
06"
b1000 Q
b1000 j"
07
0$"
19"
1d"
b10 [
b10 i"
b1000 Q"
b10 h"
0\
0M"
1.
1-"
1L"
b10 \"
b1000 ]"
b1011 F
b1011 :"
b1011 #
b1011 B"
b1011 A
b1011 ?"
b1011 Y"
b1000 P"
b1000 B
b1000 >"
b1000 Z"
b1000 S"
b1000 a"
b1000 O"
b1000 _"
b1011001100000000100000 R"
b10110011000000001000 ^"
0]
b11000000001000 Y
b11000000001000 f"
0V
b11100101000010110011000000001000 y
b11100101000010110011000000001000 5"
b11100101000010110011000000001000 n"
b1100 ~
b11000001111000001100000011001100110100001000000101001101010100010100100010000001110010001100110010110001011011011001100111000000101100001000110010110100111000010111010010000000101000010001010011010100110000010000100011001100110000001100000011100000101001001000000010110100100000010100110100010001010100001000000110100101101101011011010010000001010011010101000101001000100000010101010011110100110000 s"
b0 p"
b0 o"
b11101110110001001011111011100110110010101101100 q"
b1111100 |
b1111100 z
#140000
0'
0)
b100 [
b100 i"
0L
0Z
1U
b0 $
b0 C"
1\
09"
0d"
b101110 Q"
b10111000 Q
b10111000 j"
0.
0-"
0L"
19
1#"
1I"
b101 \"
b0 ]"
b0 F
b0 :"
b0 #
b0 B"
b0 A
b0 ?"
b0 Y"
b0 C
b0 ="
b0 ["
1F"
b1 U"
b1110 P"
b1110 B
b1110 >"
b1110 Z"
b101110 S"
b101110 a"
b101110 O"
b101110 _"
b10111000 R"
b101110 ^"
0^
b101110 Y
b101110 f"
b11101010000000000000000000101110 y
b11101010000000000000000000101110 5"
b11101010000000000000000000101110 n"
b1101 ~
b1100000111100000110000001100110011100000100000010000100010000000101110010011000011001000100000001010000100010101000001001100000011000000110000001100000011001001000101001010010010000000101101001000000100001001110010011000010110111001100011011010000010000001100110011011110111001001110111011000010111001001100100 s"
b1 p"
b1 o"
b11101010111001101100101010111110111001001100100 q"
b10001101 |
b10001101 z
#150000
1"
1;"
1'
0*
01"
12"
b10 [
b10 i"
1O
b1 %
b1 l"
1Z
0U
b11 $
b11 C"
0\
19"
1d"
b1000 Q"
b1000 Q
b1000 j"
0S
1.
1-"
1L"
09
0#"
0I"
b10 \"
b1000 ]"
1X
18"
1`"
1V"
b1011 F
b1011 :"
b1011 #
b1011 B"
b1011 A
b1011 ?"
b1011 Y"
b11 C
b11 ="
b11 ["
0F"
b0 U"
b1000 P"
b1000 B
b1000 >"
b1000 Z"
b1000 S"
b1000 a"
b1000 O"
b1000 _"
b11011001100000000100000 R"
b110110011000000001000 ^"
1^
b11000000001000 Y
b11000000001000 f"
b11100101000110110011000000001000 y
b11100101000110110011000000001000 5"
b11100101000110110011000000001000 n"
b1110 ~
b11000001111000001100000011001101000011001000000100110001000100010100100010000001110010001100110010110001011011011001100111000000101100001000110010110100111000010111010010000000101000010001010011010100110001010000100011001100110000001100000011100000101001001000000010110100100000010100110100010001010100001000000110100101101101011011010010000001001100010001000101001000100000010101010011110100110000 s"
b0 p"
b0 o"
b11011010110010101101101010111110111011101110010011010010111010001100101 q"
b10010101 |
b10010101 z
#160000
0*
01"
12"
1"
1'
1;"
0)
b100 [
b100 i"
16"
1Z
0L
1\
17
1$"
09"
0d"
0O
b1 Q"
b1 Q
b1 j"
b100 h"
b0 %
b0 l"
1M"
0.
0-"
0L"
b1 \"
b100 ]"
0X
08"
0`"
0V"
b11 F
b11 :"
b11 #
b11 B"
b11 A
b11 ?"
b11 Y"
b1 P"
b1 B
b1 >"
b1 Z"
b1 S"
b1 a"
b1 O"
b1 _"
b11111110000011001100000000000100 R"
b100000110011000000000001 ^"
0^
1]
b11000000000001 Y
b11000000000001 f"
b11100010100000110011000000000001 y
b11100010100000110011000000000001 5"
b11100010100000110011000000000001 n"
b1111 ~
b11000001111000001100000011010000110000001000000100000101000100010001000010000001110010001100110010110001110010001100110010110000100011001100010010000000101000010001010011001000111000001100110011001100110000001100000011000100101001001000000010110100100000010001000101000000100000011010010110110101101101001000000100000101000100010001000010000001110011011000010110110101100101001000000101001001101110001011110101001001100100 s"
b1 p"
b1 o"
b11101110110001001011111011100110110010101101100 q"
b10100011 |
b10100011 z
#170000
0"
0;"
1)
1L
06"
b1100 Q
b1100 j"
0\
07
0$"
19"
1d"
b10 [
b10 i"
b1100 Q"
b10 h"
0M"
1.
1-"
1L"
b10 \"
b1000 ]"
b1011 F
b1011 :"
b1011 #
b1011 B"
b1011 A
b1011 ?"
b1011 Y"
b1100 P"
b1100 B
b1100 >"
b1100 Z"
b1100 S"
b1100 a"
b1100 O"
b1100 _"
b1011001100000000110000 R"
b10110011000000001100 ^"
1^
0]
b11000000001100 Y
b11000000001100 f"
b11100101000010110011000000001100 y
b11100101000010110011000000001100 5"
b11100101000010110011000000001100 n"
b10000 ~
b1100000111100000110000001101000011010000100000010100110101010001010010001000000111001000110011001011000101101101100110011100000010110000100011001011010011000100110010010111010010000000101000010001010011010100110000010000100011001100110000001100000100001100101001001000000010110100100000010100110100010001010100001000000110100101101101011011010010000001010011010101000101001000100000011011110110011001100110001111010011000100110010 s"
b0 p"
b0 o"
b110001101110000011100110111001001011111011101110110010101101110 q"
b10101100 |
b10101100 z
#180000
0'
0)
b100 [
b100 i"
0L
0Z
1U
b0 $
b0 C"
1\
09"
0d"
b100100 Q"
b10010000 Q
b10010000 j"
0.
0-"
0L"
19
1#"
1I"
b101 \"
b0 ]"
b0 F
b0 :"
b0 #
b0 B"
b0 A
b0 ?"
b0 Y"
b0 C
b0 ="
b0 ["
1F"
b1 U"
b100 P"
b100 B
b100 >"
b100 Z"
b100100 S"
b100100 a"
b100100 O"
b100100 _"
b10010000 R"
b100100 ^"
0^
b100100 Y
b100100 f"
b11101010000000000000000000100100 y
b11101010000000000000000000100100 5"
b11101010000000000000000000100100 n"
b10001 ~
b1100000111100000110000001101000011100000100000010000100010000000101110010011000011001100100000001010000100010101000001001100000011000000110000001100000011001000110100001010010010000000101101001000000100001001110010011000010110111001100011011010000010000001100110011011110111001001110111011000010111001001100100 s"
b1 p"
b1 o"
b11101010111001101100101010111110111001001100100 q"
b10110101 |
b10110101 z
#190000
1"
1;"
1(
1'
b1101 [
b1101 i"
b10 ?
b10 E"
0*
01"
16"
1A"
12"
16
1%"
0U
b11 $
b11 C"
b11000000000000000000000000000000 Q"
13"
b10 G"
b0 Q
b0 j"
b100 h"
0S
1N"
09
0#"
0I"
b0 \"
b1101 ]"
b11 C
b11 ="
b11 ["
b1 @
b1 @"
b1 W"
b10 T"
0F"
b0 U"
b10011 P"
b11 B
b11 >"
b11 Z"
b11 S"
b11 a"
b1 X"
b100000011 O"
b100000011 _"
b11111110100000001100010000001100 R"
b101000000011000100000011 ^"
1^
1]
b11000100000011 Y
b11000100000011 f"
1V
b11100001101000000011000100000011 y
b11100001101000000011000100000011 5"
b11100001101000000011000100000011 n"
b10010 ~
b110000011110000011000000110101001100000010000001001100010100110100110000100000011100100011001100101100011100100011001100101100001000110011001000100000001010000100010100110001010000010011000000110011001100010011000000110011001010010010000000101101001000000100010001010000001000000111001001100101011001110010000001001101010011110101011000101011010011000101001101001100 s"
b10010000 p"
b10010000 o"
b110100101101101011011010011001100110010 q"
b10111010 |
b10111010 z
#200000
0(
0A"
06
0%"
1Z
b100 Q"
b100 Q
b100 j"
03"
17
1$"
b10 [
b10 i"
b0 ?
b0 E"
b0 G"
b10 h"
1\
0N"
1M"
b1 \"
b10 ]"
b11 F
b11 :"
b11 #
b11 B"
b11 A
b11 ?"
b11 Y"
b0 @
b0 @"
b0 W"
b0 T"
b100 P"
b100 B
b100 >"
b100 Z"
b100 S"
b100 a"
b0 X"
b100 O"
b100 _"
b1000011001100000000010000 R"
b10000110011000000000100 ^"
0^
0]
1G
b11000000000100 Y
b11000000000100 f"
1W
0V
1<
b11100010010000110011000000000100 y
b11100010010000110011000000000100 5"
b11100010010000110011000000000100 n"
b10011 ~
b1100000111100000110000001101010011010000100000010100110101010101000010001000000111001000110011001011000111001000110011001011000010001100110100001000000010100001000101001100100011010000110011001100110011000000110000001101000010100100100000001011010010000001000100010100000010000001101001011011010110110100100000010100110101010101000010 s"
b0 p"
b0 o"
b11101010111001101100101010111110111001001110011 q"
b11000111 |
b11000111 z
