Lab6/src/sim/test.txt
VCD info: dumpfile soc_mt_tb.vcd opened for output.

======================================================================
   SoC-Level Quad-Thread ARMv4T Multithreaded Pipeline Testbench
======================================================================
   Thread 0: network_proc0 (packet header/swap/checksum)
   Thread 1: network_proc1 (XOR encryption)
   Thread 2: network_proc2 (counter decrement)
   Thread 3: network_proc3 (field comparison)
----------------------------------------------------------------------
   Code:  T0@0x0500  T1@0x0600  T2@0x0700  T3@0x0800
   Sent:  T0@0x05fc  T1@0x06fc  T2@0x07fc  T3@0x08fc
   Data:  T0@0x0100  T1@0x0200  T2@0x0300  T3@0x0400
   Stack: T0@0x1000  T1@0x1200  T2@0x1400  T3@0x1600
----------------------------------------------------------------------
   IMEM:  1024 words (10-bit addr)   DMEM:  4096 words (12-bit addr)
   IMEM needed: 576 words   DMEM needed: 1409 words
   MAX_CYCLES: 10000   TRACE_EN: 1   TRACE_LIMIT: 600
======================================================================


--------------------------------------------------
  PHASE A: Basic MMIO Infrastructure Tests
--------------------------------------------------

[A1] CTRL read -- expect idle (0)
[A2] IMEM sequential W+R (8 words)
[A3] DMEM sequential W+R (8 words)
[A4] Write-after-write -- last value wins
[A5] Read-after-read -- non-destructive
[A6] Random IMEM W+R (64 entries)
  Checked 56 IMEM addresses
[A7] Random DMEM W+R (64 entries)
  Checked 57 DMEM addresses
[A8] Mixed IMEM/DMEM interleaved (64 writes)
  Checked 162 total addresses

  Phase A summary: 298 passed, 0 failed

--------------------------------------------------
  PHASE B: Multithreaded Network Processing Tests
--------------------------------------------------

┌──────────────────────────────────────────────────────────────┐
│  Scenario A: Normal Path (all four threads)
└──────────────────────────────────────────────────────────────┘
  [LOAD] Thread 0 code: 0x00000500 - 0x000005c4
  [LOAD] Thread 1 code: 0x00000600 - 0x0000068c (+literal @0x00000690)
  [LOAD] Thread 2 code: 0x00000700 - 0x0000076c
  [LOAD] Thread 3 code: 0x00000800 - 0x0000084c
  [LOAD] Sentinels placed at T0=0x000005fc T1=0x000006fc T2=0x000007fc T3=0x000008fc
  [DATA] Scenario A data loaded into local_mem
  Loading 576 words to IMEM, 576 words to DMEM...
  Image load complete (extent=576 words).
  [INIT] SPs: T0=0x00001000 T1=0x00001200 T2=0x00001400 T3=0x00001600
  [INIT] LRs: T0=0x000005fc T1=0x000006fc T2=0x000007fc T3=0x000008fc
  [RUN]  start=1, CPU executing...
  [INIT] PCs: T0=0x00000500 T1=0x00000600 T2=0x00000700 T3=0x00000800
[C00001] PC: T0=0x00000504 T1=0x00000600 T2=0x00000700 T3=0x00000800
[C00002] PC: T0=0x00000504 T1=0x00000604 T2=0x00000700 T3=0x00000800
[C00003] PC: T0=0x00000504 T1=0x00000604 T2=0x00000704 T3=0x00000800
[C00004] PC: T0=0x00000504 T1=0x00000604 T2=0x00000704 T3=0x00000804
[C00005] PC: T0=0x00000508 T1=0x00000604 T2=0x00000704 T3=0x00000804
[C00006] PC: T0=0x00000508 T1=0x00000608 T2=0x00000704 T3=0x00000804
[C00007] PC: T0=0x00000508 T1=0x00000608 T2=0x00000708 T3=0x00000804
[C00008] PC: T0=0x00000508 T1=0x00000608 T2=0x00000708 T3=0x00000808
[C00009] PC: T0=0x0000050c T1=0x00000608 T2=0x00000708 T3=0x00000808
[C00010] PC: T0=0x0000050c T1=0x0000060c T2=0x00000708 T3=0x00000808
[C00011] PC: T0=0x0000050c T1=0x0000060c T2=0x0000070c T3=0x00000808
[C00012] PC: T0=0x0000050c T1=0x0000060c T2=0x0000070c T3=0x0000080c
[C00013] PC: T0=0x00000510 T1=0x0000060c T2=0x0000070c T3=0x0000080c
[C00014] PC: T0=0x00000510 T1=0x00000610 T2=0x0000070c T3=0x0000080c
[C00015] PC: T0=0x00000510 T1=0x00000610 T2=0x00000710 T3=0x0000080c
[C00016] PC: T0=0x00000510 T1=0x00000610 T2=0x00000710 T3=0x00000810
[C00017] PC: T0=0x00000514 T1=0x00000610 T2=0x00000710 T3=0x00000810
[C00018] PC: T0=0x00000514 T1=0x00000614 T2=0x00000710 T3=0x00000810
[C00019] PC: T0=0x00000514 T1=0x00000614 T2=0x00000714 T3=0x00000810
[C00020] PC: T0=0x00000514 T1=0x00000614 T2=0x00000714 T3=0x00000814
[C00021] PC: T0=0x00000518 T1=0x00000614 T2=0x00000714 T3=0x00000814
[C00022] PC: T0=0x00000518 T1=0x00000618 T2=0x00000714 T3=0x00000814
[C00023] PC: T0=0x00000518 T1=0x00000618 T2=0x00000718 T3=0x00000814
[C00024] PC: T0=0x00000518 T1=0x00000618 T2=0x00000718 T3=0x00000818
[C00025] PC: T0=0x0000051c T1=0x00000618 T2=0x00000718 T3=0x00000818
[C00026] PC: T0=0x0000051c T1=0x0000061c T2=0x00000718 T3=0x00000818
[C00027] PC: T0=0x0000051c T1=0x0000061c T2=0x0000071c T3=0x00000818
[C00028] PC: T0=0x0000051c T1=0x0000061c T2=0x0000071c T3=0x0000081c
[C00029] PC: T0=0x00000520 T1=0x0000061c T2=0x0000071c T3=0x0000081c
[C00030] PC: T0=0x00000520 T1=0x00000620 T2=0x0000071c T3=0x0000081c
[C00031] PC: T0=0x00000520 T1=0x00000620 T2=0x00000720 T3=0x0000081c
[C00032] PC: T0=0x00000520 T1=0x00000620 T2=0x00000720 T3=0x00000820
[C00033] PC: T0=0x00000524 T1=0x00000620 T2=0x00000720 T3=0x00000820
[C00034] PC: T0=0x00000524 T1=0x00000624 T2=0x00000720 T3=0x00000820
[C00035] PC: T0=0x00000524 T1=0x00000624 T2=0x00000724 T3=0x00000820
[C00036] PC: T0=0x00000524 T1=0x00000624 T2=0x00000724 T3=0x00000824
[C00037] PC: T0=0x00000534 T1=0x00000624 T2=0x00000724 T3=0x00000824
[C00038] PC: T0=0x00000534 T1=0x00000628 T2=0x00000724 T3=0x00000824
[C00039] PC: T0=0x00000534 T1=0x00000628 T2=0x00000740 T3=0x00000824
[C00040] PC: T0=0x00000534 T1=0x00000628 T2=0x00000740 T3=0x00000828
[C00041] PC: T0=0x00000538 T1=0x00000628 T2=0x00000740 T3=0x00000828
[C00042] PC: T0=0x00000538 T1=0x0000062c T2=0x00000740 T3=0x00000828
[C00043] PC: T0=0x00000538 T1=0x0000062c T2=0x00000744 T3=0x00000828
[C00044] PC: T0=0x00000538 T1=0x0000062c T2=0x00000744 T3=0x0000082c
[C00045] PC: T0=0x0000053c T1=0x0000062c T2=0x00000744 T3=0x0000082c
[C00046] PC: T0=0x0000053c T1=0x00000630 T2=0x00000744 T3=0x0000082c
[C00047] PC: T0=0x0000053c T1=0x00000630 T2=0x00000748 T3=0x0000082c
[C00048] PC: T0=0x0000053c T1=0x00000630 T2=0x00000748 T3=0x00000830
[C00049] PC: T0=0x00000540 T1=0x00000630 T2=0x00000748 T3=0x00000830
[C00050] PC: T0=0x00000540 T1=0x00000664 T2=0x00000748 T3=0x00000830
[C00051] PC: T0=0x00000540 T1=0x00000664 T2=0x0000074c T3=0x00000830
[C00052] PC: T0=0x00000540 T1=0x00000664 T2=0x0000074c T3=0x00000834
[C00053] PC: T0=0x00000544 T1=0x00000664 T2=0x0000074c T3=0x00000834
[C00054] PC: T0=0x00000544 T1=0x00000668 T2=0x0000074c T3=0x00000834
[C00055] PC: T0=0x00000544 T1=0x00000668 T2=0x00000750 T3=0x00000834
[C00056] PC: T0=0x00000544 T1=0x00000668 T2=0x00000750 T3=0x00000844
[C00057] PC: T0=0x00000548 T1=0x00000668 T2=0x00000750 T3=0x00000844
[C00058] PC: T0=0x00000548 T1=0x0000066c T2=0x00000750 T3=0x00000844
[C00059] PC: T0=0x00000548 T1=0x0000066c T2=0x00000754 T3=0x00000844
[C00060] PC: T0=0x00000548 T1=0x0000066c T2=0x00000754 T3=0x00000848
[C00061] PC: T0=0x0000054c T1=0x0000066c T2=0x00000754 T3=0x00000848
[C00062] PC: T0=0x0000054c T1=0x00000670 T2=0x00000754 T3=0x00000848
[C00063] PC: T0=0x0000054c T1=0x00000670 T2=0x00000758 T3=0x00000848
[C00064] PC: T0=0x0000054c T1=0x00000670 T2=0x00000758 T3=0x0000084c
[C00065] PC: T0=0x00000550 T1=0x00000670 T2=0x00000758 T3=0x0000084c
[C00066] PC: T0=0x00000550 T1=0x00000630 T2=0x00000758 T3=0x0000084c
[C00067] PC: T0=0x00000550 T1=0x00000630 T2=0x0000075c T3=0x0000084c
[C00068] PC: T0=0x00000550 T1=0x00000630 T2=0x0000075c T3=0x00000850
[C00069] PC: T0=0x00000554 T1=0x00000630 T2=0x0000075c T3=0x00000850
[C00070] PC: T0=0x00000554 T1=0x00000634 T2=0x0000075c T3=0x00000850
[C00071] PC: T0=0x00000554 T1=0x00000634 T2=0x00000760 T3=0x00000850
[C00072] PC: T0=0x00000554 T1=0x00000634 T2=0x00000760 T3=0x000008fc
[C00073] PC: T0=0x00000558 T1=0x00000634 T2=0x00000760 T3=0x000008fc
[C00074] PC: T0=0x00000558 T1=0x00000638 T2=0x00000760 T3=0x000008fc
[C00075] PC: T0=0x00000558 T1=0x00000638 T2=0x00000764 T3=0x000008fc
[C00076] PC: T0=0x00000558 T1=0x00000638 T2=0x00000764 T3=0x00000900
[C00077] PC: T0=0x0000055c T1=0x00000638 T2=0x00000764 T3=0x00000900
[C00078] PC: T0=0x0000055c T1=0x0000063c T2=0x00000764 T3=0x00000900
[C00079] PC: T0=0x0000055c T1=0x0000063c T2=0x00000768 T3=0x00000900
[C00080] PC: T0=0x0000055c T1=0x0000063c T2=0x00000768 T3=0x000008fc
[C00081] PC: T0=0x00000560 T1=0x0000063c T2=0x00000768 T3=0x000008fc
[C00082] PC: T0=0x00000560 T1=0x00000640 T2=0x00000768 T3=0x000008fc
[C00083] PC: T0=0x00000560 T1=0x00000640 T2=0x0000076c T3=0x000008fc
[C00084] PC: T0=0x00000560 T1=0x00000640 T2=0x0000076c T3=0x00000900
[C00085] PC: T0=0x00000564 T1=0x00000640 T2=0x0000076c T3=0x00000900
[C00086] PC: T0=0x00000564 T1=0x00000644 T2=0x0000076c T3=0x00000900
[C00087] PC: T0=0x00000564 T1=0x00000644 T2=0x00000770 T3=0x00000900
[C00088] PC: T0=0x00000564 T1=0x00000644 T2=0x00000770 T3=0x000008fc
[C00089] PC: T0=0x00000568 T1=0x00000644 T2=0x00000770 T3=0x000008fc
[C00090] PC: T0=0x00000568 T1=0x00000648 T2=0x00000770 T3=0x000008fc
[C00091] PC: T0=0x00000568 T1=0x00000648 T2=0x000007fc T3=0x000008fc
[C00092] PC: T0=0x00000568 T1=0x00000648 T2=0x000007fc T3=0x00000900
[C00093] PC: T0=0x0000056c T1=0x00000648 T2=0x000007fc T3=0x00000900
[C00094] PC: T0=0x0000056c T1=0x0000064c T2=0x000007fc T3=0x00000900
[C00095] PC: T0=0x0000056c T1=0x0000064c T2=0x00000800 T3=0x00000900
[C00096] PC: T0=0x0000056c T1=0x0000064c T2=0x00000800 T3=0x000008fc
[C00097] PC: T0=0x00000570 T1=0x0000064c T2=0x00000800 T3=0x000008fc
[C00098] PC: T0=0x00000570 T1=0x00000650 T2=0x00000800 T3=0x000008fc
[C00099] PC: T0=0x00000570 T1=0x00000650 T2=0x000007fc T3=0x000008fc
[C00100] PC: T0=0x00000570 T1=0x00000650 T2=0x000007fc T3=0x00000900
[C00101] PC: T0=0x000005a0 T1=0x00000650 T2=0x000007fc T3=0x00000900
[C00102] PC: T0=0x000005a0 T1=0x00000654 T2=0x000007fc T3=0x00000900
[C00103] PC: T0=0x000005a0 T1=0x00000654 T2=0x00000800 T3=0x00000900
[C00104] PC: T0=0x000005a0 T1=0x00000654 T2=0x00000800 T3=0x000008fc
[C00105] PC: T0=0x000005a4 T1=0x00000654 T2=0x00000800 T3=0x000008fc
[C00106] PC: T0=0x000005a4 T1=0x00000658 T2=0x00000800 T3=0x000008fc
[C00107] PC: T0=0x000005a4 T1=0x00000658 T2=0x000007fc T3=0x000008fc
[C00108] PC: T0=0x000005a4 T1=0x00000658 T2=0x000007fc T3=0x00000900
[C00109] PC: T0=0x000005a8 T1=0x00000658 T2=0x000007fc T3=0x00000900
[C00110] PC: T0=0x000005a8 T1=0x0000065c T2=0x000007fc T3=0x00000900
[C00111] PC: T0=0x000005a8 T1=0x0000065c T2=0x00000800 T3=0x00000900
[C00112] PC: T0=0x000005a8 T1=0x0000065c T2=0x00000800 T3=0x000008fc
[C00113] PC: T0=0x000005ac T1=0x0000065c T2=0x00000800 T3=0x000008fc
[C00114] PC: T0=0x000005ac T1=0x00000660 T2=0x00000800 T3=0x000008fc
[C00115] PC: T0=0x000005ac T1=0x00000660 T2=0x000007fc T3=0x000008fc
[C00116] PC: T0=0x000005ac T1=0x00000660 T2=0x000007fc T3=0x00000900
[C00117] PC: T0=0x00000570 T1=0x00000660 T2=0x000007fc T3=0x00000900
[C00118] PC: T0=0x00000570 T1=0x00000664 T2=0x000007fc T3=0x00000900
[C00119] PC: T0=0x00000570 T1=0x00000664 T2=0x00000800 T3=0x00000900
[C00120] PC: T0=0x00000570 T1=0x00000664 T2=0x00000800 T3=0x000008fc
[C00121] PC: T0=0x00000574 T1=0x00000664 T2=0x00000800 T3=0x000008fc
[C00122] PC: T0=0x00000574 T1=0x00000668 T2=0x00000800 T3=0x000008fc
[C00123] PC: T0=0x00000574 T1=0x00000668 T2=0x000007fc T3=0x000008fc
[C00124] PC: T0=0x00000574 T1=0x00000668 T2=0x000007fc T3=0x00000900
[C00125] PC: T0=0x00000578 T1=0x00000668 T2=0x000007fc T3=0x00000900
[C00126] PC: T0=0x00000578 T1=0x0000066c T2=0x000007fc T3=0x00000900
[C00127] PC: T0=0x00000578 T1=0x0000066c T2=0x00000800 T3=0x00000900
[C00128] PC: T0=0x00000578 T1=0x0000066c T2=0x00000800 T3=0x000008fc
[C00129] PC: T0=0x0000057c T1=0x0000066c T2=0x00000800 T3=0x000008fc
[C00130] PC: T0=0x0000057c T1=0x00000670 T2=0x00000800 T3=0x000008fc
[C00131] PC: T0=0x0000057c T1=0x00000670 T2=0x000007fc T3=0x000008fc
[C00132] PC: T0=0x0000057c T1=0x00000670 T2=0x000007fc T3=0x00000900
[C00133] PC: T0=0x00000580 T1=0x00000670 T2=0x000007fc T3=0x00000900
[C00134] PC: T0=0x00000580 T1=0x00000630 T2=0x000007fc T3=0x00000900
[C00135] PC: T0=0x00000580 T1=0x00000630 T2=0x00000800 T3=0x00000900
[C00136] PC: T0=0x00000580 T1=0x00000630 T2=0x00000800 T3=0x000008fc
[C00137] PC: T0=0x00000584 T1=0x00000630 T2=0x00000800 T3=0x000008fc
[C00138] PC: T0=0x00000584 T1=0x00000634 T2=0x00000800 T3=0x000008fc
[C00139] PC: T0=0x00000584 T1=0x00000634 T2=0x000007fc T3=0x000008fc
[C00140] PC: T0=0x00000584 T1=0x00000634 T2=0x000007fc T3=0x00000900
[C00141] PC: T0=0x00000588 T1=0x00000634 T2=0x000007fc T3=0x00000900
[C00142] PC: T0=0x00000588 T1=0x00000638 T2=0x000007fc T3=0x00000900
[C00143] PC: T0=0x00000588 T1=0x00000638 T2=0x00000800 T3=0x00000900
[C00144] PC: T0=0x00000588 T1=0x00000638 T2=0x00000800 T3=0x000008fc
[C00145] PC: T0=0x0000058c T1=0x00000638 T2=0x00000800 T3=0x000008fc
[C00146] PC: T0=0x0000058c T1=0x0000063c T2=0x00000800 T3=0x000008fc
[C00147] PC: T0=0x0000058c T1=0x0000063c T2=0x000007fc T3=0x000008fc
[C00148] PC: T0=0x0000058c T1=0x0000063c T2=0x000007fc T3=0x00000900
[C00149] PC: T0=0x00000590 T1=0x0000063c T2=0x000007fc T3=0x00000900
[C00150] PC: T0=0x00000590 T1=0x00000640 T2=0x000007fc T3=0x00000900
[C00151] PC: T0=0x00000590 T1=0x00000640 T2=0x00000800 T3=0x00000900
[C00152] PC: T0=0x00000590 T1=0x00000640 T2=0x00000800 T3=0x000008fc
[C00153] PC: T0=0x00000594 T1=0x00000640 T2=0x00000800 T3=0x000008fc
[C00154] PC: T0=0x00000594 T1=0x00000644 T2=0x00000800 T3=0x000008fc
[C00155] PC: T0=0x00000594 T1=0x00000644 T2=0x000007fc T3=0x000008fc
[C00156] PC: T0=0x00000594 T1=0x00000644 T2=0x000007fc T3=0x00000900
[C00157] PC: T0=0x00000598 T1=0x00000644 T2=0x000007fc T3=0x00000900
[C00158] PC: T0=0x00000598 T1=0x00000648 T2=0x000007fc T3=0x00000900
[C00159] PC: T0=0x00000598 T1=0x00000648 T2=0x00000800 T3=0x00000900
[C00160] PC: T0=0x00000598 T1=0x00000648 T2=0x00000800 T3=0x000008fc
[C00161] PC: T0=0x0000059c T1=0x00000648 T2=0x00000800 T3=0x000008fc
[C00162] PC: T0=0x0000059c T1=0x0000064c T2=0x00000800 T3=0x000008fc
[C00163] PC: T0=0x0000059c T1=0x0000064c T2=0x000007fc T3=0x000008fc
[C00164] PC: T0=0x0000059c T1=0x0000064c T2=0x000007fc T3=0x00000900
[C00165] PC: T0=0x000005a0 T1=0x0000064c T2=0x000007fc T3=0x00000900
[C00166] PC: T0=0x000005a0 T1=0x00000650 T2=0x000007fc T3=0x00000900
[C00167] PC: T0=0x000005a0 T1=0x00000650 T2=0x00000800 T3=0x00000900
[C00168] PC: T0=0x000005a0 T1=0x00000650 T2=0x00000800 T3=0x000008fc
[C00169] PC: T0=0x000005a4 T1=0x00000650 T2=0x00000800 T3=0x000008fc
[C00170] PC: T0=0x000005a4 T1=0x00000654 T2=0x00000800 T3=0x000008fc
[C00171] PC: T0=0x000005a4 T1=0x00000654 T2=0x000007fc T3=0x000008fc
[C00172] PC: T0=0x000005a4 T1=0x00000654 T2=0x000007fc T3=0x00000900
[C00173] PC: T0=0x000005a8 T1=0x00000654 T2=0x000007fc T3=0x00000900
[C00174] PC: T0=0x000005a8 T1=0x00000658 T2=0x000007fc T3=0x00000900
[C00175] PC: T0=0x000005a8 T1=0x00000658 T2=0x00000800 T3=0x00000900
[C00176] PC: T0=0x000005a8 T1=0x00000658 T2=0x00000800 T3=0x000008fc
[C00177] PC: T0=0x000005ac T1=0x00000658 T2=0x00000800 T3=0x000008fc
[C00178] PC: T0=0x000005ac T1=0x0000065c T2=0x00000800 T3=0x000008fc
[C00179] PC: T0=0x000005ac T1=0x0000065c T2=0x000007fc T3=0x000008fc
[C00180] PC: T0=0x000005ac T1=0x0000065c T2=0x000007fc T3=0x00000900
[C00181] PC: T0=0x00000570 T1=0x0000065c T2=0x000007fc T3=0x00000900
[C00182] PC: T0=0x00000570 T1=0x00000660 T2=0x000007fc T3=0x00000900
[C00183] PC: T0=0x00000570 T1=0x00000660 T2=0x00000800 T3=0x00000900
[C00184] PC: T0=0x00000570 T1=0x00000660 T2=0x00000800 T3=0x000008fc
[C00185] PC: T0=0x00000574 T1=0x00000660 T2=0x00000800 T3=0x000008fc
[C00186] PC: T0=0x00000574 T1=0x00000664 T2=0x00000800 T3=0x000008fc
[C00187] PC: T0=0x00000574 T1=0x00000664 T2=0x000007fc T3=0x000008fc
[C00188] PC: T0=0x00000574 T1=0x00000664 T2=0x000007fc T3=0x00000900
[C00189] PC: T0=0x00000578 T1=0x00000664 T2=0x000007fc T3=0x00000900
[C00190] PC: T0=0x00000578 T1=0x00000668 T2=0x000007fc T3=0x00000900
[C00191] PC: T0=0x00000578 T1=0x00000668 T2=0x00000800 T3=0x00000900
[C00192] PC: T0=0x00000578 T1=0x00000668 T2=0x00000800 T3=0x000008fc
[C00193] PC: T0=0x0000057c T1=0x00000668 T2=0x00000800 T3=0x000008fc
[C00194] PC: T0=0x0000057c T1=0x0000066c T2=0x00000800 T3=0x000008fc
[C00195] PC: T0=0x0000057c T1=0x0000066c T2=0x000007fc T3=0x000008fc
[C00196] PC: T0=0x0000057c T1=0x0000066c T2=0x000007fc T3=0x00000900
[C00197] PC: T0=0x00000580 T1=0x0000066c T2=0x000007fc T3=0x00000900
[C00198] PC: T0=0x00000580 T1=0x00000670 T2=0x000007fc T3=0x00000900
[C00199] PC: T0=0x00000580 T1=0x00000670 T2=0x00000800 T3=0x00000900
[C00200] PC: T0=0x00000580 T1=0x00000670 T2=0x00000800 T3=0x000008fc
[C00201] PC: T0=0x00000584 T1=0x00000670 T2=0x00000800 T3=0x000008fc
[C00202] PC: T0=0x00000584 T1=0x00000630 T2=0x00000800 T3=0x000008fc
[C00203] PC: T0=0x00000584 T1=0x00000630 T2=0x000007fc T3=0x000008fc
[C00204] PC: T0=0x00000584 T1=0x00000630 T2=0x000007fc T3=0x00000900
[C00205] PC: T0=0x00000588 T1=0x00000630 T2=0x000007fc T3=0x00000900
[C00206] PC: T0=0x00000588 T1=0x00000634 T2=0x000007fc T3=0x00000900
[C00207] PC: T0=0x00000588 T1=0x00000634 T2=0x00000800 T3=0x00000900
[C00208] PC: T0=0x00000588 T1=0x00000634 T2=0x00000800 T3=0x000008fc
[C00209] PC: T0=0x0000058c T1=0x00000634 T2=0x00000800 T3=0x000008fc
[C00210] PC: T0=0x0000058c T1=0x00000638 T2=0x00000800 T3=0x000008fc
[C00211] PC: T0=0x0000058c T1=0x00000638 T2=0x000007fc T3=0x000008fc
[C00212] PC: T0=0x0000058c T1=0x00000638 T2=0x000007fc T3=0x00000900
[C00213] PC: T0=0x00000590 T1=0x00000638 T2=0x000007fc T3=0x00000900
[C00214] PC: T0=0x00000590 T1=0x0000063c T2=0x000007fc T3=0x00000900
[C00215] PC: T0=0x00000590 T1=0x0000063c T2=0x00000800 T3=0x00000900
[C00216] PC: T0=0x00000590 T1=0x0000063c T2=0x00000800 T3=0x000008fc
[C00217] PC: T0=0x00000594 T1=0x0000063c T2=0x00000800 T3=0x000008fc
[C00218] PC: T0=0x00000594 T1=0x00000640 T2=0x00000800 T3=0x000008fc
[C00219] PC: T0=0x00000594 T1=0x00000640 T2=0x000007fc T3=0x000008fc
[C00220] PC: T0=0x00000594 T1=0x00000640 T2=0x000007fc T3=0x00000900
[C00221] PC: T0=0x00000598 T1=0x00000640 T2=0x000007fc T3=0x00000900
[C00222] PC: T0=0x00000598 T1=0x00000644 T2=0x000007fc T3=0x00000900
[C00223] PC: T0=0x00000598 T1=0x00000644 T2=0x00000800 T3=0x00000900
[C00224] PC: T0=0x00000598 T1=0x00000644 T2=0x00000800 T3=0x000008fc
[C00225] PC: T0=0x0000059c T1=0x00000644 T2=0x00000800 T3=0x000008fc
[C00226] PC: T0=0x0000059c T1=0x00000648 T2=0x00000800 T3=0x000008fc
[C00227] PC: T0=0x0000059c T1=0x00000648 T2=0x000007fc T3=0x000008fc
[C00228] PC: T0=0x0000059c T1=0x00000648 T2=0x000007fc T3=0x00000900
[C00229] PC: T0=0x000005a0 T1=0x00000648 T2=0x000007fc T3=0x00000900
[C00230] PC: T0=0x000005a0 T1=0x0000064c T2=0x000007fc T3=0x00000900
[C00231] PC: T0=0x000005a0 T1=0x0000064c T2=0x00000800 T3=0x00000900
[C00232] PC: T0=0x000005a0 T1=0x0000064c T2=0x00000800 T3=0x000008fc
[C00233] PC: T0=0x000005a4 T1=0x0000064c T2=0x00000800 T3=0x000008fc
[C00234] PC: T0=0x000005a4 T1=0x00000650 T2=0x00000800 T3=0x000008fc
[C00235] PC: T0=0x000005a4 T1=0x00000650 T2=0x000007fc T3=0x000008fc
[C00236] PC: T0=0x000005a4 T1=0x00000650 T2=0x000007fc T3=0x00000900
[C00237] PC: T0=0x000005a8 T1=0x00000650 T2=0x000007fc T3=0x00000900
[C00238] PC: T0=0x000005a8 T1=0x00000654 T2=0x000007fc T3=0x00000900
[C00239] PC: T0=0x000005a8 T1=0x00000654 T2=0x00000800 T3=0x00000900
[C00240] PC: T0=0x000005a8 T1=0x00000654 T2=0x00000800 T3=0x000008fc
[C00241] PC: T0=0x000005ac T1=0x00000654 T2=0x00000800 T3=0x000008fc
[C00242] PC: T0=0x000005ac T1=0x00000658 T2=0x00000800 T3=0x000008fc
[C00243] PC: T0=0x000005ac T1=0x00000658 T2=0x000007fc T3=0x000008fc
[C00244] PC: T0=0x000005ac T1=0x00000658 T2=0x000007fc T3=0x00000900
[C00245] PC: T0=0x00000570 T1=0x00000658 T2=0x000007fc T3=0x00000900
[C00246] PC: T0=0x00000570 T1=0x0000065c T2=0x000007fc T3=0x00000900
[C00247] PC: T0=0x00000570 T1=0x0000065c T2=0x00000800 T3=0x00000900
[C00248] PC: T0=0x00000570 T1=0x0000065c T2=0x00000800 T3=0x000008fc
[C00249] PC: T0=0x00000574 T1=0x0000065c T2=0x00000800 T3=0x000008fc
[C00250] PC: T0=0x00000574 T1=0x00000660 T2=0x00000800 T3=0x000008fc
[C00251] PC: T0=0x00000574 T1=0x00000660 T2=0x000007fc T3=0x000008fc
[C00252] PC: T0=0x00000574 T1=0x00000660 T2=0x000007fc T3=0x00000900
[C00253] PC: T0=0x00000578 T1=0x00000660 T2=0x000007fc T3=0x00000900
[C00254] PC: T0=0x00000578 T1=0x00000664 T2=0x000007fc T3=0x00000900
[C00255] PC: T0=0x00000578 T1=0x00000664 T2=0x00000800 T3=0x00000900
[C00256] PC: T0=0x00000578 T1=0x00000664 T2=0x00000800 T3=0x000008fc
[C00257] PC: T0=0x0000057c T1=0x00000664 T2=0x00000800 T3=0x000008fc
[C00258] PC: T0=0x0000057c T1=0x00000668 T2=0x00000800 T3=0x000008fc
[C00259] PC: T0=0x0000057c T1=0x00000668 T2=0x000007fc T3=0x000008fc
[C00260] PC: T0=0x0000057c T1=0x00000668 T2=0x000007fc T3=0x00000900
[C00261] PC: T0=0x00000580 T1=0x00000668 T2=0x000007fc T3=0x00000900
[C00262] PC: T0=0x00000580 T1=0x0000066c T2=0x000007fc T3=0x00000900
[C00263] PC: T0=0x00000580 T1=0x0000066c T2=0x00000800 T3=0x00000900
[C00264] PC: T0=0x00000580 T1=0x0000066c T2=0x00000800 T3=0x000008fc
[C00265] PC: T0=0x00000584 T1=0x0000066c T2=0x00000800 T3=0x000008fc
[C00266] PC: T0=0x00000584 T1=0x00000670 T2=0x00000800 T3=0x000008fc
[C00267] PC: T0=0x00000584 T1=0x00000670 T2=0x000007fc T3=0x000008fc
[C00268] PC: T0=0x00000584 T1=0x00000670 T2=0x000007fc T3=0x00000900
[C00269] PC: T0=0x00000588 T1=0x00000670 T2=0x000007fc T3=0x00000900
[C00270] PC: T0=0x00000588 T1=0x00000630 T2=0x000007fc T3=0x00000900
[C00271] PC: T0=0x00000588 T1=0x00000630 T2=0x00000800 T3=0x00000900
[C00272] PC: T0=0x00000588 T1=0x00000630 T2=0x00000800 T3=0x000008fc
[C00273] PC: T0=0x0000058c T1=0x00000630 T2=0x00000800 T3=0x000008fc
[C00274] PC: T0=0x0000058c T1=0x00000634 T2=0x00000800 T3=0x000008fc
[C00275] PC: T0=0x0000058c T1=0x00000634 T2=0x000007fc T3=0x000008fc
[C00276] PC: T0=0x0000058c T1=0x00000634 T2=0x000007fc T3=0x00000900
[C00277] PC: T0=0x00000590 T1=0x00000634 T2=0x000007fc T3=0x00000900
[C00278] PC: T0=0x00000590 T1=0x00000638 T2=0x000007fc T3=0x00000900
[C00279] PC: T0=0x00000590 T1=0x00000638 T2=0x00000800 T3=0x00000900
[C00280] PC: T0=0x00000590 T1=0x00000638 T2=0x00000800 T3=0x000008fc
[C00281] PC: T0=0x00000594 T1=0x00000638 T2=0x00000800 T3=0x000008fc
[C00282] PC: T0=0x00000594 T1=0x0000063c T2=0x00000800 T3=0x000008fc
[C00283] PC: T0=0x00000594 T1=0x0000063c T2=0x000007fc T3=0x000008fc
[C00284] PC: T0=0x00000594 T1=0x0000063c T2=0x000007fc T3=0x00000900
[C00285] PC: T0=0x00000598 T1=0x0000063c T2=0x000007fc T3=0x00000900
[C00286] PC: T0=0x00000598 T1=0x00000640 T2=0x000007fc T3=0x00000900
[C00287] PC: T0=0x00000598 T1=0x00000640 T2=0x00000800 T3=0x00000900
[C00288] PC: T0=0x00000598 T1=0x00000640 T2=0x00000800 T3=0x000008fc
[C00289] PC: T0=0x0000059c T1=0x00000640 T2=0x00000800 T3=0x000008fc
[C00290] PC: T0=0x0000059c T1=0x00000644 T2=0x00000800 T3=0x000008fc
[C00291] PC: T0=0x0000059c T1=0x00000644 T2=0x000007fc T3=0x000008fc
[C00292] PC: T0=0x0000059c T1=0x00000644 T2=0x000007fc T3=0x00000900
[C00293] PC: T0=0x000005a0 T1=0x00000644 T2=0x000007fc T3=0x00000900
[C00294] PC: T0=0x000005a0 T1=0x00000648 T2=0x000007fc T3=0x00000900
[C00295] PC: T0=0x000005a0 T1=0x00000648 T2=0x00000800 T3=0x00000900
[C00296] PC: T0=0x000005a0 T1=0x00000648 T2=0x00000800 T3=0x000008fc
[C00297] PC: T0=0x000005a4 T1=0x00000648 T2=0x00000800 T3=0x000008fc
[C00298] PC: T0=0x000005a4 T1=0x0000064c T2=0x00000800 T3=0x000008fc
[C00299] PC: T0=0x000005a4 T1=0x0000064c T2=0x000007fc T3=0x000008fc
[C00300] PC: T0=0x000005a4 T1=0x0000064c T2=0x000007fc T3=0x00000900
[C00301] PC: T0=0x000005a8 T1=0x0000064c T2=0x000007fc T3=0x00000900
[C00302] PC: T0=0x000005a8 T1=0x00000650 T2=0x000007fc T3=0x00000900
[C00303] PC: T0=0x000005a8 T1=0x00000650 T2=0x00000800 T3=0x00000900
[C00304] PC: T0=0x000005a8 T1=0x00000650 T2=0x00000800 T3=0x000008fc
[C00305] PC: T0=0x000005ac T1=0x00000650 T2=0x00000800 T3=0x000008fc
[C00306] PC: T0=0x000005ac T1=0x00000654 T2=0x00000800 T3=0x000008fc
[C00307] PC: T0=0x000005ac T1=0x00000654 T2=0x000007fc T3=0x000008fc
[C00308] PC: T0=0x000005ac T1=0x00000654 T2=0x000007fc T3=0x00000900
