Lab6/src/sim/test.txt
VCD info: dumpfile soc_tb.vcd opened for output.

╔══════════════════════════════════════════════════════════════╗
║     SoC MMIO Testbench — MMIO + Bubble Sort Integration    ║
╠══════════════════════════════════════════════════════════════╣
║  Program  : ../hex/sort_imem.txt                             ║
║  Halt     : 0x00000200                                     ║
║  CPU_DONE : 0x00000200                                     ║
║  Timeout  : 200000 cycles                                 ║
║  IMEM     : 1024 words (10-bit addr)                   ║
║  DMEM     : 4096 words (12-bit addr)                  ║
╚══════════════════════════════════════════════════════════════╝

──────────────────────────────────────────────────
  PHASE A: Basic MMIO Infrastructure Tests
──────────────────────────────────────────────────

[A1] CTRL read — expect idle (0)
[A2] IMEM sequential W+R (8 words)
[A3] DMEM sequential W+R (8 words)
[A4] Write-after-write — last value wins
[A5] Read-after-read — non-destructive
[A6] Random IMEM W+R (64 entries)
  Checked 56 IMEM addresses
[A7] Random DMEM W+R (64 entries)
  Checked 57 DMEM addresses
[A8] Mixed IMEM/DMEM interleaved (64 writes)
  Checked 162 total addresses

──────────────────────────────────────────────────
  PHASE B: Bubble Sort Integration Test
──────────────────────────────────────────────────

[B1] Loading hex file...
WARNING: ../tb/soc_tb.v:299: $readmemh(../hex/sort_imem.txt): Not enough words in the file for the requested range [0:4095].
  Loaded (HEX):    ../hex/sort_imem.txt
  First 8 words:
    [0x00000000] = 0xe92d4800
    [0x00000004] = 0xe28db004
    [0x00000008] = 0xe24dd038
    [0x0000000c] = 0xe59f3104
    [0x00000010] = 0xe24bc038
    [0x00000014] = 0xe1a0e003
    [0x00000018] = 0xe8be000f
    [0x0000001c] = 0xe8ac000f
  Placing halt (B . = 0xeafffffe) at word 128 (byte 0x00000200)
  Hex data extent: 1024 words (4096 bytes)
  Hardware depths: IMEM=1024 words, DMEM=4096 words
  Will load: IMEM=1024 words, DMEM=4096 words (full BRAM)
[B2] Resetting SoC...
[B3] Writing 1024 words to IMEM via MMIO (full BRAM depth)...
  IMEM load complete.
[B3.5] Immediate IMEM readback after load...
  IMEM[0] = 0xe92d4800 (expect 0xe92d4800)
  IMEM[128] = 0xeafffffe (expect 0xeafffffe = halt)
[B4] Writing 4096 words to DMEM via MMIO (full BRAM depth)...
  DMEM load complete.
[B5] Readback spot-check...
  IMEM[0]         = 0xe92d4800 (expect 0xe92d4800)
  IMEM[128]      = 0xeafffffe (expect 0xeafffffe = B .)
  DMEM[128]      = 0xeafffffe (expect 0xeafffffe = B .)
[B6] Initialising CPU registers...
[B7] Asserting external start pin...
  System busy (req_rdy=0) — CPU running
[B8] Running CPU (timeout=200000 cycles)...
  halt_addr = 0x00000200

  C001 PC=00000008 ireg=e92d4800 BDTU=IDLE    busy=0 mc_mem=0 mw_mem=0 wen=0 addr=00000000 wdata=00000000 SP=00000000
       pipe: ID=00000000 EX1=fffffffc EX2=fffffffc EX3=fffffffc MEM=fffffffc WB=fffffffc
       valid: ID=1 EX1=0 EX2=0 EX3=0  stalls: if1=0 if2=0 id=0 ex1=0 ex2=0 ex3=0 mem=0
  C002 PC=0000000c ireg=e28db004 BDTU=IDLE    busy=0 mc_mem=0 mw_mem=0 wen=0 addr=00000000 wdata=00000000 SP=00000000
       pipe: ID=00000004 EX1=00000000 EX2=fffffffc EX3=fffffffc MEM=fffffffc WB=fffffffc
       valid: ID=1 EX1=1 EX2=0 EX3=0  stalls: if1=0 if2=0 id=0 ex1=0 ex2=0 ex3=0 mem=0
  C003 PC=00000010 ireg=e24dd038 BDTU=IDLE    busy=0 mc_mem=0 mw_mem=0 wen=0 addr=00000000 wdata=00000000 SP=00000000
       pipe: ID=00000008 EX1=00000004 EX2=00000000 EX3=fffffffc MEM=fffffffc WB=fffffffc
       valid: ID=1 EX1=1 EX2=1 EX3=0  stalls: if1=0 if2=0 id=0 ex1=0 ex2=0 ex3=0 mem=0
  C004 PC=00000014 ireg=e59f3104 BDTU=IDLE    busy=0 mc_mem=0 mw_mem=0 wen=0 addr=00000000 wdata=00000000 SP=00000000
       pipe: ID=0000000c EX1=00000008 EX2=00000004 EX3=00000000 MEM=fffffffc WB=fffffffc
       valid: ID=1 EX1=1 EX2=1 EX3=1  stalls: if1=0 if2=0 id=0 ex1=0 ex2=0 ex3=0 mem=0
  C005 PC=00000018 ireg=e24bc038 BDTU=IDLE    busy=0 mc_mem=0 mw_mem=0 wen=0 addr=00000000 wdata=00000000 SP=00000000
       pipe: ID=00000010 EX1=0000000c EX2=00000008 EX3=00000004 MEM=fffffffc WB=fffffffc
       valid: ID=1 EX1=1 EX2=1 EX3=1  stalls: if1=1 if2=1 id=1 ex1=1 ex2=0 ex3=0 mem=0
  C006 PC=00000018 ireg=e24bc038 BDTU=IDLE    busy=1 mc_mem=1 mw_mem=0 wen=0 addr=00000000 wdata=00000000 SP=00000000
       BDTU: state=IDLE    rem=0000 addr=00000000 wr=0 rd=0 wen1=0 wen2=0 waddr1=0 waddr2=0
       pipe: ID=00000010 EX1=0000000c EX2=fffffffc EX3=00000008 MEM=00000000 WB=fffffffc
       valid: ID=1 EX1=1 EX2=0 EX3=1  stalls: if1=1 if2=1 id=1 ex1=1 ex2=1 ex3=1 mem=1
  C007 PC=00000018 ireg=e24bc038 BDTU=BDT_XFR busy=1 mc_mem=1 mw_mem=0 wen=0 addr=fffffff8 wdata=00000000 SP=00000000
       BDTU: state=BDT_XFR rem=4800 addr=fffffff8 wr=0 rd=0 wen1=0 wen2=0 waddr1=0 waddr2=13
       pipe: ID=00000010 EX1=0000000c EX2=fffffffc EX3=00000008 MEM=00000000 WB=fffffffc
       valid: ID=1 EX1=1 EX2=0 EX3=1  stalls: if1=1 if2=1 id=1 ex1=1 ex2=1 ex3=1 mem=1
  C008 PC=00000018 ireg=e24bc038 BDTU=BDT_XFR busy=1 mc_mem=1 mw_mem=0 wen=0 addr=fffffffc wdata=00000000 SP=00000000
       BDTU: state=BDT_XFR rem=4000 addr=fffffffc wr=0 rd=0 wen1=0 wen2=0 waddr1=0 waddr2=13
       pipe: ID=00000010 EX1=0000000c EX2=fffffffc EX3=00000008 MEM=00000000 WB=fffffffc
       valid: ID=1 EX1=1 EX2=0 EX3=1  stalls: if1=1 if2=1 id=1 ex1=1 ex2=1 ex3=1 mem=1
  C009 PC=00000018 ireg=e24bc038 BDTU=MEMDRAI busy=1 mc_mem=1 mw_mem=0 wen=1 addr=fffffff8 wdata=00000000 SP=00000000
       BDTU: state=MEMDRAI rem=0000 addr=00000000 wr=1 rd=0 wen1=0 wen2=0 waddr1=0 waddr2=13
       pipe: ID=00000010 EX1=0000000c EX2=fffffffc EX3=00000008 MEM=00000000 WB=fffffffc
       valid: ID=1 EX1=1 EX2=0 EX3=1  stalls: if1=1 if2=1 id=1 ex1=1 ex2=1 ex3=1 mem=1
  WR C00009: [fffffff8]->w1073741822 = 00000000 (0) BDTU  (MEM_PC=00000000)
  C010 PC=00000018 ireg=e24bc038 BDTU=BDT_WB  busy=1 mc_mem=1 mw_mem=0 wen=1 addr=fffffffc wdata=00000200 SP=00000000
       BDTU: state=BDT_WB  rem=0000 addr=00000000 wr=1 rd=0 wen1=0 wen2=1 waddr1=0 waddr2=13
       pipe: ID=00000010 EX1=0000000c EX2=fffffffc EX3=00000008 MEM=00000000 WB=fffffffc
       valid: ID=1 EX1=1 EX2=0 EX3=1  stalls: if1=1 if2=1 id=1 ex1=1 ex2=1 ex3=1 mem=1
  WR C00010: [fffffffc]->w1073741823 = 00000200 (512) BDTU  (MEM_PC=00000000)
  RF C00010: R13 <- fffffff8 (-8) [BDTU_P2]
  C011 PC=00000018 ireg=e24bc038 BDTU=DONE    busy=1 mc_mem=1 mw_mem=0 wen=0 addr=00000000 wdata=00000000 SP=fffffff8
       BDTU: state=DONE    rem=0000 addr=00000000 wr=0 rd=0 wen1=0 wen2=0 waddr1=0 waddr2=13
       pipe: ID=00000010 EX1=0000000c EX2=fffffffc EX3=00000008 MEM=00000000 WB=fffffffc
       valid: ID=1 EX1=1 EX2=0 EX3=1  stalls: if1=1 if2=1 id=1 ex1=1 ex2=1 ex3=1 mem=1
  C012 PC=00000018 ireg=e24bc038 BDTU=DRAIN   busy=0 mc_mem=1 mw_mem=0 wen=0 addr=00000000 wdata=00000000 SP=fffffff8
       pipe: ID=00000010 EX1=0000000c EX2=fffffffc EX3=00000008 MEM=00000000 WB=fffffffc
       valid: ID=1 EX1=1 EX2=0 EX3=1  stalls: if1=0 if2=0 id=0 ex1=0 ex2=0 ex3=0 mem=0
  >>> BDTU FLUSH C00012: redirecting PC to 00000004 (pc_plus4_mem)
  C013 PC=00000004 ireg=00000000 BDTU=IDLE    busy=0 mc_mem=0 mw_mem=0 wen=0 addr=00000000 wdata=00000000 SP=fffffff8
       pipe: ID=00000010 EX1=fffffffc EX2=fffffffc EX3=fffffffc MEM=00000000 WB=00000000
       valid: ID=0 EX1=0 EX2=0 EX3=0  stalls: if1=0 if2=0 id=0 ex1=0 ex2=0 ex3=0 mem=0
  C014 PC=00000008 ireg=e8be000f BDTU=IDLE    busy=0 mc_mem=0 mw_mem=0 wen=0 addr=00000000 wdata=00000000 SP=fffffff8
       pipe: ID=00000014 EX1=00000010 EX2=fffffffc EX3=fffffffc MEM=fffffffc WB=00000000
       valid: ID=0 EX1=0 EX2=0 EX3=0  stalls: if1=0 if2=0 id=0 ex1=0 ex2=0 ex3=0 mem=0
  C015 PC=0000000c ireg=e28db004 BDTU=IDLE    busy=0 mc_mem=0 mw_mem=0 wen=0 addr=00000000 wdata=00000000 SP=fffffff8
       pipe: ID=00000004 EX1=00000014 EX2=00000010 EX3=fffffffc MEM=fffffffc WB=fffffffc
       valid: ID=1 EX1=0 EX2=0 EX3=0  stalls: if1=0 if2=0 id=0 ex1=0 ex2=0 ex3=0 mem=0
  C016 PC=00000010 ireg=e24dd038 BDTU=IDLE    busy=0 mc_mem=0 mw_mem=0 wen=0 addr=00000000 wdata=00000000 SP=fffffff8
       pipe: ID=00000008 EX1=00000004 EX2=00000014 EX3=00000010 MEM=fffffffc WB=fffffffc
       valid: ID=1 EX1=1 EX2=0 EX3=0  stalls: if1=0 if2=0 id=0 ex1=0 ex2=0 ex3=0 mem=0
  C017 PC=00000014 ireg=e59f3104 BDTU=IDLE    busy=0 mc_mem=0 mw_mem=0 wen=0 addr=00000000 wdata=00000000 SP=fffffff8
       pipe: ID=0000000c EX1=00000008 EX2=00000004 EX3=00000014 MEM=fffffffc WB=fffffffc
       valid: ID=1 EX1=1 EX2=1 EX3=0  stalls: if1=0 if2=0 id=0 ex1=0 ex2=0 ex3=0 mem=0
  C018 PC=00000018 ireg=e24bc038 BDTU=IDLE    busy=0 mc_mem=0 mw_mem=0 wen=0 addr=00000000 wdata=00000000 SP=fffffff8
       pipe: ID=00000010 EX1=0000000c EX2=00000008 EX3=00000004 MEM=00000010 WB=fffffffc
       valid: ID=1 EX1=1 EX2=1 EX3=1  stalls: if1=0 if2=0 id=0 ex1=0 ex2=0 ex3=0 mem=0
  C019 PC=0000001c ireg=e1a0e003 BDTU=IDLE    busy=0 mc_mem=0 mw_mem=0 wen=0 addr=00000200 wdata=00000000 SP=fffffff8
       pipe: ID=00000014 EX1=00000010 EX2=0000000c EX3=00000008 MEM=00000014 WB=00000010
       valid: ID=1 EX1=1 EX2=1 EX3=1  stalls: if1=1 if2=1 id=1 ex1=1 ex2=0 ex3=0 mem=0
  C020 PC=0000001c ireg=e1a0e003 BDTU=IDLE    busy=0 mc_mem=0 mw_mem=0 wen=0 addr=fffffff8 wdata=00000000 SP=fffffff8
       pipe: ID=00000014 EX1=00000010 EX2=fffffffc EX3=0000000c MEM=00000004 WB=00000014
       valid: ID=1 EX1=1 EX2=0 EX3=1  stalls: if1=0 if2=0 id=0 ex1=0 ex2=0 ex3=0 mem=0
  C021 PC=00000020 ireg=e8be000f BDTU=IDLE    busy=0 mc_mem=0 mw_mem=0 wen=0 addr=fffffff8 wdata=fffffff8 SP=fffffff8
       pipe: ID=00000018 EX1=00000014 EX2=00000010 EX3=fffffffc MEM=00000008 WB=00000004
       valid: ID=1 EX1=1 EX2=1 EX3=0  stalls: if1=1 if2=1 id=1 ex1=1 ex2=0 ex3=0 mem=0
  RF C00021: R11 <- fffffffc (-4) [WB]  (WB_PC=00000004)
  C022 PC=00000020 ireg=e8be000f BDTU=IDLE    busy=0 mc_mem=0 mw_mem=0 wen=0 addr=00000118 wdata=00000000 SP=fffffff8
       pipe: ID=00000018 EX1=00000014 EX2=fffffffc EX3=00000010 MEM=0000000c WB=00000008
       valid: ID=1 EX1=1 EX2=0 EX3=1  stalls: if1=1 if2=1 id=1 ex1=1 ex2=0 ex3=0 mem=0
  RD C00022: [00000118]->w0070  dest=R3   (MEM_PC=0000000c)
  RF C00022: R13 <- ffffffc0 (-64) [WB]  (WB_PC=00000008)
  C023 PC=00000020 ireg=e8be000f BDTU=IDLE    busy=0 mc_mem=0 mw_mem=0 wen=0 addr=00000000 wdata=00000000 SP=ffffffc0
       pipe: ID=00000018 EX1=00000014 EX2=fffffffc EX3=fffffffc MEM=fffffffc WB=0000000c
       valid: ID=1 EX1=1 EX2=0 EX3=0  stalls: if1=0 if2=0 id=0 ex1=0 ex2=0 ex3=0 mem=0
  RF C00023: R3  <- 0000011c (284) [WB]  (WB_PC=0000000c)
  C024 PC=00000024 ireg=e8ac000f BDTU=IDLE    busy=0 mc_mem=0 mw_mem=0 wen=0 addr=fffffffc wdata=00000000 SP=ffffffc0
       pipe: ID=0000001c EX1=00000018 EX2=00000014 EX3=fffffffc MEM=00000010 WB=fffffffc
       valid: ID=1 EX1=1 EX2=1 EX3=0  stalls: if1=1 if2=1 id=1 ex1=1 ex2=0 ex3=0 mem=0
  C025 PC=00000024 ireg=e8ac000f BDTU=IDLE    busy=0 mc_mem=0 mw_mem=0 wen=0 addr=00000000 wdata=00000000 SP=ffffffc0
       pipe: ID=0000001c EX1=00000018 EX2=fffffffc EX3=00000014 MEM=fffffffc WB=00000010
       valid: ID=1 EX1=1 EX2=0 EX3=1  stalls: if1=1 if2=1 id=1 ex1=1 ex2=0 ex3=0 mem=0
  RF C00025: R12 <- ffffffc4 (-60) [WB]  (WB_PC=00000010)
  C026 PC=00000024 ireg=e8ac000f BDTU=IDLE    busy=0 mc_mem=0 mw_mem=0 wen=0 addr=00000000 wdata=00000000 SP=ffffffc0
       pipe: ID=0000001c EX1=00000018 EX2=fffffffc EX3=fffffffc MEM=fffffffc WB=fffffffc
       valid: ID=1 EX1=1 EX2=0 EX3=0  stalls: if1=1 if2=1 id=1 ex1=1 ex2=0 ex3=0 mem=0
  C027 PC=00000024 ireg=e8ac000f BDTU=IDLE    busy=0 mc_mem=0 mw_mem=0 wen=0 addr=0000011c wdata=00000200 SP=ffffffc0
       pipe: ID=0000001c EX1=00000018 EX2=fffffffc EX3=fffffffc MEM=00000014 WB=fffffffc
       valid: ID=1 EX1=1 EX2=0 EX3=0  stalls: if1=0 if2=0 id=0 ex1=0 ex2=0 ex3=0 mem=0
  C028 PC=00000028 ireg=e8be000f BDTU=IDLE    busy=0 mc_mem=0 mw_mem=0 wen=0 addr=00000000 wdata=00000000 SP=ffffffc0
       pipe: ID=00000020 EX1=0000001c EX2=00000018 EX3=fffffffc MEM=fffffffc WB=00000014
       valid: ID=1 EX1=1 EX2=1 EX3=0  stalls: if1=0 if2=0 id=0 ex1=0 ex2=0 ex3=0 mem=0
  RF C00028: R14 <- 0000011c (284) [WB]  (WB_PC=00000014)
  C029 PC=0000002c ireg=e8ac000f BDTU=IDLE    busy=0 mc_mem=0 mw_mem=0 wen=0 addr=00000000 wdata=00000000 SP=ffffffc0
       pipe: ID=00000024 EX1=00000020 EX2=0000001c EX3=00000018 MEM=fffffffc WB=fffffffc
       valid: ID=1 EX1=1 EX2=1 EX3=1  stalls: if1=0 if2=0 id=0 ex1=0 ex2=0 ex3=0 mem=0
  C030 PC=00000030 ireg=e89e0003 BDTU=IDLE    busy=0 mc_mem=0 mw_mem=0 wen=0 addr=00000000 wdata=00000000 SP=ffffffc0
       pipe: ID=00000028 EX1=00000024 EX2=00000020 EX3=0000001c MEM=fffffffc WB=fffffffc
       valid: ID=1 EX1=1 EX2=1 EX3=1  stalls: if1=1 if2=1 id=1 ex1=1 ex2=0 ex3=0 mem=0
  C031 PC=00000030 ireg=e89e0003 BDTU=IDLE    busy=1 mc_mem=1 mw_mem=0 wen=0 addr=00000000 wdata=00000000 SP=ffffffc0
       BDTU: state=IDLE    rem=0000 addr=00000000 wr=0 rd=0 wen1=0 wen2=0 waddr1=0 waddr2=13
       pipe: ID=00000028 EX1=00000024 EX2=fffffffc EX3=00000020 MEM=00000018 WB=fffffffc
       valid: ID=1 EX1=1 EX2=0 EX3=1  stalls: if1=1 if2=1 id=1 ex1=1 ex2=1 ex3=1 mem=1
  C032 PC=00000030 ireg=e89e0003 BDTU=BDT_XFR busy=1 mc_mem=1 mw_mem=0 wen=0 addr=0000011c wdata=00000000 SP=ffffffc0
       BDTU: state=BDT_XFR rem=000f addr=0000011c wr=0 rd=1 wen1=0 wen2=0 waddr1=0 waddr2=14
       pipe: ID=00000028 EX1=00000024 EX2=fffffffc EX3=00000020 MEM=00000018 WB=fffffffc
       valid: ID=1 EX1=1 EX2=0 EX3=1  stalls: if1=1 if2=1 id=1 ex1=1 ex2=1 ex3=1 mem=1
  C033 PC=00000030 ireg=e89e0003 BDTU=BDT_XFR busy=1 mc_mem=1 mw_mem=0 wen=0 addr=00000120 wdata=00000000 SP=ffffffc0
       BDTU: state=BDT_XFR rem=000e addr=00000120 wr=0 rd=1 wen1=1 wen2=0 waddr1=0 waddr2=14
       pipe: ID=00000028 EX1=00000024 EX2=fffffffc EX3=00000020 MEM=00000018 WB=fffffffc
       valid: ID=1 EX1=1 EX2=0 EX3=1  stalls: if1=1 if2=1 id=1 ex1=1 ex2=1 ex3=1 mem=1
  RF C00033: R0  <- 00000143 (323) [BDTU_P1]
  C034 PC=00000030 ireg=e89e0003 BDTU=BDT_XFR busy=1 mc_mem=1 mw_mem=0 wen=0 addr=00000124 wdata=00000143 SP=ffffffc0
       BDTU: state=BDT_XFR rem=000c addr=00000124 wr=0 rd=1 wen1=1 wen2=0 waddr1=1 waddr2=14
       pipe: ID=00000028 EX1=00000024 EX2=fffffffc EX3=00000020 MEM=00000018 WB=fffffffc
       valid: ID=1 EX1=1 EX2=0 EX3=1  stalls: if1=1 if2=1 id=1 ex1=1 ex2=1 ex3=1 mem=1
  RF C00034: R1  <- 0000007b (123) [BDTU_P1]
  C035 PC=00000030 ireg=e89e0003 BDTU=BDT_XFR busy=1 mc_mem=1 mw_mem=0 wen=0 addr=00000128 wdata=00000143 SP=ffffffc0
       BDTU: state=BDT_XFR rem=0008 addr=00000128 wr=0 rd=1 wen1=1 wen2=0 waddr1=2 waddr2=14
       pipe: ID=00000028 EX1=00000024 EX2=fffffffc EX3=00000020 MEM=00000018 WB=fffffffc
       valid: ID=1 EX1=1 EX2=0 EX3=1  stalls: if1=1 if2=1 id=1 ex1=1 ex2=1 ex3=1 mem=1
  RF C00035: R2  <- fffffe39 (-455) [BDTU_P1]
  C036 PC=00000030 ireg=e89e0003 BDTU=BDT_LST busy=1 mc_mem=1 mw_mem=0 wen=0 addr=0000012c wdata=00000143 SP=ffffffc0
       BDTU: state=BDT_LST rem=0000 addr=0000012c wr=0 rd=0 wen1=1 wen2=0 waddr1=3 waddr2=14
       pipe: ID=00000028 EX1=00000024 EX2=fffffffc EX3=00000020 MEM=00000018 WB=fffffffc
       valid: ID=1 EX1=1 EX2=0 EX3=1  stalls: if1=1 if2=1 id=1 ex1=1 ex2=1 ex3=1 mem=1
  RF C00036: R3  <- 00000002 (2) [BDTU_P1]
  C037 PC=00000030 ireg=e89e0003 BDTU=BDT_WB  busy=1 mc_mem=1 mw_mem=0 wen=0 addr=0000012c wdata=00000143 SP=ffffffc0
       BDTU: state=BDT_WB  rem=0000 addr=0000012c wr=0 rd=0 wen1=0 wen2=1 waddr1=3 waddr2=14
       pipe: ID=00000028 EX1=00000024 EX2=fffffffc EX3=00000020 MEM=00000018 WB=fffffffc
       valid: ID=1 EX1=1 EX2=0 EX3=1  stalls: if1=1 if2=1 id=1 ex1=1 ex2=1 ex3=1 mem=1
  RF C00037: R14 <- 0000012c (300) [BDTU_P2]
  C038 PC=00000030 ireg=e89e0003 BDTU=DONE    busy=1 mc_mem=1 mw_mem=0 wen=0 addr=0000012c wdata=00000143 SP=ffffffc0
       BDTU: state=DONE    rem=0000 addr=0000012c wr=0 rd=0 wen1=0 wen2=0 waddr1=3 waddr2=14
       pipe: ID=00000028 EX1=00000024 EX2=fffffffc EX3=00000020 MEM=00000018 WB=fffffffc
       valid: ID=1 EX1=1 EX2=0 EX3=1  stalls: if1=1 if2=1 id=1 ex1=1 ex2=1 ex3=1 mem=1
  C039 PC=00000030 ireg=e89e0003 BDTU=DRAIN   busy=0 mc_mem=1 mw_mem=0 wen=0 addr=0000011c wdata=00000000 SP=ffffffc0
       pipe: ID=00000028 EX1=00000024 EX2=fffffffc EX3=00000020 MEM=00000018 WB=fffffffc
       valid: ID=1 EX1=1 EX2=0 EX3=1  stalls: if1=1 if2=1 id=1 ex1=1 ex2=0 ex3=0 mem=0
  >>> BDTU FLUSH C00039: redirecting PC to 0000001c (pc_plus4_mem)
  C040 PC=0000001c ireg=00000000 BDTU=IDLE    busy=0 mc_mem=0 mw_mem=0 wen=0 addr=0000011c wdata=00000000 SP=ffffffc0
       pipe: ID=00000028 EX1=fffffffc EX2=fffffffc EX3=fffffffc MEM=00000018 WB=00000018
       valid: ID=0 EX1=0 EX2=0 EX3=0  stalls: if1=0 if2=0 id=0 ex1=0 ex2=0 ex3=0 mem=0
  C041 PC=00000020 ireg=e3a03000 BDTU=IDLE    busy=0 mc_mem=0 mw_mem=0 wen=0 addr=00000000 wdata=00000000 SP=ffffffc0
       pipe: ID=0000002c EX1=00000028 EX2=fffffffc EX3=fffffffc MEM=fffffffc WB=00000018
       valid: ID=0 EX1=0 EX2=0 EX3=0  stalls: if1=0 if2=0 id=0 ex1=0 ex2=0 ex3=0 mem=0
  C042 PC=00000024 ireg=e8ac000f BDTU=IDLE    busy=0 mc_mem=0 mw_mem=0 wen=0 addr=00000000 wdata=00000000 SP=ffffffc0
       pipe: ID=0000001c EX1=0000002c EX2=00000028 EX3=fffffffc MEM=fffffffc WB=fffffffc
       valid: ID=1 EX1=0 EX2=0 EX3=0  stalls: if1=0 if2=0 id=0 ex1=0 ex2=0 ex3=0 mem=0
  C043 PC=00000028 ireg=e8be000f BDTU=IDLE    busy=0 mc_mem=0 mw_mem=0 wen=0 addr=00000000 wdata=00000000 SP=ffffffc0
       pipe: ID=00000020 EX1=0000001c EX2=0000002c EX3=00000028 MEM=fffffffc WB=fffffffc
       valid: ID=1 EX1=1 EX2=0 EX3=0  stalls: if1=0 if2=0 id=0 ex1=0 ex2=0 ex3=0 mem=0
  C044 PC=0000002c ireg=e8ac000f BDTU=IDLE    busy=0 mc_mem=0 mw_mem=0 wen=0 addr=00000000 wdata=00000000 SP=ffffffc0
       pipe: ID=00000024 EX1=00000020 EX2=0000001c EX3=0000002c MEM=fffffffc WB=fffffffc
       valid: ID=1 EX1=1 EX2=1 EX3=0  stalls: if1=0 if2=0 id=0 ex1=0 ex2=0 ex3=0 mem=0
  C045 PC=00000030 ireg=e89e0003 BDTU=IDLE    busy=0 mc_mem=0 mw_mem=0 wen=0 addr=00000143 wdata=00000143 SP=ffffffc0
       pipe: ID=00000028 EX1=00000024 EX2=00000020 EX3=0000001c MEM=00000028 WB=fffffffc
       valid: ID=1 EX1=1 EX2=1 EX3=1  stalls: if1=0 if2=0 id=0 ex1=0 ex2=0 ex3=0 mem=0
  C046 PC=00000034 ireg=e88c0003 BDTU=IDLE    busy=0 mc_mem=0 mw_mem=0 wen=0 addr=00000000 wdata=00000002 SP=ffffffc0
       pipe: ID=0000002c EX1=00000028 EX2=00000024 EX3=00000020 MEM=0000002c WB=00000028
       valid: ID=1 EX1=1 EX2=1 EX3=1  stalls: if1=1 if2=1 id=1 ex1=1 ex2=0 ex3=0 mem=0
  C047 PC=00000034 ireg=e88c0003 BDTU=IDLE    busy=1 mc_mem=1 mw_mem=0 wen=0 addr=0000012c wdata=00000143 SP=ffffffc0
       BDTU: state=IDLE    rem=0000 addr=0000012c wr=0 rd=0 wen1=0 wen2=0 waddr1=3 waddr2=14
       pipe: ID=0000002c EX1=00000028 EX2=fffffffc EX3=00000024 MEM=0000001c WB=0000002c
       valid: ID=1 EX1=1 EX2=0 EX3=1  stalls: if1=1 if2=1 id=1 ex1=1 ex2=1 ex3=1 mem=1
  C048 PC=00000034 ireg=e88c0003 BDTU=BDT_XFR busy=1 mc_mem=1 mw_mem=0 wen=0 addr=ffffffc4 wdata=00000143 SP=ffffffc0
       BDTU: state=BDT_XFR rem=000f addr=ffffffc4 wr=0 rd=0 wen1=0 wen2=0 waddr1=3 waddr2=12
       pipe: ID=0000002c EX1=00000028 EX2=fffffffc EX3=00000024 MEM=0000001c WB=0000002c
       valid: ID=1 EX1=1 EX2=0 EX3=1  stalls: if1=1 if2=1 id=1 ex1=1 ex2=1 ex3=1 mem=1
  C049 PC=00000034 ireg=e88c0003 BDTU=BDT_XFR busy=1 mc_mem=1 mw_mem=0 wen=0 addr=ffffffc8 wdata=00000143 SP=ffffffc0
       BDTU: state=BDT_XFR rem=000e addr=ffffffc8 wr=0 rd=0 wen1=0 wen2=0 waddr1=3 waddr2=12
       pipe: ID=0000002c EX1=00000028 EX2=fffffffc EX3=00000024 MEM=0000001c WB=0000002c
       valid: ID=1 EX1=1 EX2=0 EX3=1  stalls: if1=1 if2=1 id=1 ex1=1 ex2=1 ex3=1 mem=1
  C050 PC=00000034 ireg=e88c0003 BDTU=BDT_XFR busy=1 mc_mem=1 mw_mem=0 wen=1 addr=ffffffc4 wdata=00000143 SP=ffffffc0
       BDTU: state=BDT_XFR rem=000c addr=ffffffcc wr=1 rd=0 wen1=0 wen2=0 waddr1=3 waddr2=12
       pipe: ID=0000002c EX1=00000028 EX2=fffffffc EX3=00000024 MEM=0000001c WB=0000002c
       valid: ID=1 EX1=1 EX2=0 EX3=1  stalls: if1=1 if2=1 id=1 ex1=1 ex2=1 ex3=1 mem=1
  WR C00050: [ffffffc4]->w1073741809 = 00000143 (323) BDTU  (MEM_PC=0000001c)
  WR C00051: [ffffffc8]->w1073741810 = 0000007b (123) BDTU  (MEM_PC=0000001c)
  WR C00052: [ffffffcc]->w1073741811 = fffffe39 (-455) BDTU  (MEM_PC=0000001c)
  WR C00053: [ffffffd0]->w1073741812 = 00000002 (2) BDTU  (MEM_PC=0000001c)
  RF C00053: R12 <- ffffffd4 (-44) [BDTU_P2]
  >>> BDTU FLUSH C00055: redirecting PC to 00000020 (pc_plus4_mem)
  RF C00065: R0  <- 00000062 (98) [BDTU_P1]
  RF C00066: R1  <- 0000007d (125) [BDTU_P1]
  RF C00067: R2  <- 0000000a (10) [BDTU_P1]
  RF C00068: R3  <- 00000041 (65) [BDTU_P1]
  RF C00069: R14 <- 0000013c (316) [BDTU_P2]
  >>> BDTU FLUSH C00071: redirecting PC to 00000024 (pc_plus4_mem)
  WR C00082: [ffffffd4]->w1073741813 = 00000062 (98) BDTU  (MEM_PC=00000024)
  WR C00083: [ffffffd8]->w1073741814 = 0000007d (125) BDTU  (MEM_PC=00000024)
  WR C00084: [ffffffdc]->w1073741815 = 0000000a (10) BDTU  (MEM_PC=00000024)
  WR C00085: [ffffffe0]->w1073741816 = 00000041 (65) BDTU  (MEM_PC=00000024)
  RF C00085: R12 <- ffffffe4 (-28) [BDTU_P2]
  >>> BDTU FLUSH C00087: redirecting PC to 00000028 (pc_plus4_mem)
  RF C00097: R0  <- ffffffc8 (-56) [BDTU_P1]
  RF C00098: R1  <- 00000000 (0) [BDTU_P1]
  >>> BDTU FLUSH C00100: redirecting PC to 0000002c (pc_plus4_mem)
  WR C00111: [ffffffe4]->w1073741817 = ffffffc8 (-56) BDTU  (MEM_PC=0000002c)
  WR C00112: [ffffffe8]->w1073741818 = 00000000 (0) BDTU  (MEM_PC=0000002c)
  >>> BDTU FLUSH C00113: redirecting PC to 00000030 (pc_plus4_mem)
  RF C00122: R3  <- 00000000 (0) [WB]  (WB_PC=00000030)
  WR C00125: [fffffff4]->w1073741821 = 00000000 (0) STR   (MEM_PC=00000034)
  RD C00133: [fffffff4]->w1073741821  dest=R3   (MEM_PC=000000f8)
  RF C00134: R3  <- 00000000 (0) [WB]  (WB_PC=000000f8)
  RD C00146: [fffffff4]->w1073741821  dest=R3   (MEM_PC=0000003c)
  RF C00147: R3  <- 00000000 (0) [WB]  (WB_PC=0000003c)
  RF C00152: R3  <- 00000001 (1) [WB]  (WB_PC=00000040)
  WR C00155: [fffffff0]->w1073741820 = 00000001 (1) STR   (MEM_PC=00000044)
  RD C00163: [fffffff0]->w1073741820  dest=R3   (MEM_PC=000000e0)
  RF C00164: R3  <- 00000001 (1) [WB]  (WB_PC=000000e0)
  RD C00176: [fffffff0]->w1073741820  dest=R3   (MEM_PC=0000004c)
  RF C00177: R3  <- 00000001 (1) [WB]  (WB_PC=0000004c)
  RF C00182: R3  <- 00000004 (4) [WB]  (WB_PC=00000050)
  RF C00186: R3  <- 00000000 (0) [WB]  (WB_PC=00000054)
  RF C00190: R3  <- fffffffc (-4) [WB]  (WB_PC=00000058)
  RD C00193: [ffffffc8]->w1073741810  dest=R2   (MEM_PC=0000005c)
  RD C00194: [fffffff4]->w1073741821  dest=R3   (MEM_PC=00000060)
  RF C00194: R2  <- 0000007b (123) [WB]  (WB_PC=0000005c)
  RF C00195: R3  <- 00000000 (0) [WB]  (WB_PC=00000060)
