Lab6/src/sim/top_tb.vcd
$date
	Sun Feb 15 13:07:55 2026
$end
$version
	Icarus Verilog
$end
$timescale
	1ps
$end
$scope module top_tb $end
$var wire 1 ! user_ready $end
$var wire 64 " user_rdata [63:0] $end
$var wire 64 # txn_quality [63:0] $end
$var wire 64 $ txn_counters [63:0] $end
$var wire 32 % status [31:0] $end
$var wire 64 & ila_dout [63:0] $end
$var wire 8 ' conn_status [7:0] $end
$var parameter 32 ( CLK_PERIOD $end
$var parameter 32 ) CONN_BUSY $end
$var parameter 32 * CONN_FIFO_NOT_EMPTY $end
$var parameter 32 + CONN_LINK_ACTIVE $end
$var parameter 32 , CONN_PROTOCOL_ERR $end
$var parameter 32 - CONN_REQ_TIMEOUT $end
$var parameter 32 . CONN_RESP_TIMEOUT $end
$var parameter 32 / CONN_TXN_TIMEDOUT $end
$var parameter 32 0 CTRL_CLEAR $end
$var parameter 32 1 CTRL_RUN $end
$var parameter 32 2 CTRL_START $end
$var parameter 32 3 CTRL_STEP $end
$var parameter 32 4 CTRL_STOP $end
$var parameter 3 5 ILA_ADDR_CTRL $end
$var parameter 3 6 ILA_ADDR_CYCLE $end
$var parameter 3 7 ILA_ADDR_PROBE $end
$var parameter 3 8 ILA_ADDR_PROBE_SEL $end
$var parameter 3 9 ILA_ADDR_STATUS $end
$var parameter 32 : NOP $end
$var parameter 3 ; R0 $end
$var parameter 3 < R1 $end
$var parameter 3 = R2 $end
$var parameter 3 > R3 $end
$var parameter 3 ? R4 $end
$var parameter 32 @ REGION_CTRL_BASE $end
$var parameter 32 A REGION_DMEM_BASE $end
$var parameter 32 B REGION_IMEM_BASE $end
$var parameter 32 C STAT_BUSY $end
$var parameter 32 D STAT_CPU_RUN $end
$var parameter 32 E STAT_DEBUG $end
$var parameter 32 F STAT_RUNNING $end
$var parameter 32 G STAT_STEPPING $end
$var parameter 32 H STAT_STOPPED $end
$var reg 1 I clear_stats $end
$var reg 1 J clk $end
$var reg 1 K debug_mode $end
$var reg 3 L ila_addr [2:0] $end
$var reg 64 M ila_din [63:0] $end
$var reg 1 N ila_we $end
$var reg 64 O rd_data [63:0] $end
$var reg 64 P rd_data2 [63:0] $end
$var reg 1 Q rst_n $end
$var reg 32 R user_addr [31:0] $end
$var reg 1 S user_cmd $end
$var reg 1 T user_valid $end
$var reg 64 U user_wdata [63:0] $end
$var integer 32 V fail_count [31:0] $end
$var integer 32 W pass_count [31:0] $end
$var integer 32 X test_num [31:0] $end
$scope function build_instr $end
$var reg 1 Y mw $end
$var reg 3 Z r0 [2:0] $end
$var reg 3 [ r1 [2:0] $end
$var reg 3 \ rd [2:0] $end
$var reg 1 ] rw $end
$upscope $end
$scope function ila_ctrl $end
$var reg 1 ^ clear $end
$var reg 1 _ run $end
$var reg 1 ` start $end
$var reg 1 a step $end
$var reg 1 b stop $end
$upscope $end
$scope module u_top $end
$var wire 1 I clear_stats $end
$var wire 1 J clk $end
$var wire 1 K debug_mode $end
$var wire 3 c ila_addr [2:0] $end
$var wire 64 d ila_din [63:0] $end
$var wire 1 N ila_we $end
$var wire 1 Q rst_n $end
$var wire 1 e soc_gated_clk $end
$var wire 32 f user_addr [31:0] $end
$var wire 1 S user_cmd $end
$var wire 1 T user_valid $end
$var wire 64 g user_wdata [63:0] $end
$var wire 1 ! user_ready $end
$var wire 64 h user_rdata [63:0] $end
$var wire 64 i txn_quality [63:0] $end
$var wire 1 j txn_pending $end
$var wire 64 k txn_counters [63:0] $end
$var wire 32 l status [31:0] $end
$var wire 1 m soc_clk_en $end
$var wire 1 n resp_val $end
$var wire 1 o resp_rdy $end
$var wire 64 p resp_data [63:0] $end
$var wire 1 q resp_cmd $end
$var wire 32 r resp_addr [31:0] $end
$var wire 1 s req_val $end
$var wire 1 t req_rdy $end
$var wire 64 u req_data [63:0] $end
$var wire 1 v req_cmd $end
$var wire 32 w req_addr [31:0] $end
$var wire 1 x ila_soc_start $end
$var wire 64 y ila_dout [63:0] $end
$var wire 1 z driver_busy $end
$var wire 5 { cpu_debug_sel [4:0] $end
$var wire 64 | cpu_debug_data [63:0] $end
$var wire 8 } conn_status [7:0] $end
$var reg 1 ~ soc_clk_en_latch $end
$scope module u_driver $end
$var wire 1 I clear_stats $end
$var wire 1 J clk $end
$var wire 1 !" fifo_wr_en $end
$var wire 1 "" req_timeout $end
$var wire 1 #" resp_timeout $end
$var wire 1 Q rst_n $end
$var wire 1 j txn_pending $end
$var wire 32 $" user_addr [31:0] $end
$var wire 1 S user_cmd $end
$var wire 1 T user_valid $end
$var wire 64 %" user_wdata [63:0] $end
$var wire 1 ! user_ready $end
$var wire 64 &" txn_quality [63:0] $end
$var wire 64 '" txn_counters [63:0] $end
$var wire 1 n soc_resp_val $end
$var wire 64 (" soc_resp_data [63:0] $end
$var wire 1 q soc_resp_cmd $end
$var wire 32 )" soc_resp_addr [31:0] $end
$var wire 1 t soc_req_rdy $end
$var wire 1 *" fifo_full $end
$var wire 1 +" fifo_empty $end
$var wire 97 ," fifo_dout [96:0] $end
$var wire 97 -" fifo_din [96:0] $end
$var wire 64 ." current_data [63:0] $end
$var wire 1 /" current_cmd $end
$var wire 32 0" current_addr [31:0] $end
$var wire 8 1" conn_status [7:0] $end
$var parameter 32 2" FIFO_DEPTH $end
$var parameter 34 3" FIFO_WIDTH $end
$var parameter 2 4" STATE_CHECK $end
$var parameter 2 5" STATE_IDLE $end
$var parameter 2 6" STATE_SEND_REQ $end
$var parameter 2 7" STATE_WAIT_RESP $end
$var parameter 16 8" TIMEOUT_THRESHOLD $end
$var reg 32 9" active_addr [31:0] $end
$var reg 1 :" active_cmd $end
$var reg 32 ;" captured_resp_addr [31:0] $end
$var reg 1 <" captured_resp_cmd $end
$var reg 2 =" current_state [1:0] $end
$var reg 1 >" fifo_rd_en $end
$var reg 1 ?" link_active_r $end
$var reg 16 @" max_latency_r [15:0] $end
$var reg 2 A" next_state [1:0] $end
$var reg 1 B" protocol_error_r $end
$var reg 16 C" read_txn_count_r [15:0] $end
$var reg 1 D" req_timeout_flag_r $end
$var reg 1 E" resp_timeout_flag_r $end
$var reg 32 F" soc_req_addr [31:0] $end
$var reg 1 v soc_req_cmd $end
$var reg 64 G" soc_req_data [63:0] $end
$var reg 1 s soc_req_val $end
$var reg 1 o soc_resp_rdy $end
$var reg 32 H" status [31:0] $end
$var reg 16 I" timeout_count_r [15:0] $end
$var reg 16 J" total_txn_count_r [15:0] $end
$var reg 1 K" txn_req_phase_timeout $end
$var reg 1 L" txn_timed_out $end
$var reg 16 M" txn_timer [15:0] $end
$var reg 64 N" user_rdata [63:0] $end
$var reg 16 O" write_txn_count_r [15:0] $end
$scope module u_fifo $end
$var wire 1 J clk $end
$var wire 97 P" din [96:0] $end
$var wire 97 Q" dout [96:0] $end
$var wire 1 >" rd_en $end
$var wire 1 Q rst_n $end
$var wire 1 !" wr_en $end
$var wire 1 *" full $end
$var wire 1 +" empty $end
$var parameter 34 R" DATA_WIDTH $end
$var parameter 32 S" DEPTH $end
$var reg 5 T" count [4:0] $end
$var reg 4 U" rd_ptr [3:0] $end
$var reg 4 V" wr_ptr [3:0] $end
$upscope $end
$upscope $end
$scope module u_ila $end
$var wire 1 J clk $end
$var wire 1 K debug_mode $end
$var wire 3 W" ila_addr [2:0] $end
$var wire 64 X" ila_din [63:0] $end
$var wire 1 N ila_we $end
$var wire 1 Q rst_n $end
$var wire 1 z soc_busy $end
$var wire 1 m soc_clk_en $end
$var wire 1 x soc_start $end
$var wire 1 j txn_pending $end
$var wire 5 Y" cpu_debug_sel [4:0] $end
$var wire 64 Z" cpu_debug_data [63:0] $end
$var reg 1 [" clear_pulse $end
$var reg 1 x cpu_run_level $end
$var reg 32 \" cycle_cnt [31:0] $end
$var reg 64 ]" ila_dout [63:0] $end
$var reg 5 ^" probe_sel_r [4:0] $end
$var reg 1 _" run_mode $end
$var reg 1 `" run_pulse $end
$var reg 1 a" step_active $end
$var reg 1 b" step_pulse $end
$var reg 1 c" stop_pulse $end
$upscope $end
$scope module u_soc $end
$var wire 1 e clk $end
$var wire 1 d" cpu_rst_n $end
$var wire 1 e" ctrl_host_active $end
$var wire 1 f" dmem_host_active $end
$var wire 1 g" host_active $end
$var wire 5 h" ila_debug_sel [4:0] $end
$var wire 1 i" imem_host_active $end
$var wire 32 j" req_addr [31:0] $end
$var wire 1 v req_cmd $end
$var wire 64 k" req_data [63:0] $end
$var wire 1 l" req_fire $end
$var wire 1 t req_rdy $end
$var wire 1 s req_val $end
$var wire 32 m" resp_addr [31:0] $end
$var wire 1 q resp_cmd $end
$var wire 64 n" resp_data [63:0] $end
$var wire 1 o resp_rdy $end
$var wire 1 n resp_val $end
$var wire 1 Q rst_n $end
$var wire 1 x start $end
$var wire 1 o" start_pulse $end
$var wire 1 p" system_active $end
$var wire 1 q" req_is_imem $end
$var wire 1 r" req_is_dmem $end
$var wire 1 s" req_is_ctrl $end
$var wire 32 t" imem_dout [31:0] $end
$var wire 64 u" ila_debug_data [63:0] $end
$var wire 64 v" dmem_douta [63:0] $end
$var wire 9 w" cpu_imem_addr [8:0] $end
$var wire 1 x" cpu_done $end
$var wire 1 y" cpu_dmem_wen $end
$var wire 64 z" cpu_dmem_wdata [63:0] $end
$var wire 8 {" cpu_dmem_addr [7:0] $end
$var parameter 2 |" REGION_CTRL $end
$var parameter 2 }" REGION_DMEM $end
$var parameter 2 ~" REGION_IMEM $end
$var parameter 2 !# REGION_RESERVED $end
$var parameter 2 "# STATE_ACCESS $end
$var parameter 2 ## STATE_IDLE $end
$var parameter 2 $# STATE_RESP $end
$var reg 1 %# cpu_active $end
$var reg 2 &# current_state [1:0] $end
$var reg 8 '# dmem_addr_mux [7:0] $end
$var reg 64 (# dmem_din_mux [63:0] $end
$var reg 1 )# dmem_we_mux $end
$var reg 9 *# imem_addr_mux [8:0] $end
$var reg 32 +# imem_din_mux [31:0] $end
$var reg 1 ,# imem_we_mux $end
$var reg 2 -# next_state [1:0] $end
$var reg 32 .# req_addr_reg [31:0] $end
$var reg 1 /# req_cmd_reg $end
$var reg 64 0# req_data_reg [63:0] $end
$var reg 2 1# req_region_reg [1:0] $end
$var reg 32 2# resp_addr_reg [31:0] $end
$var reg 1 3# resp_cmd_reg $end
$var reg 64 4# resp_data_reg [63:0] $end
$var reg 1 5# resp_pending $end
$var reg 1 6# resp_val_reg $end
$scope module u_cpu $end
$var wire 1 e clk $end
$var wire 64 7# d_mem_data_o [63:0] $end
$var wire 1 y" d_mem_wen_o $end
$var wire 9 8# i_mem_addr_o [8:0] $end
$var wire 5 9# ila_debug_sel [4:0] $end
$var wire 32 :# instr_if [31:0] $end
$var wire 1 ;# pc_en $end
$var wire 3 <# reg_write_addr [2:0] $end
$var wire 64 =# reg_write_data [63:0] $end
$var wire 1 ># reg_write_en $end
$var wire 1 d" rst_n $end
$var wire 1 ?# reg_write_wb $end
$var wire 1 @# reg_write_mem $end
$var wire 1 A# reg_write_id $end
$var wire 1 B# reg_write_ex $end
$var wire 3 C# rdaddr_wb [2:0] $end
$var wire 3 D# rdaddr_mem [2:0] $end
$var wire 3 E# rdaddr_id [2:0] $end
$var wire 3 F# rdaddr_ex [2:0] $end
$var wire 3 G# r1addr_id [2:0] $end
$var wire 64 H# r1_out_mem [63:0] $end
$var wire 64 I# r1_out_id [63:0] $end
$var wire 64 J# r1_out_ex [63:0] $end
$var wire 3 K# r0addr_id [2:0] $end
$var wire 64 L# r0_out_mem [63:0] $end
$var wire 64 M# r0_out_id [63:0] $end
$var wire 64 N# r0_out_ex [63:0] $end
$var wire 9 O# pc_if [8:0] $end
$var wire 1 P# mem_write_mem $end
$var wire 1 Q# mem_write_id $end
$var wire 1 R# mem_write_ex $end
$var wire 32 S# instr_id [31:0] $end
$var wire 32 T# i_mem_data_i [31:0] $end
$var wire 64 U# debug_reg_out [63:0] $end
$var wire 64 V# d_mem_data_i [63:0] $end
$var wire 8 W# d_mem_addr_o [7:0] $end
$var wire 1 x" cpu_done $end
$var reg 64 X# ila_debug_data [63:0] $end
$scope module ex_mem_reg $end
$var wire 133 Y# D [132:0] $end
$var wire 1 e clk $end
$var wire 1 Z# en $end
$var wire 1 d" rst_n $end
$var parameter 36 [# NUM_REG $end
$var reg 133 \# Q [132:0] $end
$upscope $end
$scope module id_ex_reg $end
$var wire 133 ]# D [132:0] $end
$var wire 1 e clk $end
$var wire 1 ^# en $end
$var wire 1 d" rst_n $end
$var parameter 36 _# NUM_REG $end
$var reg 133 `# Q [132:0] $end
$upscope $end
$scope module if_id_reg $end
$var wire 32 a# D [31:0] $end
$var wire 1 e clk $end
$var wire 1 b# en $end
$var wire 1 d" rst_n $end
$var parameter 32 c# NUM_REG $end
$var reg 32 d# Q [31:0] $end
$upscope $end
$scope module mem_wb_reg $end
$var wire 4 e# D [3:0] $end
$var wire 1 e clk $end
$var wire 1 f# en $end
$var wire 1 d" rst_n $end
$var parameter 33 g# NUM_REG $end
$var reg 4 h# Q [3:0] $end
$upscope $end
$scope module u_pc $end
$var wire 1 e clk $end
$var wire 1 ;# en $end
$var wire 1 d" rst_n $end
$var reg 9 i# pc_out [8:0] $end
$upscope $end
$scope module u_regfile $end
$var wire 1 e clk $end
$var wire 3 j# ila_cpu_reg_addr [2:0] $end
$var wire 64 k# ila_cpu_reg_data [63:0] $end
$var wire 3 l# r0addr [2:0] $end
$var wire 64 m# r0data [63:0] $end
$var wire 3 n# r1addr [2:0] $end
$var wire 64 o# r1data [63:0] $end
$var wire 3 p# waddr [2:0] $end
$var wire 64 q# wdata [63:0] $end
$var wire 1 ># wena $end
$upscope $end
$upscope $end
$scope module u_d_mem $end
$var wire 8 r# addra [7:0] $end
$var wire 8 s# addrb [7:0] $end
$var wire 1 e clka $end
$var wire 1 e clkb $end
$var wire 64 t# dina [63:0] $end
$var wire 64 u# dinb [63:0] $end
$var wire 1 )# wea $end
$var wire 1 v# web $end
$var reg 64 w# douta [63:0] $end
$var reg 64 x# doutb [63:0] $end
$upscope $end
$scope module u_i_mem $end
$var wire 9 y# addr [8:0] $end
$var wire 1 e clk $end
$var wire 32 z# din [31:0] $end
$var wire 1 ,# we $end
$var reg 32 {# dout [31:0] $end
$upscope $end
$upscope $end
$upscope $end
$scope begin counter_check_block $end
$var reg 16 |# reads [15:0] $end
$var reg 16 }# total [15:0] $end
$var reg 16 ~# writes [15:0] $end
$upscope $end
$scope begin fifo_drain $end
$var integer 32 !$ timeout [31:0] $end
$upscope $end
$scope begin fifo_stress $end
$var integer 32 "$ i [31:0] $end
$upscope $end
$scope begin fifo_verify $end
$var reg 1 #$ all_ok $end
$var reg 64 $$ check_data [63:0] $end
$var integer 32 %$ i [31:0] $end
$upscope $end
$scope begin timeout_wait $end
$var integer 32 &$ t [31:0] $end
$upscope $end
$scope task begin_test $end
$var reg 512 '$ name [511:0] $end
$upscope $end
$scope task check $end
$var reg 1 ($ cond $end
$var reg 512 )$ msg [511:0] $end
$upscope $end
$scope task do_read $end
$var reg 32 *$ addr [31:0] $end
$var reg 512 +$ msg [511:0] $end
$var reg 64 ,$ rdata [63:0] $end
$var reg 1 -$ success $end
$upscope $end
$scope task do_write $end
$var reg 32 .$ addr [31:0] $end
$var reg 64 /$ data [63:0] $end
$var reg 512 0$ msg [511:0] $end
$var reg 1 1$ success $end
$upscope $end
$scope task ila_read $end
$var reg 3 2$ addr [2:0] $end
$var reg 64 3$ data [63:0] $end
$upscope $end
$scope task ila_write $end
$var reg 3 4$ addr [2:0] $end
$var reg 64 5$ data [63:0] $end
$upscope $end
$scope task submit_txn $end
$var reg 32 6$ addr [31:0] $end
$var reg 1 7$ cmd $end
$var reg 64 8$ wdata [63:0] $end
$upscope $end
$scope task wait_txn_done $end
$var reg 1 9$ success $end
$var integer 32 :$ timeout_cnt [31:0] $end
$upscope $end
$upscope $end
$enddefinitions $end
$comment Show the parameter values. $end
$dumpall
b100 g#
b100000 c#
b10000101 _#
b10000101 [#
b10 $#
b0 ##
b1 "#
b11 !#
b0 ~"
b10 }"
b1 |"
b10000 S"
b1100001 R"
b1111101000 8"
b10 7"
b1 6"
b0 5"
b11 4"
b1100001 3"
b10000 2"
b0 H
b10 G
b1 F
b101 E
b100 D
b11 C
b0 B
b10000000000000000000000000000000 A
b1000000000000000000000000000000 @
b100 ?
b11 >
b10 =
b1 <
b0 ;
b0 :
b1 9
b10 8
b11 7
b100 6
b0 5
b10 4
b0 3
b11 2
b1 1
b101 0
b110 /
b10 .
b1 -
b11 ,
b0 +
b100 *
b101 )
b1010 (
$end
#0
$dumpvars
bx :$
x9$
bx 8$
x7$
bx 6$
bx 5$
bx 4$
bx 3$
bx 2$
x1$
bx 0$
bx /$
bx .$
x-$
bx ,$
bx +$
bx *$
bx )$
x($
bx '$
bx &$
bx %$
bx $$
x#$
bx "$
bx !$
bx ~#
bx }#
bx |#
bx {#
b0 z#
b0 y#
bx x#
bx w#
0v#
b0 u#
b0 t#
b0 s#
b0 r#
bx q#
b0 p#
bx o#
b0 n#
bx m#
b0 l#
bx k#
b0 j#
b0 i#
b0 h#
1f#
b0 e#
b0 d#
1b#
bx a#
b0 `#
1^#
b0xxxxxxxxxxxxxxxxxxxxxxxxxxxxxxxxxxxxxxxxxxxxxxxxxxxxxxxxxxxxxxxxxxxxxxxxxxxxxxxxxxxxxxxxxxxxxxxxxxxxxxxxxxxxxxxxxxxxxxxxxxxxxxxx000 ]#
b0 \#
1Z#
b0 Y#
b0 X#
b0 W#
bx V#
bx U#
bx T#
b0 S#
0R#
0Q#
0P#
b0 O#
b0 N#
bx M#
b0 L#
b0 K#
b0 J#
bx I#
b0 H#
b0 G#
b0 F#
b0 E#
b0 D#
b0 C#
0B#
0A#
0@#
0?#
0>#
bx =#
b0 <#
1;#
bx :#
b0 9#
b0 8#
b0 7#
06#
05#
b0 4#
03#
b0 2#
b0 1#
b0 0#
0/#
b0 .#
b0 -#
0,#
b0 +#
b0 *#
0)#
b0 (#
b0 '#
b0 &#
0%#
b0 {"
b0 z"
0y"
0x"
b0 w"
bx v"
b0 u"
bx t"
0s"
0r"
1q"
0p"
0o"
b0 n"
b0 m"
0l"
b0 k"
b0 j"
0i"
b0 h"
0g"
0f"
0e"
0d"
0c"
0b"
0a"
0`"
0_"
b0 ^"
b0 ]"
b0 \"
0["
b0 Z"
b0 Y"
b0 X"
b0 W"
b0 V"
b0 U"
b0 T"
bx Q"
b0 P"
b0 O"
b0 N"
b0 M"
0L"
0K"
b0 J"
b0 I"
b0 H"
b0 G"
b0 F"
0E"
0D"
b0 C"
0B"
b0 A"
b0 @"
0?"
0>"
b0 ="
0<"
b0 ;"
0:"
b0 9"
b10000000 1"
bx 0"
x/"
bx ."
b0 -"
bx ,"
1+"
0*"
b0 )"
b0 ("
b0 '"
b0 &"
b0 %"
b0 $"
0#"
0""
0!"
1~
b10000000 }
b0 |
b0 {
0z
b0 y
0x
b0 w
0v
b0 u
1t
0s
b0 r
0q
b0 p
0o
0n
1m
b0 l
b0 k
0j
b0 i
b0 h
b0 g
b0 f
0e
b0 d
b0 c
xb
xa
x`
x_
x^
x]
bx \
bx [
bx Z
xY
b0 X
b0 W
b0 V
b0 U
0T
0S
b0 R
0Q
bx P
bx O
0N
b0 M
b0 L
0K
0J
0I
b10000000 '
b0 &
b0 %
b0 $
b0 #
b0 "
1!
$end
#5000
1e
1J
#10000
0e
0J
#15000
1e
1J
#20000
0e
0J
#25000
1e
1J
#30000
0e
0J
#35000
1e
1J
#40000
0e
0J
1Q
#45000
b1 \"
1e
1J
#50000
0e
0J
#55000
b10 \"
1e
1J
#60000
0e
0J
#65000
b11 \"
1e
1J
#70000
0e
0J
#75000
b100 \"
1e
1J
#80000
0e
0J
b1 X
b101001001100101011100110110010101110100001000000100010001100101011001100110000101110101011011000111010001110011 '$
#81000
b1 2$
b101 W
b111001101110100011000010111010001110101011100110010000001101001011100110010000000110000001000000110000101100110011101000110010101110010001000000111001001100101011100110110010101110100 )$
1($
#85000
b101 \"
1e
b1 L
b1 c
b1 W"
1J
#90000
0e
0J
#95000
b110 \"
1e
1J
#96000
b11010 5$
b10 4$
b10 X
b100100101001100010000010010000001000100011010010111001001100101011000110111010000100000010100100110010101100111011010010111001101110100011001010111001000100000010000010110001101100011011001010111001101110011 '$
b1001 W
b1001001010011000100000100100000010100110101010001000001010101000101010101010011001110100010000001110011011101000110010101110000010111110110000101100011011101000110100101110110011001010011110100110000 )$
b0 O
b0 3$
#100000
0e
0J
#105000
b10 j#
bx |
bx Z"
bx u"
bx X#
b11010 &
b11010 y
b11010 ]"
b11010 {
b11010 Y"
b11010 ^"
b11010 h"
b11010 9#
b111 \"
1e
1N
b11010 M
b11010 d
b11010 X"
b10 L
b10 c
b10 W"
1J
#110000
0e
0J
#115000
b1000 \"
1e
b0 M
b0 d
b0 X"
0N
1J
#120000
0e
0J
#125000
b1001 \"
1e
b10 2$
1J
#130000
0e
0J
#135000
b1010 \"
1e
1J
#140000
0e
0J
#145000
b1011 \"
1e
1J
#146000
b0 5$
b1010 W
b1010000010100100100111101000010010001010101111101010011010001010100110000100000011100100110010101100001011001000110001001100001011000110110101100100000001111010010000000110000011110000011000101000001 )$
b11010 O
b11010 3$
#150000
0e
0J
#155000
b0 &
b0 y
b0 ]"
b0 j#
b0 |
b0 Z"
b0 u"
b0 X#
b1100 \"
b0 {
b0 Y"
b0 ^"
b0 h"
b0 9#
1e
1N
1J
#160000
0e
0J
#165000
b1101 \"
1e
0N
1J
#170000
0e
0J
#175000
b1110 \"
1e
1J
#180000
0e
0J
#185000
b1111 \"
1e
1J
#190000
0e
0J
#195000
b10000 \"
1e
1J
#196000
b100 2$
b1011 W
b1010000010100100100111101000010010001010101111101010011010001010100110000100000011100100110010101100001011001000110001001100001011000110110101100100000001111010010000000110000011110000011000000110000 )$
b0 O
b0 3$
#200000
0e
0J
#205000
b10001 \"
b10001 &
b10001 y
b10001 ]"
1e
b100 L
b100 c
b100 W"
1J
#210000
0e
0J
#215000
b10010 &
b10010 y
b10010 ]"
b10010 \"
1e
1J
#216000
b10010 O
b10010 3$
#220000
0e
0J
#225000
b10011 &
b10011 y
b10011 ]"
b10011 \"
1e
1J
#230000
0e
0J
#235000
b10100 &
b10100 y
b10100 ]"
b10100 \"
1e
1J
#240000
0e
0J
#245000
b10101 &
b10101 y
b10101 ]"
b10101 \"
1e
1J
#250000
0e
0J
#255000
b10110 &
b10110 y
b10110 ]"
b10110 \"
1e
1J
#260000
0e
0J
#265000
b10111 &
b10111 y
b10111 ]"
b10111 \"
1e
1J
#270000
0e
0J
#275000
b11000 &
b11000 y
b11000 ]"
b11000 \"
1e
1J
#280000
0e
0J
#285000
b11001 &
b11001 y
b11001 ]"
b11001 \"
1e
1J
#290000
0e
0J
#295000
b11010 &
b11010 y
b11010 ]"
b11010 \"
1e
1J
#300000
0e
0J
#305000
b11011 &
b11011 y
b11011 ]"
b11011 \"
1e
1J
#310000
0e
0J
#315000
b11100 &
b11100 y
b11100 ]"
b11100 \"
1e
1J
#320000
0e
0J
#325000
b11101 &
b11101 y
b11101 ]"
b11101 \"
1e
1J
#330000
0e
0J
#335000
b11110 &
b11110 y
b11110 ]"
b11110 \"
1e
1J
#336000
b1000 5$
0a
0_
0b
1`
0^
b0 4$
b1100 W
b100001101111001011000110110110001100101001000000110001101101111011101010110111001110100011001010111001000100000011010010111001100100000011010010110111001100011011100100110010101101101011001010110111001110100011010010110111001100111 )$
b11110 P
b11110 3$
#340000
0e
0J
#345000
0t
1d"
1p"
1x
b11111 \"
b1000 &
b1000 y
b1000 ]"
1e
1N
b1000 M
b1000 d
b1000 X"
b0 L
b0 c
b0 W"
1J
#350000
0e
0J
#355000
b1 *#
b1 y#
bx E#
bx G#
bx n#
bx K#
bx l#
xA#
bx ]#
xQ#
b1 |
b1 Z"
b1 u"
b1 X#
bx J#
b0xxxxxxxxxxxxxxxxxxxxxxxxxxxxxxxxxxxxxxxxxxxxxxxxxxxxxxxxxxxxxxxxxxxxxxxxxxxxxxxxxxxxxxxxxxxxxxxxxxxxxxxxxxxxxxxxxxxxxxxxxxxxxxxx000 Y#
bx N#
b1 w"
b1 8#
b1 O#
b1 i#
bx S#
bx d#
b0xxxxxxxxxxxxxxxxxxxxxxxxxxxxxxxxxxxxxxxxxxxxxxxxxxxxxxxxxxxxxxxxxxxxxxxxxxxxxxxxxxxxxxxxxxxxxxxxxxxxxxxxxxxxxxxxxxxxxxxxxxxxxxxx000 `#
b100000 \"
1e
b0 M
b0 d
b0 X"
0N
1J
#360000
0e
0J
#365000
bx (#
bx t#
bx '#
bx r#
bx {"
bx W#
bx z"
bx 7#
bx H#
bx L#
bx F#
xR#
bx Y#
xB#
b10 |
b10 Z"
b10 u"
b10 X#
b10 *#
b10 y#
b0xxxxxxxxxxxxxxxxxxxxxxxxxxxxxxxxxxxxxxxxxxxxxxxxxxxxxxxxxxxxxxxxxxxxxxxxxxxxxxxxxxxxxxxxxxxxxxxxxxxxxxxxxxxxxxxxxxxxxxxxxxxxxxxx000 \#
bx `#
b10 w"
b10 8#
b10 O#
b10 i#
b100001 \"
1e
b1 2$
1J
#370000
0e
0J
#375000
x)#
b11 |
b11 Z"
b11 u"
b11 X#
b11 *#
b11 y#
bx D#
xy"
xP#
bx e#
x@#
b11 w"
b11 8#
b11 O#
b11 i#
bx \#
b100010 \"
b10000 &
b10000 y
b10000 ]"
1e
b1 L
b1 c
b1 W"
1J
#380000
0e
0J
#385000
bx <#
bx p#
bx C#
x>#
x?#
b100 |
b100 Z"
b100 u"
b100 X#
b100 *#
b100 y#
bx h#
b100 w"
b100 8#
b100 O#
b100 i#
b100011 \"
1e
1J
#386000
b0 5$
0`
b1101 W
b110001101110000011101010101111101110010011101010110111001011111011011000110010101110110011001010110110000111101001100010010000001100001011001100111010001100101011100100010000001000011010101000101001001001100001000000111011101110010011010010111010001100101 )$
b10000 O
b10000 3$
#390000
0e
0J
#395000
b0 '#
b0 r#
b0 {"
b0 W#
0)#
b0 (#
b0 t#
b0 <#
b0 p#
b0 C#
0>#
0?#
b0 D#
b0 z"
b0 7#
b0 H#
b0 L#
0y"
0P#
b0 e#
0@#
b0 F#
b0 J#
b0 N#
0R#
b0 Y#
0B#
b0 E#
b0 G#
b0 n#
b0 K#
b0 l#
0A#
b0xxxxxxxxxxxxxxxxxxxxxxxxxxxxxxxxxxxxxxxxxxxxxxxxxxxxxxxxxxxxxxxxxxxxxxxxxxxxxxxxxxxxxxxxxxxxxxxxxxxxxxxxxxxxxxxxxxxxxxxxxxxxxxxx000 ]#
0Q#
b0 h#
b0 \#
b0 `#
b0 S#
b0 d#
1t
0d"
b0 |
b0 Z"
b0 u"
b0 X#
b0 *#
b0 y#
0p"
b0 w"
b0 8#
b0 O#
b0 i#
b100100 \"
0x
b0 &
b0 y
b0 ]"
1e
1N
b0 L
b0 c
b0 W"
1J
#400000
0e
0J
#405000
b100101 \"
1e
0N
1J
#410000
0e
0J
#415000
b100110 \"
1e
1J
#420000
0e
0J
#425000
b100111 \"
1e
b1 L
b1 c
b1 W"
1J
#430000
0e
0J
#435000
b101000 \"
1e
1J
#436000
b100001 &
b100001 y
b100001 ]"
0m
1K
b11 X
b100100101001100010000010010000001000011011011000110111101100011011010110010000001000111011000010111010001101001111111111111111111111111111000101111111110010100001000000101001101110100011011110111000000100000001011110010000001010010011101010110111000100000001011110010000001010011011101000110010101110000 '$
b1110 W
b11000110111000001110101010111110111001001110101011011100101111101101100011001010111011001100101011011000011110100110000001000000110000101100110011101000110010101110010001000000110001101101100011001010110000101110010011010010110111001100111 )$
b0 O
b0 3$
#440000
0~
0e
0J
#445000
b101001 \"
1J
#450000
0J
#455000
b101010 \"
1J
#460000
0J
#465000
b101011 \"
1J
#466000
b100 5$
1b
b1111 W
b1010011010101000100000101010100010101010101001100100000011100100110010101100110011011000110010101100011011101000111001100100000011001000110010101100010011101010110011101011111011011010110111101100100011001010011110100110001 )$
b100001 O
b100001 3$
#470000
0J
#475000
b101100 \"
1c"
b100 &
b100 y
b100 ]"
1N
b100 M
b100 d
b100 X"
b0 L
b0 c
b0 W"
1J
#480000
0J
#485000
b0 &
b0 y
b0 ]"
0c"
b101101 \"
b0 M
b0 d
b0 X"
0N
1J
#490000
0J
#495000
b101110 \"
1J
#500000
0J
#505000
b101111 \"
1J
#510000
0J
#515000
b110000 \"
b100001 &
b100001 y
b100001 ]"
b1 L
b1 c
b1 W"
1J
#520000
0J
#525000
b110001 \"
1J
#526000
b10 5$
1_
0b
b10001 W
b1110010011101010110111001011111011011010110111101100100011001010011110100110000 )$
#530000
0J
#535000
b110010 \"
1`"
b10 &
b10 y
b10 ]"
1N
b10 M
b10 d
b10 X"
b0 L
b0 c
b0 W"
1J
#540000
0J
#545000
1m
b0 &
b0 y
b0 ]"
1_"
0`"
b110011 \"
b0 M
b0 d
b0 X"
0N
1J
#550000
1~
0J
#555000
b110100 \"
1e
1J
#560000
0e
0J
#565000
b110101 \"
1e
1J
#570000
0e
0J
#575000
b110110 \"
b100010 &
b100010 y
b100010 ]"
1e
b1 L
b1 c
b1 W"
1J
#580000
0e
0J
#585000
b110111 \"
1e
1J
#586000
b100 5$
0_
1b
b10011 W
b11100110111010001101111011100000111000001100101011001000011110100110000 )$
b100010 O
b100010 3$
#590000
0e
0J
#595000
b111000 \"
1c"
b100 &
b100 y
b100 ]"
1e
1N
b100 M
b100 d
b100 X"
b0 L
b0 c
b0 W"
1J
#600000
0e
0J
#605000
0m
b0 &
b0 y
b0 ]"
0_"
0c"
b111001 \"
1e
b0 M
b0 d
b0 X"
0N
1J
#610000
0~
0e
0J
#615000
b111010 \"
1J
#620000
0J
#625000
b111011 \"
1J
#630000
0J
#635000
b111100 \"
1J
