Lab5/src/sim/soc_tb.vcd
$date
	Sat Feb 14 15:00:58 2026
$end
$version
	Icarus Verilog
$end
$timescale
	1ps
$end
$scope module soc_tb $end
$var wire 1 ! resp_val $end
$var wire 64 " resp_data [63:0] $end
$var wire 1 # resp_cmd $end
$var wire 32 $ resp_addr [31:0] $end
$var wire 1 % req_rdy $end
$var wire 64 & ila_debug_data [63:0] $end
$var parameter 32 ' ADDR_RANGE $end
$var parameter 32 ( CPU_TIMEOUT $end
$var parameter 32 ) CTRL_BASE $end
$var parameter 32 * DMEM_BASE $end
$var parameter 32 + IMEM_BASE $end
$var parameter 32 , NUM_DMEM_COE $end
$var parameter 32 - NUM_IMEM_COE $end
$var parameter 32 . NUM_RAND $end
$var reg 1 / clk $end
$var reg 5 0 ila_debug_sel [4:0] $end
$var reg 64 1 ila_expected [63:0] $end
$var reg 64 2 rd_data [63:0] $end
$var reg 32 3 req_addr [31:0] $end
$var reg 1 4 req_cmd $end
$var reg 64 5 req_data [63:0] $end
$var reg 1 6 req_val $end
$var reg 1 7 resp_rdy $end
$var reg 1 8 rst_n $end
$var reg 1 9 start $end
$var reg 32 : taddr [31:0] $end
$var reg 8 ; toff [7:0] $end
$var reg 64 < twdata [63:0] $end
$var integer 32 = cycle_cnt [31:0] $end
$var integer 32 > fail_cnt [31:0] $end
$var integer 32 ? i [31:0] $end
$var integer 32 @ k [31:0] $end
$var integer 32 A num_checked [31:0] $end
$var integer 32 B pass_cnt [31:0] $end
$var integer 32 C seed [31:0] $end
$scope module u_soc $end
$var wire 1 / clk $end
$var wire 1 D cpu_rst_n $end
$var wire 1 E ctrl_host_active $end
$var wire 1 F dmem_host_active $end
$var wire 1 G host_active $end
$var wire 5 H ila_debug_sel [4:0] $end
$var wire 1 I imem_host_active $end
$var wire 32 J req_addr [31:0] $end
$var wire 1 4 req_cmd $end
$var wire 64 K req_data [63:0] $end
$var wire 1 L req_fire $end
$var wire 1 % req_rdy $end
$var wire 1 6 req_val $end
$var wire 32 M resp_addr [31:0] $end
$var wire 1 # resp_cmd $end
$var wire 64 N resp_data [63:0] $end
$var wire 1 7 resp_rdy $end
$var wire 1 ! resp_val $end
$var wire 1 8 rst_n $end
$var wire 1 9 start $end
$var wire 1 O start_pulse $end
$var wire 1 P system_active $end
$var wire 1 Q req_is_imem $end
$var wire 1 R req_is_dmem $end
$var wire 1 S req_is_ctrl $end
$var wire 32 T imem_dout [31:0] $end
$var wire 64 U ila_debug_data [63:0] $end
$var wire 64 V dmem_douta [63:0] $end
$var wire 9 W cpu_imem_addr [8:0] $end
$var wire 1 X cpu_done $end
$var wire 1 Y cpu_dmem_wen $end
$var wire 64 Z cpu_dmem_wdata [63:0] $end
$var wire 8 [ cpu_dmem_addr [7:0] $end
$var parameter 2 \ REGION_CTRL $end
$var parameter 2 ] REGION_DMEM $end
$var parameter 2 ^ REGION_IMEM $end
$var parameter 2 _ REGION_RESERVED $end
$var parameter 2 ` STATE_ACCESS $end
$var parameter 2 a STATE_IDLE $end
$var parameter 2 b STATE_RESP $end
$var reg 1 c cpu_active $end
$var reg 2 d current_state [1:0] $end
$var reg 8 e dmem_addr_mux [7:0] $end
$var reg 64 f dmem_din_mux [63:0] $end
$var reg 1 g dmem_we_mux $end
$var reg 9 h imem_addr_mux [8:0] $end
$var reg 32 i imem_din_mux [31:0] $end
$var reg 1 j imem_we_mux $end
$var reg 2 k next_state [1:0] $end
$var reg 32 l req_addr_reg [31:0] $end
$var reg 1 m req_cmd_reg $end
$var reg 64 n req_data_reg [63:0] $end
$var reg 2 o req_region_reg [1:0] $end
$var reg 32 p resp_addr_reg [31:0] $end
$var reg 1 q resp_cmd_reg $end
$var reg 64 r resp_data_reg [63:0] $end
$var reg 1 s resp_pending $end
$var reg 1 t resp_val_reg $end
$scope module u_cpu $end
$var wire 1 / clk $end
$var wire 64 u d_mem_data_o [63:0] $end
$var wire 1 Y d_mem_wen_o $end
$var wire 9 v i_mem_addr_o [8:0] $end
$var wire 5 w ila_debug_sel [4:0] $end
$var wire 32 x instr_if [31:0] $end
$var wire 1 y pc_en $end
$var wire 3 z reg_write_addr [2:0] $end
$var wire 64 { reg_write_data [63:0] $end
$var wire 1 | reg_write_en $end
$var wire 1 D rst_n $end
$var wire 1 } reg_write_wb $end
$var wire 1 ~ reg_write_mem $end
$var wire 1 !" reg_write_id $end
$var wire 1 "" reg_write_ex $end
$var wire 3 #" rdaddr_wb [2:0] $end
$var wire 3 $" rdaddr_mem [2:0] $end
$var wire 3 %" rdaddr_id [2:0] $end
$var wire 3 &" rdaddr_ex [2:0] $end
$var wire 3 '" r1addr_id [2:0] $end
$var wire 64 (" r1_out_mem [63:0] $end
$var wire 64 )" r1_out_id [63:0] $end
$var wire 64 *" r1_out_ex [63:0] $end
$var wire 3 +" r0addr_id [2:0] $end
$var wire 64 ," r0_out_mem [63:0] $end
$var wire 64 -" r0_out_id [63:0] $end
$var wire 64 ." r0_out_ex [63:0] $end
$var wire 9 /" pc_if [8:0] $end
$var wire 1 0" mem_write_mem $end
$var wire 1 1" mem_write_id $end
$var wire 1 2" mem_write_ex $end
$var wire 32 3" instr_id [31:0] $end
$var wire 32 4" i_mem_data_i [31:0] $end
$var wire 64 5" debug_reg_out [63:0] $end
$var wire 64 6" d_mem_data_i [63:0] $end
$var wire 8 7" d_mem_addr_o [7:0] $end
$var wire 1 X cpu_done $end
$var reg 64 8" ila_debug_data [63:0] $end
$scope module ex_mem_reg $end
$var wire 133 9" D [132:0] $end
$var wire 1 / clk $end
$var wire 1 :" en $end
$var wire 1 D rst_n $end
$var parameter 36 ;" NUM_REG $end
$var reg 133 <" Q [132:0] $end
$upscope $end
$scope module id_ex_reg $end
$var wire 133 =" D [132:0] $end
$var wire 1 / clk $end
$var wire 1 >" en $end
$var wire 1 D rst_n $end
$var parameter 36 ?" NUM_REG $end
$var reg 133 @" Q [132:0] $end
$upscope $end
$scope module if_id_reg $end
$var wire 32 A" D [31:0] $end
$var wire 1 / clk $end
$var wire 1 B" en $end
$var wire 1 D rst_n $end
$var parameter 32 C" NUM_REG $end
$var reg 32 D" Q [31:0] $end
$upscope $end
$scope module mem_wb_reg $end
$var wire 4 E" D [3:0] $end
$var wire 1 / clk $end
$var wire 1 F" en $end
$var wire 1 D rst_n $end
$var parameter 33 G" NUM_REG $end
$var reg 4 H" Q [3:0] $end
$upscope $end
$scope module u_pc $end
$var wire 1 / clk $end
$var wire 1 y en $end
$var wire 1 D rst_n $end
$var reg 9 I" pc_out [8:0] $end
$upscope $end
$scope module u_regfile $end
$var wire 1 / clk $end
$var wire 3 J" ila_cpu_reg_addr [2:0] $end
$var wire 3 K" r0addr [2:0] $end
$var wire 3 L" r1addr [2:0] $end
$var wire 3 M" waddr [2:0] $end
$var wire 64 N" wdata [63:0] $end
$var wire 1 | wena $end
$var reg 64 O" ila_cpu_reg_data [63:0] $end
$var reg 64 P" r0data [63:0] $end
$var reg 64 Q" r1data [63:0] $end
$upscope $end
$upscope $end
$scope module u_d_mem $end
$var wire 8 R" addra [7:0] $end
$var wire 8 S" addrb [7:0] $end
$var wire 1 / clka $end
$var wire 1 / clkb $end
$var wire 64 T" dina [63:0] $end
$var wire 64 U" dinb [63:0] $end
$var wire 1 g wea $end
$var wire 1 V" web $end
$var reg 64 W" douta [63:0] $end
$var reg 64 X" doutb [63:0] $end
$upscope $end
$scope module u_i_mem $end
$var wire 9 Y" addr [8:0] $end
$var wire 1 / clk $end
$var wire 32 Z" din [31:0] $end
$var wire 1 j we $end
$var reg 32 [" dout [31:0] $end
$upscope $end
$upscope $end
$scope task check $end
$var reg 64 \" actual [63:0] $end
$var reg 32 ]" addr [31:0] $end
$var reg 64 ^" expected [63:0] $end
$var reg 256 _" tag [255:0] $end
$upscope $end
$scope task do_reset $end
$upscope $end
$scope task mmio_rd $end
$var reg 32 `" addr [31:0] $end
$var reg 64 a" rdata [63:0] $end
$var reg 64 b" tmp [63:0] $end
$upscope $end
$scope task mmio_txn $end
$var reg 32 c" addr [31:0] $end
$var reg 1 d" cmd $end
$var reg 64 e" rdata [63:0] $end
$var reg 64 f" wdata [63:0] $end
$upscope $end
$scope task mmio_wr $end
$var reg 32 g" addr [31:0] $end
$var reg 64 h" dummy [63:0] $end
$var reg 64 i" wdata [63:0] $end
$upscope $end
$upscope $end
$enddefinitions $end
$comment Show the parameter values. $end
$dumpall
b100 G"
b100000 C"
b10000101 ?"
b10000101 ;"
b10 b
b0 a
b1 `
b11 _
b0 ^
b10 ]
b1 \
b1000000 .
b1000 -
b1010 ,
b0 +
b10000000000000000000000000000000 *
b1000000000000000000000000000000 )
b1111101000 (
b100000000 '
$end
#0
$dumpvars
bx i"
bx h"
bx g"
bx f"
bx e"
xd"
bx c"
bx b"
bx a"
bx `"
bx _"
bx ^"
bx ]"
bx \"
bx ["
b0 Z"
b0 Y"
bx X"
bx W"
0V"
b0 U"
b0 T"
b0 S"
b0 R"
bx Q"
bx P"
bx O"
bx N"
b0 M"
b0 L"
b0 K"
b0 J"
b0 I"
b0 H"
1F"
b0 E"
b0 D"
1B"
bx A"
b0 @"
1>"
b0xxxxxxxxxxxxxxxxxxxxxxxxxxxxxxxxxxxxxxxxxxxxxxxxxxxxxxxxxxxxxxxxxxxxxxxxxxxxxxxxxxxxxxxxxxxxxxxxxxxxxxxxxxxxxxxxxxxxxxxxxxxxxxxx000 ="
b0 <"
1:"
b0 9"
b0 8"
b0 7"
bx 6"
bx 5"
bx 4"
b0 3"
02"
01"
00"
b0 /"
b0 ."
bx -"
b0 ,"
b0 +"
b0 *"
bx )"
b0 ("
b0 '"
b0 &"
b0 %"
b0 $"
b0 #"
0""
0!"
0~
0}
0|
bx {
b0 z
1y
bx x
b0 w
b0 v
b0 u
0t
0s
b0 r
0q
b0 p
b0 o
b0 n
0m
b0 l
b0 k
0j
b0 i
b0 h
0g
b0 f
b0 e
b0 d
0c
b0 [
b0 Z
0Y
0X
b0 W
bx V
b0 U
bx T
0S
0R
1Q
0P
0O
b0 N
b0 M
0L
b0 K
b0 J
0I
b0 H
0G
0F
0E
0D
b101010 C
b0 B
bx A
bx @
b100000000 ?
b0 >
bx =
bx <
bx ;
bx :
09
08
07
06
b0 5
04
b0 3
bx 2
bx 1
b0 0
0/
b0 &
1%
b0 $
0#
b0 "
0!
$end
#1000
b0 5"
b0 O"
b0 )"
b0 Q"
b0 ="
b0 -"
b0 P"
b100000 @
#5000
1/
#10000
0/
#15000
1/
#20000
0/
#25000
1/
#30000
0/
#35000
1/
#40000
0/
#45000
1/
#50000
0/
#55000
1/
#60000
0/
#65000
1/
#70000
0/
#75000
1/
#80000
0/
#85000
1/
#90000
0/
#95000
1/
#96000
18
#100000
0/
#105000
1/
#110000
0/
#115000
1/
#120000
0/
#125000
1/
#130000
0/
#135000
1/
#140000
0/
#145000
b1000000010000000000000000000000 f"
b0 c"
1d"
b1000000010000000000000000000000 i"
b0 g"
b0 ?
1/
#150000
0/
#155000
1/
#156000
b1 k
1L
17
16
b1000000010000000000000000000000 5
b1000000010000000000000000000000 K
14
#160000
0/
#165000
1j
b1000000010000000000000000000000 i
b1000000010000000000000000000000 Z"
0L
1I
b10 k
0%
1G
1s
b1000000010000000000000000000000 n
1m
b1 d
1/
#166000
06
#170000
0/
#175000
0j
b10 d
1/
#180000
0/
#185000
b0 k
b0xxxxxxxxxxxxxxxxxxxxxxxxxxxxxxxx "
b0xxxxxxxxxxxxxxxxxxxxxxxxxxxxxxxx N
b0xxxxxxxxxxxxxxxxxxxxxxxxxxxxxxxx r
1#
1q
1!
1t
b1000000010000000000000000000000 x
b1000000010000000000000000000000 A"
b1000000010000000000000000000000 T
b1000000010000000000000000000000 4"
b1000000010000000000000000000000 ["
1/
#186000
b0xxxxxxxxxxxxxxxxxxxxxxxxxxxxxxxx e"
#190000
0/
#195000
b0 i
b0 Z"
0I
1%
0G
0s
0!
0t
b0 d
1/
#196000
b1000000011000000000000000000000 f"
b1 c"
b1000000011000000000000000000000 i"
b1 g"
b1 ?
b0xxxxxxxxxxxxxxxxxxxxxxxxxxxxxxxx h"
07
#200000
0/
#205000
1/
#206000
b1 k
1L
17
16
b1000000011000000000000000000000 5
b1000000011000000000000000000000 K
b1 3
b1 J
#210000
0/
#215000
1j
b1000000011000000000000000000000 i
b1000000011000000000000000000000 Z"
b1 h
b1 Y"
0L
1I
b10 k
0%
1G
1s
b1000000011000000000000000000000 n
b1 l
b1 d
1/
#216000
06
#220000
0/
#225000
0j
b10 d
bx x
bx A"
bx T
bx 4"
bx ["
1/
#230000
0/
#235000
b0 k
b1 $
b1 M
b1 p
1!
1t
b1000000011000000000000000000000 x
b1000000011000000000000000000000 A"
b1000000011000000000000000000000 T
b1000000011000000000000000000000 4"
b1000000011000000000000000000000 ["
1/
#240000
0/
#245000
b0 i
b0 Z"
b0 h
b0 Y"
0I
1%
0G
0s
0!
0t
b0 d
1/
#246000
b0 f"
b10 c"
b0 i"
b10 g"
b10 ?
07
#250000
0/
#255000
b1000000010000000000000000000000 x
b1000000010000000000000000000000 A"
b1000000010000000000000000000000 T
b1000000010000000000000000000000 4"
b1000000010000000000000000000000 ["
1/
#256000
b1 k
1L
17
16
b0 5
b0 K
b10 3
b10 J
#260000
0/
#265000
1j
b10 h
b10 Y"
0L
1I
b10 k
0%
1G
1s
b0 n
b10 l
b1 d
1/
#266000
06
#270000
0/
#275000
0j
b10 d
bx x
bx A"
bx T
bx 4"
bx ["
1/
#280000
0/
#285000
b0 k
b10 $
b10 M
b10 p
1!
1t
b0 x
b0 A"
b0 T
b0 4"
b0 ["
1/
#290000
0/
#295000
b0 h
b0 Y"
0I
1%
0G
0s
0!
0t
b0 d
1/
#296000
b11 c"
b11 g"
b11 ?
07
#300000
0/
#305000
b1000000010000000000000000000000 x
b1000000010000000000000000000000 A"
b1000000010000000000000000000000 T
b1000000010000000000000000000000 4"
b1000000010000000000000000000000 ["
1/
#306000
b1 k
1L
17
16
b11 3
b11 J
#310000
0/
#315000
1j
b11 h
b11 Y"
0L
1I
b10 k
0%
1G
1s
b11 l
b1 d
1/
#316000
06
#320000
0/
#325000
0j
b10 d
bx x
bx A"
bx T
bx 4"
bx ["
1/
#330000
0/
#335000
b0 k
b11 $
b11 M
b11 p
1!
1t
b0 x
b0 A"
b0 T
b0 4"
b0 ["
1/
#340000
0/
#345000
b0 h
b0 Y"
0I
1%
0G
0s
0!
0t
b0 d
1/
#346000
b100 c"
b100 g"
b100 ?
07
#350000
0/
#355000
b1000000010000000000000000000000 x
b1000000010000000000000000000000 A"
b1000000010000000000000000000000 T
b1000000010000000000000000000000 4"
b1000000010000000000000000000000 ["
1/
#356000
b1 k
1L
17
16
b100 3
b100 J
#360000
0/
#365000
1j
b100 h
b100 Y"
0L
1I
b10 k
0%
1G
1s
b100 l
b1 d
1/
#366000
06
#370000
0/
#375000
0j
b10 d
bx x
bx A"
bx T
bx 4"
bx ["
1/
#380000
0/
#385000
b0 k
b100 $
b100 M
b100 p
1!
1t
b0 x
b0 A"
b0 T
b0 4"
b0 ["
1/
#390000
0/
#395000
b0 h
b0 Y"
0I
1%
0G
0s
0!
0t
b0 d
1/
#396000
b10010011000000000000000000000000 f"
b101 c"
b10010011000000000000000000000000 i"
b101 g"
b101 ?
07
#400000
0/
#405000
b1000000010000000000000000000000 x
b1000000010000000000000000000000 A"
b1000000010000000000000000000000 T
b1000000010000000000000000000000 4"
b1000000010000000000000000000000 ["
1/
#406000
b1 k
1L
17
16
b10010011000000000000000000000000 5
b10010011000000000000000000000000 K
b101 3
b101 J
#410000
0/
#415000
1j
b10010011000000000000000000000000 i
b10010011000000000000000000000000 Z"
b101 h
b101 Y"
0L
1I
b10 k
0%
1G
1s
b10010011000000000000000000000000 n
b101 l
b1 d
1/
#416000
06
#420000
0/
#425000
0j
b10 d
bx x
bx A"
bx T
bx 4"
bx ["
1/
#430000
0/
#435000
b0 k
b101 $
b101 M
b101 p
1!
1t
b10010011000000000000000000000000 x
b10010011000000000000000000000000 A"
b10010011000000000000000000000000 T
b10010011000000000000000000000000 4"
b10010011000000000000000000000000 ["
1/
#440000
0/
#445000
b0 i
b0 Z"
b0 h
b0 Y"
0I
1%
0G
0s
0!
0t
b0 d
1/
#446000
b0 f"
b110 c"
b0 i"
b110 g"
b110 ?
07
#450000
0/
#455000
b1000000010000000000000000000000 x
b1000000010000000000000000000000 A"
b1000000010000000000000000000000 T
b1000000010000000000000000000000 4"
b1000000010000000000000000000000 ["
1/
#456000
b1 k
1L
17
16
b0 5
b0 K
b110 3
b110 J
#460000
0/
#465000
1j
b110 h
b110 Y"
0L
1I
b10 k
0%
1G
1s
b0 n
b110 l
b1 d
1/
#466000
06
#470000
0/
#475000
0j
b10 d
bx x
bx A"
bx T
bx 4"
bx ["
1/
#480000
0/
#485000
b0 k
b110 $
b110 M
b110 p
1!
1t
b0 x
b0 A"
b0 T
b0 4"
b0 ["
1/
#490000
0/
#495000
b0 h
b0 Y"
0I
1%
0G
0s
0!
0t
b0 d
1/
#496000
b111 c"
b111 g"
b111 ?
07
#500000
0/
#505000
b1000000010000000000000000000000 x
b1000000010000000000000000000000 A"
b1000000010000000000000000000000 T
b1000000010000000000000000000000 4"
b1000000010000000000000000000000 ["
1/
#506000
b1 k
1L
17
16
b111 3
b111 J
#510000
0/
#515000
1j
b111 h
b111 Y"
0L
1I
b10 k
0%
1G
1s
b111 l
b1 d
1/
#516000
06
#520000
0/
#525000
0j
b10 d
bx x
bx A"
bx T
bx 4"
bx ["
1/
#530000
0/
#535000
b0 k
b111 $
b111 M
b111 p
1!
1t
b0 x
b0 A"
b0 T
b0 4"
b0 ["
1/
#540000
0/
#545000
b0 h
b0 Y"
0I
1%
0G
0s
0!
0t
b0 d
1/
#546000
b100 f"
b10000000000000000000000000000000 c"
b100 i"
b10000000000000000000000000000000 g"
b0 ?
07
#550000
0/
#555000
b1000000010000000000000000000000 x
b1000000010000000000000000000000 A"
b1000000010000000000000000000000 T
b1000000010000000000000000000000 4"
b1000000010000000000000000000000 ["
1/
#556000
b1 k
1L
17
16
b100 5
b100 K
b10000000000000000000000000000000 3
b10000000000000000000000000000000 J
#560000
0/
#565000
1g
b100 f
b100 T"
0L
1F
b10 k
0%
1G
1s
0Q
1R
b10 o
b100 n
b10000000000000000000000000000000 l
b1 d
1/
#566000
06
#570000
0/
#575000
0g
b10 d
1/
#580000
0/
#585000
b0 k
bx "
bx N
bx r
b10000000000000000000000000000000 $
b10000000000000000000000000000000 M
b10000000000000000000000000000000 p
1!
1t
b100 {
b100 N"
b100 V
b100 6"
b100 W"
b100 X"
1/
#586000
bx e"
#590000
0/
#595000
b0 f
b0 T"
0F
1%
0G
0s
0!
0t
b0 d
1/
#596000
b0 f"
b10000000000000000000000000000001 c"
b0 i"
b10000000000000000000000000000001 g"
b1 ?
bx h"
07
#600000
0/
#605000
1/
#606000
b1 k
1L
17
16
b0 5
b0 K
b10000000000000000000000000000001 3
b10000000000000000000000000000001 J
#610000
0/
#615000
1g
b1 e
b1 R"
0L
1F
b10 k
0%
1G
1s
b0 n
b10000000000000000000000000000001 l
b1 d
1/
#616000
06
#620000
0/
#625000
0g
b10 d
bx {
bx N"
bx V
bx 6"
bx W"
1/
#630000
0/
#635000
b0 k
b10000000000000000000000000000001 $
b10000000000000000000000000000001 M
b10000000000000000000000000000001 p
1!
1t
b0 {
b0 N"
b0 V
b0 6"
b0 W"
1/
#640000
0/
#645000
b0 e
b0 R"
0F
1%
0G
0s
0!
0t
b0 d
1/
#646000
b10000000000000000000000000000010 c"
b10000000000000000000000000000010 g"
b10 ?
07
#650000
0/
#655000
b100 {
b100 N"
b100 V
b100 6"
b100 W"
1/
#656000
b1 k
1L
17
16
b10000000000000000000000000000010 3
b10000000000000000000000000000010 J
#660000
0/
#665000
1g
b10 e
b10 R"
0L
1F
b10 k
0%
1G
1s
b10000000000000000000000000000010 l
b1 d
1/
#666000
06
#670000
0/
#675000
0g
b10 d
bx {
bx N"
bx V
bx 6"
bx W"
1/
#680000
0/
#685000
b0 k
b10000000000000000000000000000010 $
b10000000000000000000000000000010 M
b10000000000000000000000000000010 p
1!
1t
b0 {
b0 N"
b0 V
b0 6"
b0 W"
1/
#690000
0/
#695000
b0 e
b0 R"
0F
1%
0G
0s
0!
0t
b0 d
1/
#696000
b10000000000000000000000000000011 c"
b10000000000000000000000000000011 g"
b11 ?
07
#700000
0/
#705000
b100 {
b100 N"
b100 V
b100 6"
b100 W"
1/
#706000
b1 k
1L
17
16
b10000000000000000000000000000011 3
b10000000000000000000000000000011 J
#710000
0/
#715000
1g
b11 e
b11 R"
0L
1F
b10 k
0%
1G
1s
b10000000000000000000000000000011 l
b1 d
1/
#716000
06
#720000
0/
#725000
0g
b10 d
bx {
bx N"
bx V
bx 6"
bx W"
1/
#730000
0/
#735000
b0 k
b10000000000000000000000000000011 $
b10000000000000000000000000000011 M
b10000000000000000000000000000011 p
1!
1t
b0 {
b0 N"
b0 V
b0 6"
b0 W"
1/
#740000
0/
#745000
b0 e
b0 R"
0F
1%
0G
0s
0!
0t
b0 d
1/
#746000
b1100100 f"
b10000000000000000000000000000100 c"
b1100100 i"
b10000000000000000000000000000100 g"
b100 ?
07
#750000
0/
#755000
b100 {
b100 N"
b100 V
b100 6"
b100 W"
1/
#756000
b1 k
1L
17
16
b1100100 5
b1100100 K
b10000000000000000000000000000100 3
b10000000000000000000000000000100 J
#760000
0/
#765000
1g
b1100100 f
b1100100 T"
b100 e
b100 R"
0L
1F
b10 k
0%
1G
1s
b1100100 n
b10000000000000000000000000000100 l
b1 d
1/
#766000
06
#770000
0/
#775000
0g
b10 d
bx {
bx N"
bx V
bx 6"
bx W"
1/
#780000
0/
#785000
b0 k
b10000000000000000000000000000100 $
b10000000000000000000000000000100 M
b10000000000000000000000000000100 p
1!
1t
b1100100 {
b1100100 N"
b1100100 V
b1100100 6"
b1100100 W"
1/
#790000
0/
#795000
b0 f
b0 T"
b0 e
b0 R"
0F
1%
0G
0s
0!
0t
b0 d
1/
#796000
b0 f"
b10000000000000000000000000000101 c"
b0 i"
b10000000000000000000000000000101 g"
b101 ?
07
#800000
0/
#805000
b100 {
b100 N"
b100 V
b100 6"
b100 W"
1/
#806000
b1 k
1L
17
16
b0 5
b0 K
b10000000000000000000000000000101 3
b10000000000000000000000000000101 J
#810000
0/
#815000
1g
b101 e
b101 R"
0L
1F
b10 k
0%
1G
1s
b0 n
b10000000000000000000000000000101 l
b1 d
1/
#816000
06
#820000
0/
#825000
0g
b10 d
bx {
bx N"
bx V
bx 6"
bx W"
1/
#830000
0/
#835000
b0 k
b10000000000000000000000000000101 $
b10000000000000000000000000000101 M
b10000000000000000000000000000101 p
1!
1t
b0 {
b0 N"
b0 V
b0 6"
b0 W"
1/
#840000
0/
#845000
b0 e
b0 R"
0F
1%
0G
0s
0!
0t
b0 d
1/
#846000
b10000000000000000000000000000110 c"
b10000000000000000000000000000110 g"
b110 ?
07
#850000
0/
#855000
b100 {
b100 N"
b100 V
b100 6"
b100 W"
1/
#856000
b1 k
1L
17
16
b10000000000000000000000000000110 3
b10000000000000000000000000000110 J
#860000
0/
#865000
1g
b110 e
b110 R"
0L
1F
b10 k
0%
1G
1s
b10000000000000000000000000000110 l
b1 d
1/
#866000
06
#870000
0/
#875000
0g
b10 d
bx {
bx N"
bx V
bx 6"
bx W"
1/
#880000
0/
#885000
b0 k
b10000000000000000000000000000110 $
b10000000000000000000000000000110 M
b10000000000000000000000000000110 p
1!
1t
b0 {
b0 N"
b0 V
b0 6"
b0 W"
1/
#890000
0/
#895000
b0 e
b0 R"
0F
1%
0G
0s
0!
0t
b0 d
1/
#896000
b10000000000000000000000000000111 c"
b10000000000000000000000000000111 g"
b111 ?
07
#900000
0/
#905000
b100 {
b100 N"
b100 V
b100 6"
b100 W"
1/
#906000
b1 k
1L
17
16
b10000000000000000000000000000111 3
b10000000000000000000000000000111 J
#910000
0/
#915000
1g
b111 e
b111 R"
0L
1F
b10 k
0%
1G
1s
b10000000000000000000000000000111 l
b1 d
1/
#916000
06
#920000
0/
#925000
0g
b10 d
bx {
bx N"
bx V
bx 6"
bx W"
1/
#930000
0/
#935000
b0 k
b10000000000000000000000000000111 $
b10000000000000000000000000000111 M
b10000000000000000000000000000111 p
1!
1t
b0 {
b0 N"
b0 V
b0 6"
b0 W"
1/
#940000
0/
#945000
b0 e
b0 R"
0F
1%
0G
0s
0!
0t
b0 d
1/
#946000
b10000000000000000000000000001000 c"
b10000000000000000000000000001000 g"
b1000 ?
07
#950000
0/
#955000
b100 {
b100 N"
b100 V
b100 6"
b100 W"
1/
#956000
b1 k
1L
17
16
b10000000000000000000000000001000 3
b10000000000000000000000000001000 J
#960000
0/
#965000
1g
b1000 e
b1000 R"
0L
1F
b10 k
0%
1G
1s
b10000000000000000000000000001000 l
b1 d
1/
#966000
06
#970000
0/
#975000
0g
b10 d
bx {
bx N"
bx V
bx 6"
bx W"
1/
#980000
0/
#985000
b0 k
b10000000000000000000000000001000 $
b10000000000000000000000000001000 M
b10000000000000000000000000001000 p
1!
1t
b0 {
b0 N"
b0 V
b0 6"
b0 W"
1/
#990000
0/
#995000
b0 e
b0 R"
0F
1%
0G
0s
0!
0t
b0 d
1/
#996000
b10000000000000000000000000001001 c"
b10000000000000000000000000001001 g"
b1001 ?
07
#1000000
0/
#1005000
b100 {
b100 N"
b100 V
b100 6"
b100 W"
1/
#1006000
b1 k
1L
17
16
b10000000000000000000000000001001 3
b10000000000000000000000000001001 J
#1010000
0/
#1015000
1g
b1001 e
b1001 R"
0L
1F
b10 k
0%
1G
1s
b10000000000000000000000000001001 l
b1 d
1/
#1016000
06
#1020000
0/
#1025000
0g
b10 d
bx {
bx N"
bx V
bx 6"
bx W"
1/
#1030000
0/
#1035000
b0 k
b10000000000000000000000000001001 $
b10000000000000000000000000001001 M
b10000000000000000000000000001001 p
1!
1t
b0 {
b0 N"
b0 V
b0 6"
b0 W"
1/
#1040000
0/
#1045000
b0 e
b0 R"
0F
1%
0G
0s
0!
0t
b0 d
1/
#1046000
b0 c"
0d"
b0 `"
b0 :
b0 ?
07
#1050000
0/
#1055000
b100 {
b100 N"
b100 V
b100 6"
b100 W"
1/
#1056000
b1 k
1L
17
16
b0 3
b0 J
04
#1060000
0/
#1065000
0L
1I
b10 k
0%
1G
1s
1Q
0R
b0 o
b0 l
0m
b1 d
1/
#1066000
06
#1070000
0/
#1075000
b10 d
1/
#1080000
0/
#1085000
b0 k
b1000000010000000000000000000000 "
b1000000010000000000000000000000 N
b1000000010000000000000000000000 r
b0 $
b0 M
b0 p
0#
0q
1!
1t
1/
#1086000
b1000000010000000000000000000000 e"
#1090000
0/
#1095000
0I
1%
0G
0s
0!
0t
b0 d
1/
#1096000
b1 c"
b1 `"
b1 :
b1 ?
b1 B
b100001101001111010001010101111101001001010011010100010101001101 _"
b0 ]"
b1000000010000000000000000000000 \"
b1000000010000000000000000000000 ^"
b1000000010000000000000000000000 2
b1000000010000000000000000000000 a"
b1000000010000000000000000000000 b"
07
#1100000
0/
#1105000
1/
#1106000
b1 k
1L
17
16
b1 3
b1 J
#1110000
0/
#1115000
b1 h
b1 Y"
0L
1I
b10 k
0%
1G
1s
b1 l
b1 d
1/
#1116000
06
#1120000
0/
#1125000
b10 d
b1000000011000000000000000000000 x
b1000000011000000000000000000000 A"
b1000000011000000000000000000000 T
b1000000011000000000000000000000 4"
b1000000011000000000000000000000 ["
1/
#1130000
0/
#1135000
b0 k
b1000000011000000000000000000000 "
b1000000011000000000000000000000 N
b1000000011000000000000000000000 r
b1 $
b1 M
b1 p
1!
1t
1/
#1136000
b1000000011000000000000000000000 e"
#1140000
0/
#1145000
b0 h
b0 Y"
0I
1%
0G
0s
0!
0t
b0 d
1/
#1146000
b10 c"
b10 `"
b10 :
b10 ?
b10 B
b1 ]"
b1000000011000000000000000000000 \"
b1000000011000000000000000000000 ^"
b1000000011000000000000000000000 2
b1000000011000000000000000000000 a"
b1000000011000000000000000000000 b"
07
#1150000
0/
#1155000
b1000000010000000000000000000000 x
b1000000010000000000000000000000 A"
b1000000010000000000000000000000 T
b1000000010000000000000000000000 4"
b1000000010000000000000000000000 ["
1/
#1156000
b1 k
1L
17
16
b10 3
b10 J
#1160000
0/
#1165000
b10 h
b10 Y"
0L
1I
b10 k
0%
1G
1s
b10 l
b1 d
1/
#1166000
06
#1170000
0/
#1175000
b10 d
b0 x
b0 A"
b0 T
b0 4"
b0 ["
1/
#1180000
0/
#1185000
b0 k
b0 "
b0 N
b0 r
b10 $
b10 M
b10 p
1!
1t
1/
#1186000
b0 e"
#1190000
0/
#1195000
b0 h
b0 Y"
0I
1%
0G
0s
0!
0t
b0 d
1/
#1196000
b11 c"
b11 `"
b11 :
b11 ?
b11 B
b10 ]"
b0 \"
b0 ^"
b0 2
b0 a"
b0 b"
07
#1200000
0/
#1205000
b1000000010000000000000000000000 x
b1000000010000000000000000000000 A"
b1000000010000000000000000000000 T
b1000000010000000000000000000000 4"
b1000000010000000000000000000000 ["
1/
#1206000
b1 k
1L
17
16
b11 3
b11 J
#1210000
0/
#1215000
b11 h
b11 Y"
0L
1I
b10 k
0%
1G
1s
b11 l
b1 d
1/
#1216000
06
#1220000
0/
#1225000
b10 d
b0 x
b0 A"
b0 T
b0 4"
b0 ["
1/
#1230000
0/
#1235000
b0 k
b11 $
b11 M
b11 p
1!
1t
1/
#1240000
0/
#1245000
b0 h
b0 Y"
0I
1%
0G
0s
0!
0t
b0 d
1/
#1246000
b100 c"
b100 `"
b100 :
b100 ?
b100 B
b11 ]"
07
#1250000
0/
