Lab5/src/sim/soc_driver_tb.vcd
$date
	Sat Feb 14 14:12:26 2026
$end
$version
	Icarus Verilog
$end
$timescale
	1ps
$end
$scope module soc_driver_tb $end
$var wire 1 ! user_ready $end
$var wire 64 " user_rdata [63:0] $end
$var wire 64 # txn_quality [63:0] $end
$var wire 64 $ txn_counters [63:0] $end
$var wire 32 % status [31:0] $end
$var wire 1 & soc_resp_rdy $end
$var wire 1 ' soc_req_val $end
$var wire 64 ( soc_req_data [63:0] $end
$var wire 1 ) soc_req_cmd $end
$var wire 32 * soc_req_addr [31:0] $end
$var wire 8 + conn_status [7:0] $end
$var parameter 32 , CLK_PERIOD $end
$var parameter 32 - FIFO_DEPTH $end
$var parameter 32 . MAX_WAIT_CYCLES $end
$var parameter 32 / TIMEOUT_THRESHOLD $end
$var reg 1 0 clear_stats $end
$var reg 1 1 clk $end
$var reg 1 2 rst_n $end
$var reg 1 3 soc_req_rdy $end
$var reg 32 4 soc_resp_addr [31:0] $end
$var reg 1 5 soc_resp_cmd $end
$var reg 64 6 soc_resp_data [63:0] $end
$var reg 1 7 soc_resp_val $end
$var reg 32 8 user_addr [31:0] $end
$var reg 1 9 user_cmd $end
$var reg 1 : user_valid $end
$var reg 64 ; user_wdata [63:0] $end
$var integer 32 < cov_addr_high [31:0] $end
$var integer 32 = cov_addr_low [31:0] $end
$var integer 32 > cov_cmd_read [31:0] $end
$var integer 32 ? cov_cmd_write [31:0] $end
$var integer 32 @ cov_data_max [31:0] $end
$var integer 32 A cov_data_zero [31:0] $end
$var integer 32 B cov_fifo_full [31:0] $end
$var integer 32 C cov_proto_err [31:0] $end
$var integer 32 D cov_reset_active [31:0] $end
$var integer 32 E cov_timeout_err [31:0] $end
$var integer 32 F i [31:0] $end
$var integer 32 G wait_count [31:0] $end
$scope module u_dut $end
$var wire 1 0 clear_stats $end
$var wire 1 1 clk $end
$var wire 1 H fifo_wr_en $end
$var wire 1 I req_timeout $end
$var wire 1 J resp_timeout $end
$var wire 1 2 rst_n $end
$var wire 1 3 soc_req_rdy $end
$var wire 32 K soc_resp_addr [31:0] $end
$var wire 1 5 soc_resp_cmd $end
$var wire 64 L soc_resp_data [63:0] $end
$var wire 1 7 soc_resp_val $end
$var wire 32 M user_addr [31:0] $end
$var wire 1 9 user_cmd $end
$var wire 1 : user_valid $end
$var wire 64 N user_wdata [63:0] $end
$var wire 1 ! user_ready $end
$var wire 64 O txn_quality [63:0] $end
$var wire 64 P txn_counters [63:0] $end
$var wire 1 Q fifo_full $end
$var wire 1 R fifo_empty $end
$var wire 97 S fifo_dout [96:0] $end
$var wire 97 T fifo_din [96:0] $end
$var wire 64 U current_data [63:0] $end
$var wire 1 V current_cmd $end
$var wire 32 W current_addr [31:0] $end
$var wire 8 X conn_status [7:0] $end
$var parameter 32 Y DW $end
$var parameter 32 Z FIFO_DEPTH $end
$var parameter 34 [ FIFO_WIDTH $end
$var parameter 2 \ STATE_CHECK $end
$var parameter 2 ] STATE_IDLE $end
$var parameter 2 ^ STATE_SEND_REQ $end
$var parameter 2 _ STATE_WAIT_RESP $end
$var parameter 32 ` TIMEOUT_THRESHOLD $end
$var reg 32 a active_addr [31:0] $end
$var reg 1 b active_cmd $end
$var reg 32 c captured_resp_addr [31:0] $end
$var reg 1 d captured_resp_cmd $end
$var reg 2 e current_state [1:0] $end
$var reg 1 f fifo_rd_en $end
$var reg 1 g link_active_r $end
$var reg 16 h max_latency_r [15:0] $end
$var reg 2 i next_state [1:0] $end
$var reg 1 j protocol_error_r $end
$var reg 16 k read_txn_count_r [15:0] $end
$var reg 1 l req_timeout_flag_r $end
$var reg 1 m resp_timeout_flag_r $end
$var reg 32 n soc_req_addr [31:0] $end
$var reg 1 ) soc_req_cmd $end
$var reg 64 o soc_req_data [63:0] $end
$var reg 1 ' soc_req_val $end
$var reg 1 & soc_resp_rdy $end
$var reg 32 p status [31:0] $end
$var reg 16 q timeout_count_r [15:0] $end
$var reg 16 r total_txn_count_r [15:0] $end
$var reg 1 s txn_req_phase_timeout $end
$var reg 1 t txn_timed_out $end
$var reg 16 u txn_timer [15:0] $end
$var reg 64 v user_rdata [63:0] $end
$var reg 16 w write_txn_count_r [15:0] $end
$scope module u_fifo $end
$var wire 1 1 clk $end
$var wire 97 x din [96:0] $end
$var wire 97 y dout [96:0] $end
$var wire 1 f rd_en $end
$var wire 1 2 rst_n $end
$var wire 1 H wr_en $end
$var wire 1 Q full $end
$var wire 1 R empty $end
$var parameter 34 z DATA_WIDTH $end
$var parameter 32 { DEPTH $end
$var reg 5 | count [4:0] $end
$var reg 4 } rd_ptr [3:0] $end
$var reg 4 ~ wr_ptr [3:0] $end
$upscope $end
$upscope $end
$scope task init_signals $end
$upscope $end
$scope task print_coverage_report $end
$var reg 1 !" test_passed $end
$var integer 32 "" total_cmds [31:0] $end
$upscope $end
$scope task reset_system $end
$upscope $end
$scope task soc_respond_task $end
$var reg 32 #" captured_addr [31:0] $end
$var reg 1 $" captured_cmd $end
$var reg 1 %" corrupt_addr $end
$var reg 32 &" delay [31:0] $end
$var integer 32 '" timeout_ctr [31:0] $end
$upscope $end
$scope task user_push_cmd $end
$var reg 32 (" addr [31:0] $end
$var reg 1 )" cmd $end
$var reg 64 *" data [63:0] $end
$var integer 32 +" timeout_ctr [31:0] $end
$upscope $end
$upscope $end
$enddefinitions $end
$comment Show the parameter values. $end
$dumpall
b10000 {
b1100001 z
b10100 `
b10 _
b1 ^
b0 ]
b11 \
b1100001 [
b10000 Z
b1000000 Y
b10100 /
b1001110001000 .
b10000 -
b1010 ,
$end
#0
$dumpvars
bx +"
bx *"
x)"
bx ("
bx '"
bx &"
x%"
x$"
bx #"
bx ""
x!"
b0 ~
b0 }
b0 |
bx y
b0 x
b0 w
b0 v
b0 u
0t
0s
b0 r
b0 q
b0 p
b0 o
b0 n
0m
0l
b0 k
0j
b0 i
b0 h
0g
0f
b0 e
0d
b0 c
0b
b0 a
b10000000 X
bx W
xV
bx U
b0 T
bx S
1R
0Q
b0 P
b0 O
b0 N
b0 M
b0 L
b0 K
0J
0I
0H
bx G
bx F
b0 E
b0 D
b0 C
b0 B
b0 A
b0 @
b0 ?
b0 >
b0 =
b0 <
b0 ;
0:
09
b0 8
07
b0 6
05
b0 4
03
02
01
00
b10000000 +
b0 *
0)
b0 (
0'
0&
b0 %
b0 $
b0 #
b0 "
1!
$end
#5000
11
#10000
01
#15000
11
#20000
01
#25000
11
#30000
01
#35000
11
#40000
01
#45000
12
11
#50000
01
#55000
11
#60000
01
#65000
11
#70000
01
#75000
11
#80000
01
#85000
11
#90000
01
#95000
11
#100000
01
#105000
11
#110000
01
#115000
1H
b1000000000000000000000000000000000000000000000000000000000000000000000000 T
b1000000000000000000000000000000000000000000000000000000000000000000000000 x
b100000000 8
b100000000 M
1:
b0 +"
b0 *"
b100000000 ("
0)"
11
#120000
01
#125000
b10010000 +
b10010000 X
0V
b100000000 W
b0 U
b1 i
0H
0R
b1 |
b1 ~
b1000000000000000000000000000000000000000000000000000000000000000000000000 S
b1000000000000000000000000000000000000000000000000000000000000000000000000 y
13
0:
b0 '"
0%"
b10 &"
b1 A
b1 =
b1 >
11
#130000
01
#135000
b10 i
b10110000 +
b10110000 X
b1 e
b100000000 a
b100000000 *
b100000000 n
1f
b1 '"
11
#140000
01
#145000
b10100000 +
b10100000 X
xV
bx W
bx U
1'
0f
b10 e
b1 u
1R
b0 |
bx S
bx y
b1 }
b10 '"
11
#150000
01
#155000
b10 u
1&
0'
0$"
b100000000 #"
b11 '"
11
#160000
01
#165000
1&
b11 u
b1111101011001110111111101110110111001010111111101011101010111110 6
b1111101011001110111111101110110111001010111111101011101010111110 L
b100000000 4
b100000000 K
03
11
#170000
01
#175000
b100 u
1&
11
#180000
01
#185000
b11 i
1&
b101 u
17
b0 '"
11
#190000
01
#195000
1H
b0 i
b110 u
b11 e
b1111101011001110111111101110110111001010111111101011101010111110 "
b1111101011001110111111101110110111001010111111101011101010111110 v
b100000000 c
1&
b1010 ;
b1010 N
b10000000000000 8
b10000000000000 M
b1000000000000000000100000000000000000000000000000000000000000000000000000000000000000000000001010 T
b1000000000000000000100000000000000000000000000000000000000000000000000000000000000000000000001010 x
19
1:
07
b1010 *"
b10000000000000 ("
1)"
11
#200000
01
#205000
1V
b10000000000000 W
b1010 U
b1 i
0H
b110 h
b1 k
b10000000000000001 $
b10000000000000001 P
b1 r
b1100000000000001000 #
b1100000000000001000 O
1g
b10101010101010101010101010101010 %
b10101010101010101010101010101010 p
0&
b10010001 +
b10010001 X
b0 e
b111 u
0R
b1 |
b10 ~
b1000000000000000000100000000000000000000000000000000000000000000000000000000000000000000000001010 S
b1000000000000000000100000000000000000000000000000000000000000000000000000000000000000000000001010 y
13
0:
b1 <
b1 ?
11
#210000
01
#215000
b10 i
b0 u
b10110001 +
b10110001 X
b1 e
b10000000000000 a
1b
b1010 (
b1010 o
b10000000000000 *
b10000000000000 n
1)
1f
b1 '"
11
#220000
01
#225000
b10100001 +
b10100001 X
xV
bx W
bx U
1'
0f
b10 e
b1 u
1R
b0 |
bx S
bx y
b10 }
b10 '"
11
#230000
01
#235000
b10 u
1&
0'
1$"
b10000000000000 #"
b11 '"
11
#240000
01
#245000
1&
b11 u
b10000000000000 4
b10000000000000 K
15
03
11
#250000
01
#255000
b100 u
1&
11
#260000
01
#265000
b11 i
1&
b101 u
17
b0 '"
11
#270000
01
#275000
0V
b100000000 W
b0 U
b0 k
b0 $
b0 P
b0 r
b0 h
b0 #
b0 O
0g
b0 a
0b
b0 "
b0 v
b0 %
b0 p
b0 (
b0 o
b0 *
b0 n
0)
b10000000 +
b10000000 X
b1000000000000000000000000000000000000000000000000000000000000000000000000 S
b1000000000000000000000000000000000000000000000000000000000000000000000000 y
b0 }
b0 ~
b0 i
b0 u
b0 e
b0 c
0d
0&
02
07
11
#280000
01
#285000
11
#290000
01
#295000
11
#300000
01
#305000
11
#310000
01
#315000
11
#320000
01
#325000
12
11
#330000
01
#335000
11
#340000
01
#345000
11
#350000
01
#355000
11
#360000
01
#365000
11
#370000
01
#375000
11
#380000
01
#385000
11
#390000
01
#395000
1H
b0 ;
b0 N
b1000000000000000000110000000000000000000000000000000000000000000000000000000000000000000000000000 T
b1000000000000000000110000000000000000000000000000000000000000000000000000000000000000000000000000 x
b11000000000000 8
b11000000000000 M
1:
b0 *"
b11000000000000 ("
11
#400000
01
#405000
1V
b11000000000000 W
b10010000 +
b10010000 X
b1 i
0H
b1 ~
b1000000000000000000110000000000000000000000000000000000000000000000000000000000000000000000000000 S
b1000000000000000000110000000000000000000000000000000000000000000000000000000000000000000000000000 y
0R
b1 |
13
0:
b1 &"
b10 A
b10 <
b10 ?
11
#410000
01
#415000
b10 i
b11000000000000 a
1b
b11000000000000 *
b11000000000000 n
1)
1f
b10110000 +
b10110000 X
b1 e
b1 '"
11
#420000
01
#425000
b10000000000000 W
b1010 U
b10100000 +
b10100000 X
b1000000000000000000100000000000000000000000000000000000000000000000000000000000000000000000001010 S
b1000000000000000000100000000000000000000000000000000000000000000000000000000000000000000000001010 y
b1 }
1R
b0 |
b1 u
b10 e
1'
0f
b10 '"
11
#430000
01
#435000
1&
0'
b10 u
b11000000000000 #"
b11 '"
11
#440000
01
#445000
b11 u
1&
b11000000000000 4
b11000000000000 K
03
11
#450000
01
#455000
b11 i
1&
b100 u
17
b0 '"
11
#460000
01
#465000
1H
b0 i
b101 u
b11 e
b11000000000000 c
1d
1&
b1111111111111111111111111111111111111111111111111111111111111111 ;
b1111111111111111111111111111111111111111111111111111111111111111 N
b1000000000000000000110000000001001111111111111111111111111111111111111111111111111111111111111111 T
b1000000000000000000110000000001001111111111111111111111111111111111111111111111111111111111111111 x
b11000000000100 8
b11000000000100 M
1:
07
b1111111111111111111111111111111111111111111111111111111111111111 *"
b11000000000100 ("
11
#470000
01
#475000
b11000000000100 W
b1111111111111111111111111111111111111111111111111111111111111111 U
b1 i
0H
b101 h
b1 w
b100000000000000000000000000000001 $
b100000000000000000000000000000001 P
b1 r
b1010000000000001000 #
b1010000000000001000 O
1g
b10101010101010101010101010101010 %
b10101010101010101010101010101010 p
0&
b10010001 +
b10010001 X
b0 e
b110 u
0R
b1 |
b10 ~
b1000000000000000000110000000001001111111111111111111111111111111111111111111111111111111111111111 S
b1000000000000000000110000000001001111111111111111111111111111111111111111111111111111111111111111 y
13
0:
b1 @
b11 <
b11 ?
11
#480000
01
#485000
b10 i
b0 u
b10110001 +
b10110001 X
b1 e
b11000000000100 a
b1111111111111111111111111111111111111111111111111111111111111111 (
b1111111111111111111111111111111111111111111111111111111111111111 o
b11000000000100 *
b11000000000100 n
1f
b1 '"
11
#490000
01
#495000
b10100001 +
b10100001 X
xV
bx W
bx U
1'
0f
b10 e
b1 u
1R
b0 |
bx S
bx y
b10 }
b10 '"
11
#500000
01
#505000
b10 u
1&
0'
b11000000000100 #"
b11 '"
11
#510000
01
#515000
1&
b11 u
b11000000000100 4
b11000000000100 K
03
11
#520000
01
#525000
b11 i
b100 u
1&
17
b0 '"
11
#530000
01
#535000
1V
b11000000000000 W
b0 U
b0 ~
b1000000000000000000110000000000000000000000000000000000000000000000000000000000000000000000000000 S
b1000000000000000000110000000000000000000000000000000000000000000000000000000000000000000000000000 y
b0 }
0d
b0 a
0b
b0 %
b0 p
b0 (
b0 o
b0 *
b0 n
0)
b0 w
b0 $
b0 P
b0 r
b0 h
b10000000 +
b10000000 X
b0 #
b0 O
0g
b0 i
b0 c
0&
b0 e
b0 u
02
07
11
#540000
01
#545000
11
#550000
01
#555000
11
#560000
01
#565000
11
#570000
01
#575000
11
#580000
01
#585000
12
11
#590000
01
#595000
11
#600000
01
#605000
11
#610000
01
#615000
11
#620000
01
#625000
11
#630000
01
#635000
11
#640000
01
#645000
11
#650000
01
#655000
1H
b0 ;
b0 N
b1000000000000000000010000000000000000000000000000000000000000000000000000000000000000000000000000 T
b1000000000000000000010000000000000000000000000000000000000000000000000000000000000000000000000000 x
b1000000000000 8
b1000000000000 M
1:
b0 F
11
#660000
01
#665000
b1 i
b10010000 +
b10010000 X
b1000000000000 W
0R
b1 |
b1 ~
b1000000000000000000010000000000000000000000000000000000000000000000000000000000000000000000000000 S
b1000000000000000000010000000000000000000000000000000000000000000000000000000000000000000000000000 y
b1 ;
b1 N
b1000000000000000000010000000000010000000000000000000000000000000000000000000000000000000000000001 T
b1000000000000000000010000000000010000000000000000000000000000000000000000000000000000000000000001 x
b1000000000001 8
b1000000000001 M
b1 F
b11 A
b100 <
b100 ?
11
#670000
01
#675000
b10 ~
b10 |
b10110000 +
b10110000 X
b1 e
b1000000000000 a
1b
b1000000000000 *
b1000000000000 n
1)
1f
b10 ;
b10 N
b1000000000000000000010000000000100000000000000000000000000000000000000000000000000000000000000010 T
b1000000000000000000010000000000100000000000000000000000000000000000000000000000000000000000000010 x
b1000000000010 8
b1000000000010 M
b101 <
b101 ?
b10 F
11
#680000
01
#685000
b1000000000001 W
b1 U
1'
0f
b1 u
b1000000000000000000010000000000010000000000000000000000000000000000000000000000000000000000000001 S
b1000000000000000000010000000000010000000000000000000000000000000000000000000000000000000000000001 y
b1 }
b11 ~
b11 ;
b11 N
b1000000000000000000010000000000110000000000000000000000000000000000000000000000000000000000000011 T
b1000000000000000000010000000000110000000000000000000000000000000000000000000000000000000000000011 x
b1000000000011 8
b1000000000011 M
b11 F
b110 <
b110 ?
11
#690000
01
#695000
b100 ~
b11 |
b10 u
1'
b100 ;
b100 N
b1000000000000000000010000000001000000000000000000000000000000000000000000000000000000000000000100 T
b1000000000000000000010000000001000000000000000000000000000000000000000000000000000000000000000100 x
b1000000000100 8
b1000000000100 M
b111 <
b111 ?
b100 F
11
#700000
01
#705000
1'
b11 u
b100 |
b101 ~
b101 ;
b101 N
b1000000000000000000010000000001010000000000000000000000000000000000000000000000000000000000000101 T
b1000000000000000000010000000001010000000000000000000000000000000000000000000000000000000000000101 x
b1000000000101 8
b1000000000101 M
b101 F
b1000 <
b1000 ?
11
#710000
01
#715000
b110 ~
b101 |
b100 u
1'
b110 ;
b110 N
b1000000000000000000010000000001100000000000000000000000000000000000000000000000000000000000000110 T
b1000000000000000000010000000001100000000000000000000000000000000000000000000000000000000000000110 x
b1000000000110 8
b1000000000110 M
b1001 <
b1001 ?
b110 F
11
#720000
01
#725000
1'
b101 u
b110 |
b111 ~
b111 ;
b111 N
b1000000000000000000010000000001110000000000000000000000000000000000000000000000000000000000000111 T
b1000000000000000000010000000001110000000000000000000000000000000000000000000000000000000000000111 x
b1000000000111 8
b1000000000111 M
b111 F
b1010 <
b1010 ?
11
#730000
01
#735000
b1000 ~
b111 |
b110 u
1'
b1000 ;
b1000 N
b1000000000000000000010000000010000000000000000000000000000000000000000000000000000000000000001000 T
b1000000000000000000010000000010000000000000000000000000000000000000000000000000000000000000001000 x
b1000000001000 8
b1000000001000 M
b1011 <
b1011 ?
b1000 F
11
#740000
01
#745000
1'
b111 u
b1000 |
b1001 ~
b1001 ;
b1001 N
b1000000000000000000010000000010010000000000000000000000000000000000000000000000000000000000001001 T
b1000000000000000000010000000010010000000000000000000000000000000000000000000000000000000000001001 x
b1000000001001 8
b1000000001001 M
b1001 F
b1100 <
b1100 ?
11
#750000
01
#755000
b1010 ~
b1001 |
b1000 u
1'
b1010 ;
b1010 N
b1000000000000000000010000000010100000000000000000000000000000000000000000000000000000000000001010 T
b1000000000000000000010000000010100000000000000000000000000000000000000000000000000000000000001010 x
b1000000001010 8
b1000000001010 M
b1101 <
b1101 ?
b1010 F
11
#760000
01
#765000
1'
b1001 u
b1010 |
b1011 ~
b1011 ;
b1011 N
b1000000000000000000010000000010110000000000000000000000000000000000000000000000000000000000001011 T
b1000000000000000000010000000010110000000000000000000000000000000000000000000000000000000000001011 x
b1000000001011 8
b1000000001011 M
b1011 F
b1110 <
b1110 ?
11
#770000
01
#775000
b1100 ~
b1011 |
b1010 u
1'
b1100 ;
b1100 N
b1000000000000000000010000000011000000000000000000000000000000000000000000000000000000000000001100 T
b1000000000000000000010000000011000000000000000000000000000000000000000000000000000000000000001100 x
b1000000001100 8
b1000000001100 M
b1111 <
b1111 ?
b1100 F
11
#780000
01
#785000
1'
b1011 u
b1100 |
b1101 ~
b1101 ;
b1101 N
b1000000000000000000010000000011010000000000000000000000000000000000000000000000000000000000001101 T
b1000000000000000000010000000011010000000000000000000000000000000000000000000000000000000000001101 x
b1000000001101 8
b1000000001101 M
b1101 F
b10000 <
b10000 ?
11
#790000
01
#795000
b1110 ~
b1101 |
b1100 u
1'
b1110 ;
b1110 N
b1000000000000000000010000000011100000000000000000000000000000000000000000000000000000000000001110 T
b1000000000000000000010000000011100000000000000000000000000000000000000000000000000000000000001110 x
b1000000001110 8
b1000000001110 M
b10001 <
b10001 ?
b1110 F
11
#800000
01
#805000
1'
b1101 u
b1110 |
b1111 ~
b1111 ;
b1111 N
b1000000000000000000010000000011110000000000000000000000000000000000000000000000000000000000001111 T
b1000000000000000000010000000011110000000000000000000000000000000000000000000000000000000000001111 x
b1000000001111 8
b1000000001111 M
b1111 F
b10010 <
b10010 ?
11
#810000
01
#815000
b0 ~
b1111 |
b1110 u
1'
b10000 ;
b10000 N
b1000000000000000000010000000100000000000000000000000000000000000000000000000000000000000000010000 T
b1000000000000000000010000000100000000000000000000000000000000000000000000000000000000000000010000 x
b1000000010000 8
b1000000010000 M
b10011 <
b10011 ?
b10000 F
11
#820000
01
#825000
0H
1'
b1111 u
0!
1Q
b10000 |
b1 ~
b10001 ;
b10001 N
b1000000000000000000010000000100010000000000000000000000000000000000000000000000000000000000010001 T
b1000000000000000000010000000100010000000000000000000000000000000000000000000000000000000000010001 x
b1000000010001 8
b1000000010001 M
b10001 F
b10100 <
b10100 ?
11
#830000
01
#835000
b10 i
b10000 u
1'
13
0:
b1000000000000 #"
b1 B
b0 &"
b10010 F
11
#840000
01
#845000
b11 i
1'
b10 e
b10001 u
17
b1000000000000 4
b1000000000000 K
03
11
#850000
01
#855000
b0 i
b10010 u
b11 e
b1000000000000 c
1d
1&
0'
b1 '"
11
#860000
01
#865000
b1 i
b10010 h
b1 w
b100000000000000000000000000000001 $
b100000000000000000000000000000001 P
b1 r
b100100000000000001000 #
b100100000000000001000 O
1g
b10101010101010101010101010101010 %
b10101010101010101010101010101010 p
0&
b10010001 +
b10010001 X
b0 e
b10011 u
b10 '"
11
#870000
01
#875000
b0 i
b1000000010000 W
b10000 U
b0 w
b0 $
b0 P
b0 r
b0 h
0g
b0 c
0d
0b
b0 %
b0 p
0)
1!
0Q
1R
b0 |
b1000000000000000000010000000100000000000000000000000000000000000000000000000000000000000000010000 S
b1000000000000000000010000000100000000000000000000000000000000000000000000000000000000000000010000 y
b0 }
b0 ~
b0 u
b0 e
b0 a
b0 (
b0 o
b0 *
b0 n
0f
b10000000 +
b10000000 X
b0 #
b0 O
0j
02
07
11
#880000
01
#885000
11
#890000
01
#895000
11
#900000
01
#905000
11
#910000
01
#915000
11
#920000
01
#925000
12
11
#930000
01
#935000
11
#940000
01
#945000
11
#950000
01
#955000
11
#960000
01
#965000
11
#970000
01
#975000
11
#980000
01
#985000
11
#990000
01
#995000
1H
b1111 ;
b1111 N
b1000000000000000000000000101100000000000000000000000000000000000000000000000000000000000000001111 T
b1000000000000000000000000101100000000000000000000000000000000000000000000000000000000000000001111 x
b10110000 8
b10110000 M
1:
b1111 *"
b10110000 ("
11
#1000000
01
#1005000
b10110000 W
b1111 U
b1 i
b10010000 +
b10010000 X
0H
b1 ~
b1000000000000000000000000101100000000000000000000000000000000000000000000000000000000000000001111 S
b1000000000000000000000000101100000000000000000000000000000000000000000000000000000000000000001111 y
0R
b1 |
0:
b0 G
b10 =
b10101 ?
11
#1010000
01
#1015000
b10110000 a
1b
b1111 (
b1111 o
b10110000 *
b10110000 n
1)
1f
b10110000 +
b10110000 X
b1 e
b1 G
11
#1020000
01
#1025000
b1000000000001 W
b1 U
b10100000 +
b10100000 X
b1000000000000000000010000000000010000000000000000000000000000000000000000000000000000000000000001 S
b1000000000000000000010000000000010000000000000000000000000000000000000000000000000000000000000001 y
b1 }
1R
b0 |
b1 u
1'
0f
b10 G
11
#1030000
01
#1035000
b10110000 W
b1111 U
b0 i
b0 ~
b1000000000000000000000000101100000000000000000000000000000000000000000000000000000000000000001111 S
b1000000000000000000000000101100000000000000000000000000000000000000000000000000000000000000001111 y
b0 }
b10000000 +
b10000000 X
b0 e
b0 a
0b
b0 (
b0 o
b0 *
b0 n
0)
b1 D
0'
b0 u
02
b11 G
11
#1040000
01
#1045000
11
#1050000
01
#1055000
11
#1060000
01
#1065000
11
#1070000
01
#1075000
11
#1080000
01
#1085000
02
11
#1090000
01
#1095000
11
#1100000
01
#1105000
11
#1110000
01
#1115000
11
#1120000
01
#1125000
11
#1130000
01
#1135000
12
11
#1140000
01
#1145000
11
#1150000
01
#1155000
11
#1160000
01
#1165000
11
#1170000
01
#1175000
11
#1180000
01
#1185000
11
#1190000
01
#1195000
11
#1200000
01
#1205000
1H
b0 ;
b0 N
b11000000 8
b11000000 M
b110000000000000000000000000000000000000000000000000000000000000000000000 T
b110000000000000000000000000000000000000000000000000000000000000000000000 x
09
1:
b0 *"
b11000000 ("
0)"
11
#1210000
01
#1215000
b1 i
b10010000 +
b10010000 X
0V
b11000000 W
b0 U
0H
0R
b1 |
b1 ~
b110000000000000000000000000000000000000000000000000000000000000000000000 S
b110000000000000000000000000000000000000000000000000000000000000000000000 y
0:
b0 G
b100 A
b11 =
b10 >
11
#1220000
01
#1225000
b10110000 +
b10110000 X
b1 e
b11000000 a
b11000000 *
b11000000 n
1f
b1 G
11
#1230000
01
#1235000
b10100000 +
b10100000 X
1V
b1000000000001 W
b1 U
1'
0f
b1 u
1R
b0 |
b1000000000000000000010000000000010000000000000000000000000000000000000000000000000000000000000001 S
b1000000000000000000010000000000010000000000000000000000000000000000000000000000000000000000000001 y
b1 }
b10 G
11
#1240000
01
#1245000
b10 u
1'
b11 G
11
#1250000
01
#1255000
1'
b11 u
b100 G
11
#1260000
01
#1265000
b100 u
1'
b101 G
11
#1270000
01
#1275000
1'
b101 u
b110 G
11
#1280000
01
#1285000
b110 u
1'
b111 G
11
#1290000
01
#1295000
1'
b111 u
b1000 G
11
#1300000
01
#1305000
b1000 u
1'
b1001 G
11
#1310000
01
#1315000
1'
b1001 u
b1010 G
11
#1320000
01
#1325000
b1010 u
1'
b1011 G
11
#1330000
01
#1335000
1'
b1011 u
b1100 G
11
#1340000
01
#1345000
b1100 u
1'
b1101 G
11
#1350000
01
#1355000
1'
b1101 u
b1110 G
11
#1360000
01
#1365000
b1110 u
1'
b1111 G
11
#1370000
01
#1375000
1'
b1111 u
b10000 G
11
#1380000
01
#1385000
b10000 u
1'
b10001 G
11
#1390000
01
#1395000
1'
b10001 u
b10010 G
11
#1400000
01
#1405000
b10010 u
1'
b10011 G
11
#1410000
01
#1415000
1'
b10011 u
b10100 G
11
#1420000
01
#1425000
b11 i
1I
b10100 u
1'
b10101 G
11
#1430000
01
#1435000
b0 i
0I
1s
b11100000 +
b11100000 X
1t
0'
b11 e
b10101 u
b10110 G
11
#1440000
01
#1445000
b10110 u
b0 e
b11011110101011011101111010101101 %
b11011110101011011101111010101101 p
b11000010 +
b11000010 X
1l
b100000000000000000000000000000001 #
b100000000000000000000000000000001 O
b1 q
b10111 G
11
#1450000
01
#1455000
0V
b11000000 W
b0 U
b0 ~
b110000000000000000000000000000000000000000000000000000000000000000000000 S
b110000000000000000000000000000000000000000000000000000000000000000000000 y
b0 }
b0 a
b0 %
b0 p
b0 *
b0 n
b0 q
b0 #
b0 O
0l
0s
b10000000 +
b10000000 X
0t
b0 u
02
b11000 G
b1 E
11
#1460000
01
#1465000
11
#1470000
01
#1475000
11
#1480000
01
#1485000
11
#1490000
01
#1495000
11
#1500000
01
#1505000
12
11
#1510000
01
#1515000
11
#1520000
01
#1525000
11
#1530000
01
#1535000
11
#1540000
01
#1545000
11
#1550000
01
#1555000
11
#1560000
01
#1565000
11
#1570000
01
#1575000
17
11
#1580000
01
#1585000
b10001000 +
b10001000 X
b100 #
b100 O
1j
07
11
#1590000
01
#1595000
b1 C
11
#1600000
01
#1605000
11
#1610000
01
#1615000
11
#1620000
01
#1625000
11
#1630000
01
#1635000
11
#1640000
01
#1645000
11
#1650000
01
#1655000
11
#1660000
01
#1665000
11
#1670000
01
#1675000
11
#1680000
01
#1685000
11
#1690000
01
#1695000
11
#1700000
01
#1705000
11
#1710000
01
#1715000
11
#1720000
01
#1725000
11
#1730000
01
#1735000
11
#1740000
01
#1745000
11
#1750000
01
#1755000
11
#1760000
01
#1765000
11
#1770000
01
#1775000
11
#1780000
01
#1785000
11
#1790000
01
#1795000
1!"
b10111 ""
11
