Lab5/src/sim/soc_tb.vcd
$date
	Fri Feb 13 16:36:14 2026
$end
$version
	Icarus Verilog
$end
$timescale
	1ps
$end
$scope module soc_tb $end
$var wire 1 ! resp_val $end
$var wire 64 " resp_data [63:0] $end
$var wire 1 # resp_cmd $end
$var wire 32 $ resp_addr [31:0] $end
$var wire 1 % req_rdy $end
$var wire 64 & ila_cpu_reg_data [63:0] $end
$var parameter 32 ' ADDR_RANGE $end
$var parameter 32 ( CPU_TIMEOUT $end
$var parameter 32 ) CTRL_BASE $end
$var parameter 32 * DMEM_BASE $end
$var parameter 32 + IMEM_BASE $end
$var parameter 32 , NUM_DMEM_COE $end
$var parameter 32 - NUM_IMEM_COE $end
$var parameter 32 . NUM_RAND $end
$var reg 1 / clk $end
$var reg 3 0 ila_cpu_reg_addr [2:0] $end
$var reg 64 1 ila_expected [63:0] $end
$var reg 64 2 rd_data [63:0] $end
$var reg 32 3 req_addr [31:0] $end
$var reg 1 4 req_cmd $end
$var reg 64 5 req_data [63:0] $end
$var reg 1 6 req_val $end
$var reg 1 7 resp_rdy $end
$var reg 1 8 rst_n $end
$var reg 32 9 taddr [31:0] $end
$var reg 8 : toff [7:0] $end
$var reg 64 ; twdata [63:0] $end
$var integer 32 < cycle_cnt [31:0] $end
$var integer 32 = fail_cnt [31:0] $end
$var integer 32 > i [31:0] $end
$var integer 32 ? k [31:0] $end
$var integer 32 @ num_checked [31:0] $end
$var integer 32 A pass_cnt [31:0] $end
$var integer 32 B seed [31:0] $end
$scope module u_soc $end
$var wire 1 / clk $end
$var wire 1 C cpu_rst_n $end
$var wire 1 D ctrl_host_active $end
$var wire 1 E dmem_host_active $end
$var wire 1 F host_active $end
$var wire 3 G ila_cpu_reg_addr [2:0] $end
$var wire 1 H imem_host_active $end
$var wire 32 I req_addr [31:0] $end
$var wire 1 4 req_cmd $end
$var wire 64 J req_data [63:0] $end
$var wire 1 K req_fire $end
$var wire 1 % req_rdy $end
$var wire 1 6 req_val $end
$var wire 32 L resp_addr [31:0] $end
$var wire 1 # resp_cmd $end
$var wire 64 M resp_data [63:0] $end
$var wire 1 7 resp_rdy $end
$var wire 1 ! resp_val $end
$var wire 1 8 rst_n $end
$var wire 1 N start_pulse $end
$var wire 1 O req_is_imem $end
$var wire 1 P req_is_dmem $end
$var wire 1 Q req_is_ctrl $end
$var wire 32 R imem_dout [31:0] $end
$var wire 64 S ila_cpu_reg_data [63:0] $end
$var wire 64 T dmem_douta [63:0] $end
$var wire 9 U cpu_imem_addr [8:0] $end
$var wire 1 V cpu_done $end
$var wire 1 W cpu_dmem_wen $end
$var wire 64 X cpu_dmem_wdata [63:0] $end
$var wire 8 Y cpu_dmem_addr [7:0] $end
$var parameter 2 Z REGION_CTRL $end
$var parameter 2 [ REGION_DMEM $end
$var parameter 2 \ REGION_IMEM $end
$var parameter 2 ] REGION_RESERVED $end
$var parameter 2 ^ STATE_ACCESS $end
$var parameter 2 _ STATE_IDLE $end
$var parameter 2 ` STATE_RESP $end
$var reg 1 a cpu_active $end
$var reg 2 b current_state [1:0] $end
$var reg 8 c dmem_addr_mux [7:0] $end
$var reg 64 d dmem_din_mux [63:0] $end
$var reg 1 e dmem_we_mux $end
$var reg 9 f imem_addr_mux [8:0] $end
$var reg 32 g imem_din_mux [31:0] $end
$var reg 1 h imem_we_mux $end
$var reg 2 i next_state [1:0] $end
$var reg 32 j req_addr_reg [31:0] $end
$var reg 1 k req_cmd_reg $end
$var reg 64 l req_data_reg [63:0] $end
$var reg 2 m req_region_reg [1:0] $end
$var reg 32 n resp_addr_reg [31:0] $end
$var reg 1 o resp_cmd_reg $end
$var reg 64 p resp_data_reg [63:0] $end
$var reg 1 q resp_pending $end
$var reg 1 r resp_val_reg $end
$scope module u_cpu $end
$var wire 1 / clk $end
$var wire 64 s d_mem_data_o [63:0] $end
$var wire 1 W d_mem_wen_o $end
$var wire 9 t i_mem_addr_o [8:0] $end
$var wire 3 u ila_cpu_reg_addr [2:0] $end
$var wire 32 v instr_if [31:0] $end
$var wire 1 w pc_en $end
$var wire 3 x reg_write_addr [2:0] $end
$var wire 64 y reg_write_data [63:0] $end
$var wire 1 z reg_write_en $end
$var wire 1 C rst_n $end
$var wire 1 { reg_write_wb $end
$var wire 1 | reg_write_mem $end
$var wire 1 } reg_write_id $end
$var wire 1 ~ reg_write_ex $end
$var wire 3 !" rdaddr_wb [2:0] $end
$var wire 3 "" rdaddr_mem [2:0] $end
$var wire 3 #" rdaddr_id [2:0] $end
$var wire 3 $" rdaddr_ex [2:0] $end
$var wire 3 %" r1addr_id [2:0] $end
$var wire 64 &" r1_out_mem [63:0] $end
$var wire 64 '" r1_out_id [63:0] $end
$var wire 64 (" r1_out_ex [63:0] $end
$var wire 3 )" r0addr_id [2:0] $end
$var wire 64 *" r0_out_mem [63:0] $end
$var wire 64 +" r0_out_id [63:0] $end
$var wire 64 ," r0_out_ex [63:0] $end
$var wire 9 -" pc_if [8:0] $end
$var wire 1 ." mem_write_mem $end
$var wire 1 /" mem_write_id $end
$var wire 1 0" mem_write_ex $end
$var wire 32 1" instr_id [31:0] $end
$var wire 64 2" ila_cpu_reg_data [63:0] $end
$var wire 32 3" i_mem_data_i [31:0] $end
$var wire 64 4" d_mem_data_i [63:0] $end
$var wire 8 5" d_mem_addr_o [7:0] $end
$var wire 1 V cpu_done $end
$scope module ex_mem_reg $end
$var wire 133 6" D [132:0] $end
$var wire 1 / clk $end
$var wire 1 7" en $end
$var wire 1 C rst_n $end
$var parameter 36 8" NUM_REG $end
$var reg 133 9" Q [132:0] $end
$upscope $end
$scope module id_ex_reg $end
$var wire 133 :" D [132:0] $end
$var wire 1 / clk $end
$var wire 1 ;" en $end
$var wire 1 C rst_n $end
$var parameter 36 <" NUM_REG $end
$var reg 133 =" Q [132:0] $end
$upscope $end
$scope module if_id_reg $end
$var wire 32 >" D [31:0] $end
$var wire 1 / clk $end
$var wire 1 ?" en $end
$var wire 1 C rst_n $end
$var parameter 32 @" NUM_REG $end
$var reg 32 A" Q [31:0] $end
$upscope $end
$scope module mem_wb_reg $end
$var wire 4 B" D [3:0] $end
$var wire 1 / clk $end
$var wire 1 C" en $end
$var wire 1 C rst_n $end
$var parameter 33 D" NUM_REG $end
$var reg 4 E" Q [3:0] $end
$upscope $end
$scope module u_pc $end
$var wire 1 / clk $end
$var wire 1 w en $end
$var wire 1 C rst_n $end
$var reg 9 F" pc_out [8:0] $end
$upscope $end
$scope module u_regfile $end
$var wire 1 / clk $end
$var wire 3 G" ila_cpu_reg_addr [2:0] $end
$var wire 3 H" r0addr [2:0] $end
$var wire 3 I" r1addr [2:0] $end
$var wire 3 J" waddr [2:0] $end
$var wire 64 K" wdata [63:0] $end
$var wire 1 z wena $end
$var reg 64 L" ila_cpu_reg_data [63:0] $end
$var reg 64 M" r0data [63:0] $end
$var reg 64 N" r1data [63:0] $end
$upscope $end
$upscope $end
$scope module u_d_mem $end
$var wire 8 O" addra [7:0] $end
$var wire 8 P" addrb [7:0] $end
$var wire 1 / clka $end
$var wire 1 / clkb $end
$var wire 64 Q" dina [63:0] $end
$var wire 64 R" dinb [63:0] $end
$var wire 1 e wea $end
$var wire 1 S" web $end
$var reg 64 T" douta [63:0] $end
$var reg 64 U" doutb [63:0] $end
$upscope $end
$scope module u_i_mem $end
$var wire 9 V" addr [8:0] $end
$var wire 1 / clk $end
$var wire 32 W" din [31:0] $end
$var wire 1 h we $end
$var reg 32 X" dout [31:0] $end
$upscope $end
$upscope $end
$scope task check $end
$var reg 64 Y" actual [63:0] $end
$var reg 32 Z" addr [31:0] $end
$var reg 64 [" expected [63:0] $end
$var reg 256 \" tag [255:0] $end
$upscope $end
$scope task do_reset $end
$upscope $end
$scope task mmio_rd $end
$var reg 32 ]" addr [31:0] $end
$var reg 64 ^" rdata [63:0] $end
$var reg 64 _" tmp [63:0] $end
$upscope $end
$scope task mmio_txn $end
$var reg 32 `" addr [31:0] $end
$var reg 1 a" cmd $end
$var reg 64 b" rdata [63:0] $end
$var reg 64 c" wdata [63:0] $end
$upscope $end
$scope task mmio_wr $end
$var reg 32 d" addr [31:0] $end
$var reg 64 e" dummy [63:0] $end
$var reg 64 f" wdata [63:0] $end
$upscope $end
$upscope $end
$enddefinitions $end
$comment Show the parameter values. $end
$dumpall
b100 D"
b100000 @"
b10000101 <"
b10000101 8"
b10 `
b0 _
b1 ^
b11 ]
b0 \
b10 [
b1 Z
b1000000 .
b1000 -
b1010 ,
b0 +
b10000000000000000000000000000000 *
b1000000000000000000000000000000 )
b1111101000 (
b100000000 '
$end
#0
$dumpvars
bx f"
bx e"
bx d"
bx c"
bx b"
xa"
bx `"
bx _"
bx ^"
bx ]"
bx \"
bx ["
bx Z"
bx Y"
bx X"
b0 W"
b0 V"
bx U"
bx T"
0S"
b0 R"
b0 Q"
b0 P"
b0 O"
bx N"
bx M"
bx L"
bx K"
b0 J"
b0 I"
b0 H"
b0 G"
b0 F"
b0 E"
1C"
b0 B"
b0 A"
1?"
bx >"
b0 ="
1;"
b0xxxxxxxxxxxxxxxxxxxxxxxxxxxxxxxxxxxxxxxxxxxxxxxxxxxxxxxxxxxxxxxxxxxxxxxxxxxxxxxxxxxxxxxxxxxxxxxxxxxxxxxxxxxxxxxxxxxxxxxxxxxxxxxx000 :"
b0 9"
17"
b0 6"
b0 5"
bx 4"
bx 3"
bx 2"
b0 1"
00"
0/"
0."
b0 -"
b0 ,"
bx +"
b0 *"
b0 )"
b0 ("
bx '"
b0 &"
b0 %"
b0 $"
b0 #"
b0 ""
b0 !"
0~
0}
0|
0{
0z
bx y
b0 x
1w
bx v
b0 u
b0 t
b0 s
0r
0q
b0 p
0o
b0 n
b0 m
b0 l
0k
b0 j
b0 i
0h
b0 g
b0 f
0e
b0 d
b0 c
b0 b
0a
b0 Y
b0 X
0W
0V
b0 U
bx T
bx S
bx R
0Q
0P
1O
0N
b0 M
b0 L
0K
b0 J
b0 I
0H
b0 G
0F
0E
0D
0C
b101010 B
b0 A
bx @
bx ?
b100000000 >
b0 =
bx <
bx ;
bx :
bx 9
08
07
06
b0 5
04
b0 3
bx 2
bx 1
b0 0
0/
bx &
1%
b0 $
0#
b0 "
0!
$end
#1000
b0 &
b0 S
b0 2"
b0 L"
b0 '"
b0 N"
b0 :"
b0 +"
b0 M"
b100000 ?
#5000
1/
#10000
0/
#15000
1/
#20000
0/
#25000
1/
#30000
0/
#35000
1/
#40000
0/
#45000
1/
#50000
0/
#55000
1/
#60000
0/
#65000
1/
#70000
0/
#75000
1/
#80000
0/
#85000
1/
#90000
0/
#95000
1/
#96000
18
#100000
0/
#105000
1/
#110000
0/
#115000
1/
#120000
0/
#125000
1/
#130000
0/
#135000
1/
#140000
0/
#145000
b1000000010000000000000000000000 c"
b0 `"
1a"
b1000000010000000000000000000000 f"
b0 d"
b0 >
1/
#150000
0/
#155000
1/
#156000
b1 i
1K
17
16
b1000000010000000000000000000000 5
b1000000010000000000000000000000 J
14
#160000
0/
#165000
1h
b1000000010000000000000000000000 g
b1000000010000000000000000000000 W"
0K
1H
b10 i
0%
1F
1q
b1000000010000000000000000000000 l
1k
b1 b
1/
#166000
06
#170000
0/
#175000
0h
b10 b
1/
#180000
0/
#185000
b0 i
b0xxxxxxxxxxxxxxxxxxxxxxxxxxxxxxxx "
b0xxxxxxxxxxxxxxxxxxxxxxxxxxxxxxxx M
b0xxxxxxxxxxxxxxxxxxxxxxxxxxxxxxxx p
1#
1o
1!
1r
b1000000010000000000000000000000 v
b1000000010000000000000000000000 >"
b1000000010000000000000000000000 R
b1000000010000000000000000000000 3"
b1000000010000000000000000000000 X"
1/
#186000
b0xxxxxxxxxxxxxxxxxxxxxxxxxxxxxxxx b"
#190000
0/
#195000
b0 g
b0 W"
0H
1%
0F
0q
0!
0r
b0 b
1/
#196000
b1000000011000000000000000000000 c"
b1 `"
b1000000011000000000000000000000 f"
b1 d"
b1 >
b0xxxxxxxxxxxxxxxxxxxxxxxxxxxxxxxx e"
07
#200000
0/
#205000
1/
#206000
b1 i
1K
17
16
b1000000011000000000000000000000 5
b1000000011000000000000000000000 J
b1 3
b1 I
#210000
0/
#215000
1h
b1000000011000000000000000000000 g
b1000000011000000000000000000000 W"
b1 f
b1 V"
0K
1H
b10 i
0%
1F
1q
b1000000011000000000000000000000 l
b1 j
b1 b
1/
#216000
06
#220000
0/
#225000
0h
b10 b
bx v
bx >"
bx R
bx 3"
bx X"
1/
#230000
0/
#235000
b0 i
b1 $
b1 L
b1 n
1!
1r
b1000000011000000000000000000000 v
b1000000011000000000000000000000 >"
b1000000011000000000000000000000 R
b1000000011000000000000000000000 3"
b1000000011000000000000000000000 X"
1/
#240000
0/
#245000
b0 g
b0 W"
b0 f
b0 V"
0H
1%
0F
0q
0!
0r
b0 b
1/
#246000
b0 c"
b10 `"
b0 f"
b10 d"
b10 >
07
#250000
0/
#255000
b1000000010000000000000000000000 v
b1000000010000000000000000000000 >"
b1000000010000000000000000000000 R
b1000000010000000000000000000000 3"
b1000000010000000000000000000000 X"
1/
#256000
b1 i
1K
17
16
b0 5
b0 J
b10 3
b10 I
#260000
0/
#265000
1h
b10 f
b10 V"
0K
1H
b10 i
0%
1F
1q
b0 l
b10 j
b1 b
1/
#266000
06
#270000
0/
#275000
0h
b10 b
bx v
bx >"
bx R
bx 3"
bx X"
1/
#280000
0/
#285000
b0 i
b10 $
b10 L
b10 n
1!
1r
b0 v
b0 >"
b0 R
b0 3"
b0 X"
1/
#290000
0/
#295000
b0 f
b0 V"
0H
1%
0F
0q
0!
0r
b0 b
1/
#296000
b11 `"
b11 d"
b11 >
07
#300000
0/
#305000
b1000000010000000000000000000000 v
b1000000010000000000000000000000 >"
b1000000010000000000000000000000 R
b1000000010000000000000000000000 3"
b1000000010000000000000000000000 X"
1/
#306000
b1 i
1K
17
16
b11 3
b11 I
#310000
0/
#315000
1h
b11 f
b11 V"
0K
1H
b10 i
0%
1F
1q
b11 j
b1 b
1/
#316000
06
#320000
0/
#325000
0h
b10 b
bx v
bx >"
bx R
bx 3"
bx X"
1/
#330000
0/
#335000
b0 i
b11 $
b11 L
b11 n
1!
1r
b0 v
b0 >"
b0 R
b0 3"
b0 X"
1/
#340000
0/
#345000
b0 f
b0 V"
0H
1%
0F
0q
0!
0r
b0 b
1/
#346000
b100 `"
b100 d"
b100 >
07
#350000
0/
#355000
b1000000010000000000000000000000 v
b1000000010000000000000000000000 >"
b1000000010000000000000000000000 R
b1000000010000000000000000000000 3"
b1000000010000000000000000000000 X"
1/
#356000
b1 i
1K
17
16
b100 3
b100 I
#360000
0/
#365000
1h
b100 f
b100 V"
0K
1H
b10 i
0%
1F
1q
b100 j
b1 b
1/
#366000
06
#370000
0/
#375000
0h
b10 b
bx v
bx >"
bx R
bx 3"
bx X"
1/
#380000
0/
#385000
b0 i
b100 $
b100 L
b100 n
1!
1r
b0 v
b0 >"
b0 R
b0 3"
b0 X"
1/
#390000
0/
#395000
b0 f
b0 V"
0H
1%
0F
0q
0!
0r
b0 b
1/
#396000
b10010011000000000000000000000000 c"
b101 `"
b10010011000000000000000000000000 f"
b101 d"
b101 >
07
#400000
0/
#405000
b1000000010000000000000000000000 v
b1000000010000000000000000000000 >"
b1000000010000000000000000000000 R
b1000000010000000000000000000000 3"
b1000000010000000000000000000000 X"
1/
#406000
b1 i
1K
17
16
b10010011000000000000000000000000 5
b10010011000000000000000000000000 J
b101 3
b101 I
#410000
0/
#415000
1h
b10010011000000000000000000000000 g
b10010011000000000000000000000000 W"
b101 f
b101 V"
0K
1H
b10 i
0%
1F
1q
b10010011000000000000000000000000 l
b101 j
b1 b
1/
#416000
06
#420000
0/
#425000
0h
b10 b
bx v
bx >"
bx R
bx 3"
bx X"
1/
#430000
0/
#435000
b0 i
b101 $
b101 L
b101 n
1!
1r
b10010011000000000000000000000000 v
b10010011000000000000000000000000 >"
b10010011000000000000000000000000 R
b10010011000000000000000000000000 3"
b10010011000000000000000000000000 X"
1/
#440000
0/
#445000
b0 g
b0 W"
b0 f
b0 V"
0H
1%
0F
0q
0!
0r
b0 b
1/
#446000
b0 c"
b110 `"
b0 f"
b110 d"
b110 >
07
#450000
0/
#455000
b1000000010000000000000000000000 v
b1000000010000000000000000000000 >"
b1000000010000000000000000000000 R
b1000000010000000000000000000000 3"
b1000000010000000000000000000000 X"
1/
#456000
b1 i
1K
17
16
b0 5
b0 J
b110 3
b110 I
#460000
0/
#465000
1h
b110 f
b110 V"
0K
1H
b10 i
0%
1F
1q
b0 l
b110 j
b1 b
1/
#466000
06
#470000
0/
#475000
0h
b10 b
bx v
bx >"
bx R
bx 3"
bx X"
1/
#480000
0/
#485000
b0 i
b110 $
b110 L
b110 n
1!
1r
b0 v
b0 >"
b0 R
b0 3"
b0 X"
1/
#490000
0/
#495000
b0 f
b0 V"
0H
1%
0F
0q
0!
0r
b0 b
1/
#496000
b111 `"
b111 d"
b111 >
07
#500000
0/
#505000
b1000000010000000000000000000000 v
b1000000010000000000000000000000 >"
b1000000010000000000000000000000 R
b1000000010000000000000000000000 3"
b1000000010000000000000000000000 X"
1/
#506000
b1 i
1K
17
16
b111 3
b111 I
#510000
0/
#515000
1h
b111 f
b111 V"
0K
1H
b10 i
0%
1F
1q
b111 j
b1 b
1/
#516000
06
#520000
0/
#525000
0h
b10 b
bx v
bx >"
bx R
bx 3"
bx X"
1/
#530000
0/
#535000
b0 i
b111 $
b111 L
b111 n
1!
1r
b0 v
b0 >"
b0 R
b0 3"
b0 X"
1/
#540000
0/
#545000
b0 f
b0 V"
0H
1%
0F
0q
0!
0r
b0 b
1/
#546000
b100 c"
b10000000000000000000000000000000 `"
b100 f"
b10000000000000000000000000000000 d"
b0 >
07
#550000
0/
#555000
b1000000010000000000000000000000 v
b1000000010000000000000000000000 >"
b1000000010000000000000000000000 R
b1000000010000000000000000000000 3"
b1000000010000000000000000000000 X"
1/
#556000
b1 i
1K
17
16
b100 5
b100 J
b10000000000000000000000000000000 3
b10000000000000000000000000000000 I
#560000
0/
#565000
1e
b100 d
b100 Q"
0K
1E
b10 i
0%
1F
1q
0O
1P
b10 m
b100 l
b10000000000000000000000000000000 j
b1 b
1/
#566000
06
#570000
0/
#575000
0e
b10 b
1/
#580000
0/
#585000
b0 i
bx "
bx M
bx p
b10000000000000000000000000000000 $
b10000000000000000000000000000000 L
b10000000000000000000000000000000 n
1!
1r
b100 y
b100 K"
b100 T
b100 4"
b100 T"
b100 U"
1/
#586000
bx b"
#590000
0/
#595000
b0 d
b0 Q"
0E
1%
0F
0q
0!
0r
b0 b
1/
#596000
b0 c"
b10000000000000000000000000000001 `"
b0 f"
b10000000000000000000000000000001 d"
b1 >
bx e"
07
#600000
0/
#605000
1/
#606000
b1 i
1K
17
16
b0 5
b0 J
b10000000000000000000000000000001 3
b10000000000000000000000000000001 I
#610000
0/
#615000
1e
b1 c
b1 O"
0K
1E
b10 i
0%
1F
1q
b0 l
b10000000000000000000000000000001 j
b1 b
1/
#616000
06
#620000
0/
#625000
0e
b10 b
bx y
bx K"
bx T
bx 4"
bx T"
1/
#630000
0/
#635000
b0 i
b10000000000000000000000000000001 $
b10000000000000000000000000000001 L
b10000000000000000000000000000001 n
1!
1r
b0 y
b0 K"
b0 T
b0 4"
b0 T"
1/
#640000
0/
#645000
b0 c
b0 O"
0E
1%
0F
0q
0!
0r
b0 b
1/
#646000
b10000000000000000000000000000010 `"
b10000000000000000000000000000010 d"
b10 >
07
#650000
0/
#655000
b100 y
b100 K"
b100 T
b100 4"
b100 T"
1/
#656000
b1 i
1K
17
16
b10000000000000000000000000000010 3
b10000000000000000000000000000010 I
#660000
0/
#665000
1e
b10 c
b10 O"
0K
1E
b10 i
0%
1F
1q
b10000000000000000000000000000010 j
b1 b
1/
#666000
06
#670000
0/
#675000
0e
b10 b
bx y
bx K"
bx T
bx 4"
bx T"
1/
#680000
0/
#685000
b0 i
b10000000000000000000000000000010 $
b10000000000000000000000000000010 L
b10000000000000000000000000000010 n
1!
1r
b0 y
b0 K"
b0 T
b0 4"
b0 T"
1/
#690000
0/
#695000
b0 c
b0 O"
0E
1%
0F
0q
0!
0r
b0 b
1/
#696000
b10000000000000000000000000000011 `"
b10000000000000000000000000000011 d"
b11 >
07
#700000
0/
#705000
b100 y
b100 K"
b100 T
b100 4"
b100 T"
1/
#706000
b1 i
1K
17
16
b10000000000000000000000000000011 3
b10000000000000000000000000000011 I
#710000
0/
#715000
1e
b11 c
b11 O"
0K
1E
b10 i
0%
1F
1q
b10000000000000000000000000000011 j
b1 b
1/
#716000
06
#720000
0/
#725000
0e
b10 b
bx y
bx K"
bx T
bx 4"
bx T"
1/
#730000
0/
#735000
b0 i
b10000000000000000000000000000011 $
b10000000000000000000000000000011 L
b10000000000000000000000000000011 n
1!
1r
b0 y
b0 K"
b0 T
b0 4"
b0 T"
1/
#740000
0/
#745000
b0 c
b0 O"
0E
1%
0F
0q
0!
0r
b0 b
1/
#746000
b1100100 c"
b10000000000000000000000000000100 `"
b1100100 f"
b10000000000000000000000000000100 d"
b100 >
07
#750000
0/
#755000
b100 y
b100 K"
b100 T
b100 4"
b100 T"
1/
#756000
b1 i
1K
17
16
b1100100 5
b1100100 J
b10000000000000000000000000000100 3
b10000000000000000000000000000100 I
#760000
0/
#765000
1e
b1100100 d
b1100100 Q"
b100 c
b100 O"
0K
1E
b10 i
0%
1F
1q
b1100100 l
b10000000000000000000000000000100 j
b1 b
1/
#766000
06
#770000
0/
#775000
0e
b10 b
bx y
bx K"
bx T
bx 4"
bx T"
1/
#780000
0/
#785000
b0 i
b10000000000000000000000000000100 $
b10000000000000000000000000000100 L
b10000000000000000000000000000100 n
1!
1r
b1100100 y
b1100100 K"
b1100100 T
b1100100 4"
b1100100 T"
1/
#790000
0/
#795000
b0 d
b0 Q"
b0 c
b0 O"
0E
1%
0F
0q
0!
0r
b0 b
1/
#796000
b0 c"
b10000000000000000000000000000101 `"
b0 f"
b10000000000000000000000000000101 d"
b101 >
07
#800000
0/
#805000
b100 y
b100 K"
b100 T
b100 4"
b100 T"
1/
#806000
b1 i
1K
17
16
b0 5
b0 J
b10000000000000000000000000000101 3
b10000000000000000000000000000101 I
#810000
0/
#815000
1e
b101 c
b101 O"
0K
1E
b10 i
0%
1F
1q
b0 l
b10000000000000000000000000000101 j
b1 b
1/
#816000
06
#820000
0/
#825000
0e
b10 b
bx y
bx K"
bx T
bx 4"
bx T"
1/
#830000
0/
#835000
b0 i
b10000000000000000000000000000101 $
b10000000000000000000000000000101 L
b10000000000000000000000000000101 n
1!
1r
b0 y
b0 K"
b0 T
b0 4"
b0 T"
1/
#840000
0/
#845000
b0 c
b0 O"
0E
1%
0F
0q
0!
0r
b0 b
1/
#846000
b10000000000000000000000000000110 `"
b10000000000000000000000000000110 d"
b110 >
07
#850000
0/
#855000
b100 y
b100 K"
b100 T
b100 4"
b100 T"
1/
#856000
b1 i
1K
17
16
b10000000000000000000000000000110 3
b10000000000000000000000000000110 I
#860000
0/
#865000
1e
b110 c
b110 O"
0K
1E
b10 i
0%
1F
1q
b10000000000000000000000000000110 j
b1 b
1/
#866000
06
#870000
0/
#875000
0e
b10 b
bx y
bx K"
bx T
bx 4"
bx T"
1/
#880000
0/
#885000
b0 i
b10000000000000000000000000000110 $
b10000000000000000000000000000110 L
b10000000000000000000000000000110 n
1!
1r
b0 y
b0 K"
b0 T
b0 4"
b0 T"
1/
#890000
0/
#895000
b0 c
b0 O"
0E
1%
0F
0q
0!
0r
b0 b
1/
#896000
b10000000000000000000000000000111 `"
b10000000000000000000000000000111 d"
b111 >
07
#900000
0/
#905000
b100 y
b100 K"
b100 T
b100 4"
b100 T"
1/
#906000
b1 i
1K
17
16
b10000000000000000000000000000111 3
b10000000000000000000000000000111 I
#910000
0/
#915000
1e
b111 c
b111 O"
0K
1E
b10 i
0%
1F
1q
b10000000000000000000000000000111 j
b1 b
1/
#916000
06
#920000
0/
#925000
0e
b10 b
bx y
bx K"
bx T
bx 4"
bx T"
1/
#930000
0/
#935000
b0 i
b10000000000000000000000000000111 $
b10000000000000000000000000000111 L
b10000000000000000000000000000111 n
1!
1r
b0 y
b0 K"
b0 T
b0 4"
b0 T"
1/
#940000
0/
#945000
b0 c
b0 O"
0E
1%
0F
0q
0!
0r
b0 b
1/
#946000
b10000000000000000000000000001000 `"
b10000000000000000000000000001000 d"
b1000 >
07
#950000
0/
#955000
b100 y
b100 K"
b100 T
b100 4"
b100 T"
1/
#956000
b1 i
1K
17
16
b10000000000000000000000000001000 3
b10000000000000000000000000001000 I
#960000
0/
#965000
1e
b1000 c
b1000 O"
0K
1E
b10 i
0%
1F
1q
b10000000000000000000000000001000 j
b1 b
1/
#966000
06
#970000
0/
#975000
0e
b10 b
bx y
bx K"
bx T
bx 4"
bx T"
1/
#980000
0/
#985000
b0 i
b10000000000000000000000000001000 $
b10000000000000000000000000001000 L
b10000000000000000000000000001000 n
1!
1r
b0 y
b0 K"
b0 T
b0 4"
b0 T"
1/
#990000
0/
#995000
b0 c
b0 O"
0E
1%
0F
0q
0!
0r
b0 b
1/
#996000
b10000000000000000000000000001001 `"
b10000000000000000000000000001001 d"
b1001 >
07
#1000000
0/
#1005000
b100 y
b100 K"
b100 T
b100 4"
b100 T"
1/
#1006000
b1 i
1K
17
16
b10000000000000000000000000001001 3
b10000000000000000000000000001001 I
#1010000
0/
#1015000
1e
b1001 c
b1001 O"
0K
1E
b10 i
0%
1F
1q
b10000000000000000000000000001001 j
b1 b
1/
#1016000
06
#1020000
0/
#1025000
0e
b10 b
bx y
bx K"
bx T
bx 4"
bx T"
1/
#1030000
0/
#1035000
b0 i
b10000000000000000000000000001001 $
b10000000000000000000000000001001 L
b10000000000000000000000000001001 n
1!
1r
b0 y
b0 K"
b0 T
b0 4"
b0 T"
1/
#1040000
0/
#1045000
b0 c
b0 O"
0E
1%
0F
0q
0!
0r
b0 b
1/
#1046000
b0 `"
0a"
b0 ]"
b0 9
b0 >
07
#1050000
0/
#1055000
b100 y
b100 K"
b100 T
b100 4"
b100 T"
1/
#1056000
b1 i
1K
17
16
b0 3
b0 I
04
#1060000
0/
#1065000
0K
1H
b10 i
0%
1F
1q
1O
0P
b0 m
b0 j
0k
b1 b
1/
#1066000
06
#1070000
0/
#1075000
b10 b
1/
#1080000
0/
#1085000
b0 i
b1000000010000000000000000000000 "
b1000000010000000000000000000000 M
b1000000010000000000000000000000 p
b0 $
b0 L
b0 n
0#
0o
1!
1r
1/
#1086000
b1000000010000000000000000000000 b"
#1090000
0/
#1095000
0H
1%
0F
0q
0!
0r
b0 b
1/
#1096000
b1 `"
b1 ]"
b1 9
b1 >
b1 A
b100001101001111010001010101111101001001010011010100010101001101 \"
b0 Z"
b1000000010000000000000000000000 Y"
b1000000010000000000000000000000 ["
b1000000010000000000000000000000 2
b1000000010000000000000000000000 ^"
b1000000010000000000000000000000 _"
07
#1100000
0/
#1105000
1/
#1106000
b1 i
1K
17
16
b1 3
b1 I
#1110000
0/
#1115000
b1 f
b1 V"
0K
1H
b10 i
0%
1F
1q
b1 j
b1 b
1/
#1116000
06
#1120000
0/
#1125000
b10 b
b1000000011000000000000000000000 v
b1000000011000000000000000000000 >"
b1000000011000000000000000000000 R
b1000000011000000000000000000000 3"
b1000000011000000000000000000000 X"
1/
#1130000
0/
#1135000
b0 i
b1000000011000000000000000000000 "
b1000000011000000000000000000000 M
b1000000011000000000000000000000 p
b1 $
b1 L
b1 n
1!
1r
1/
#1136000
b1000000011000000000000000000000 b"
#1140000
0/
#1145000
b0 f
b0 V"
0H
1%
0F
0q
0!
0r
b0 b
1/
#1146000
b10 `"
b10 ]"
b10 9
b10 >
b10 A
b1 Z"
b1000000011000000000000000000000 Y"
b1000000011000000000000000000000 ["
b1000000011000000000000000000000 2
b1000000011000000000000000000000 ^"
b1000000011000000000000000000000 _"
07
#1150000
0/
#1155000
b1000000010000000000000000000000 v
b1000000010000000000000000000000 >"
b1000000010000000000000000000000 R
b1000000010000000000000000000000 3"
b1000000010000000000000000000000 X"
1/
#1156000
b1 i
1K
17
16
b10 3
b10 I
#1160000
0/
#1165000
b10 f
b10 V"
0K
1H
b10 i
0%
1F
1q
b10 j
b1 b
1/
#1166000
06
#1170000
0/
#1175000
b10 b
b0 v
b0 >"
b0 R
b0 3"
b0 X"
1/
#1180000
0/
#1185000
b0 i
b0 "
b0 M
b0 p
b10 $
b10 L
b10 n
1!
1r
1/
#1186000
b0 b"
#1190000
0/
#1195000
b0 f
b0 V"
0H
1%
0F
0q
0!
0r
b0 b
1/
#1196000
b11 `"
b11 ]"
b11 9
b11 >
b11 A
b10 Z"
b0 Y"
b0 ["
b0 2
b0 ^"
b0 _"
07
#1200000
0/
#1205000
b1000000010000000000000000000000 v
b1000000010000000000000000000000 >"
b1000000010000000000000000000000 R
b1000000010000000000000000000000 3"
b1000000010000000000000000000000 X"
1/
#1206000
b1 i
1K
17
16
b11 3
b11 I
#1210000
0/
#1215000
b11 f
b11 V"
0K
1H
b10 i
0%
1F
1q
b11 j
b1 b
1/
#1216000
06
#1220000
0/
#1225000
b10 b
b0 v
b0 >"
b0 R
b0 3"
b0 X"
1/
#1230000
0/
#1235000
b0 i
b11 $
b11 L
b11 n
1!
1r
1/
#1240000
0/
#1245000
b0 f
b0 V"
0H
1%
0F
0q
0!
0r
b0 b
1/
#1246000
b100 `"
b100 ]"
b100 9
b100 >
b100 A
b11 Z"
07
#1250000
0/
#1255000
b1000000010000000000000000000000 v
b1000000010000000000000000000000 >"
b1000000010000000000000000000000 R
b1000000010000000000000000000000 3"
b1000000010000000000000000000000 X"
1/
#1256000
b1 i
1K
17
16
b100 3
b100 I
#1260000
0/
