Lab5/src/sim/soc_tb.vcd
$date
	Fri Feb 13 15:49:35 2026
$end
$version
	Icarus Verilog
$end
$timescale
	1ps
$end
$scope module soc_tb $end
$var wire 1 ! resp_val $end
$var wire 64 " resp_data [63:0] $end
$var wire 1 # resp_cmd $end
$var wire 32 $ resp_addr [31:0] $end
$var wire 1 % req_rdy $end
$var parameter 32 & ADDR_RANGE $end
$var parameter 32 ' CPU_TIMEOUT $end
$var parameter 32 ( CTRL_BASE $end
$var parameter 32 ) DMEM_BASE $end
$var parameter 32 * IMEM_BASE $end
$var parameter 32 + NUM_DMEM_COE $end
$var parameter 32 , NUM_IMEM_COE $end
$var parameter 32 - NUM_RAND $end
$var reg 1 . clk $end
$var reg 64 / rd_data [63:0] $end
$var reg 32 0 req_addr [31:0] $end
$var reg 1 1 req_cmd $end
$var reg 64 2 req_data [63:0] $end
$var reg 1 3 req_val $end
$var reg 1 4 resp_rdy $end
$var reg 1 5 rst_n $end
$var reg 32 6 taddr [31:0] $end
$var reg 8 7 toff [7:0] $end
$var reg 64 8 twdata [63:0] $end
$var integer 32 9 cycle_cnt [31:0] $end
$var integer 32 : fail_cnt [31:0] $end
$var integer 32 ; i [31:0] $end
$var integer 32 < k [31:0] $end
$var integer 32 = num_checked [31:0] $end
$var integer 32 > pass_cnt [31:0] $end
$var integer 32 ? seed [31:0] $end
$scope module u_soc $end
$var wire 1 . clk $end
$var wire 1 @ cpu_rst_n $end
$var wire 1 A ctrl_host_active $end
$var wire 1 B dmem_host_active $end
$var wire 1 C host_active $end
$var wire 1 D imem_host_active $end
$var wire 32 E req_addr [31:0] $end
$var wire 1 1 req_cmd $end
$var wire 64 F req_data [63:0] $end
$var wire 1 G req_fire $end
$var wire 1 % req_rdy $end
$var wire 1 3 req_val $end
$var wire 32 H resp_addr [31:0] $end
$var wire 1 # resp_cmd $end
$var wire 64 I resp_data [63:0] $end
$var wire 1 4 resp_rdy $end
$var wire 1 ! resp_val $end
$var wire 1 5 rst_n $end
$var wire 1 J start_pulse $end
$var wire 1 K req_is_imem $end
$var wire 1 L req_is_dmem $end
$var wire 1 M req_is_ctrl $end
$var wire 32 N imem_dout [31:0] $end
$var wire 64 O dmem_douta [63:0] $end
$var wire 9 P cpu_imem_addr [8:0] $end
$var wire 1 Q cpu_done $end
$var wire 1 R cpu_dmem_wen $end
$var wire 64 S cpu_dmem_wdata [63:0] $end
$var wire 8 T cpu_dmem_addr [7:0] $end
$var parameter 2 U REGION_CTRL $end
$var parameter 2 V REGION_DMEM $end
$var parameter 2 W REGION_IMEM $end
$var parameter 2 X REGION_RESERVED $end
$var parameter 2 Y STATE_ACCESS $end
$var parameter 2 Z STATE_IDLE $end
$var parameter 2 [ STATE_RESP $end
$var reg 1 \ cpu_active $end
$var reg 2 ] current_state [1:0] $end
$var reg 8 ^ dmem_addr_mux [7:0] $end
$var reg 64 _ dmem_din_mux [63:0] $end
$var reg 1 ` dmem_we_mux $end
$var reg 9 a imem_addr_mux [8:0] $end
$var reg 32 b imem_din_mux [31:0] $end
$var reg 1 c imem_we_mux $end
$var reg 2 d next_state [1:0] $end
$var reg 32 e req_addr_reg [31:0] $end
$var reg 1 f req_cmd_reg $end
$var reg 64 g req_data_reg [63:0] $end
$var reg 2 h req_region_reg [1:0] $end
$var reg 32 i resp_addr_reg [31:0] $end
$var reg 1 j resp_cmd_reg $end
$var reg 64 k resp_data_reg [63:0] $end
$var reg 1 l resp_pending $end
$var reg 1 m resp_val_reg $end
$scope module u_cpu $end
$var wire 1 . clk $end
$var wire 64 n d_mem_data_o [63:0] $end
$var wire 1 R d_mem_wen_o $end
$var wire 9 o i_mem_addr_o [8:0] $end
$var wire 32 p instr_if [31:0] $end
$var wire 1 q pc_en $end
$var wire 5 r reg_write_addr [4:0] $end
$var wire 64 s reg_write_data [63:0] $end
$var wire 1 t reg_write_en $end
$var wire 1 @ rst_n $end
$var wire 1 u reg_write_wb $end
$var wire 1 v reg_write_mem $end
$var wire 1 w reg_write_id $end
$var wire 1 x reg_write_ex $end
$var wire 5 y rdaddr_wb [4:0] $end
$var wire 5 z rdaddr_mem [4:0] $end
$var wire 5 { rdaddr_id [4:0] $end
$var wire 5 | rdaddr_ex [4:0] $end
$var wire 5 } r1addr_id [4:0] $end
$var wire 64 ~ r1_out_mem [63:0] $end
$var wire 64 !" r1_out_id [63:0] $end
$var wire 64 "" r1_out_ex [63:0] $end
$var wire 5 #" r0addr_id [4:0] $end
$var wire 64 $" r0_out_mem [63:0] $end
$var wire 64 %" r0_out_id [63:0] $end
$var wire 64 &" r0_out_ex [63:0] $end
$var wire 9 '" pc_if [8:0] $end
$var wire 1 (" mem_write_mem $end
$var wire 1 )" mem_write_id $end
$var wire 1 *" mem_write_ex $end
$var wire 32 +" instr_id [31:0] $end
$var wire 32 ," i_mem_data_i [31:0] $end
$var wire 64 -" d_mem_data_i [63:0] $end
$var wire 8 ." d_mem_addr_o [7:0] $end
$var wire 1 Q cpu_done $end
$scope module ex_mem_reg $end
$var wire 135 /" D [134:0] $end
$var wire 1 . clk $end
$var wire 1 0" en $end
$var wire 1 @ rst_n $end
$var parameter 36 1" NUM_REG $end
$var reg 135 2" Q [134:0] $end
$upscope $end
$scope module id_ex_reg $end
$var wire 135 3" D [134:0] $end
$var wire 1 . clk $end
$var wire 1 4" en $end
$var wire 1 @ rst_n $end
$var parameter 36 5" NUM_REG $end
$var reg 135 6" Q [134:0] $end
$upscope $end
$scope module if_id_reg $end
$var wire 32 7" D [31:0] $end
$var wire 1 . clk $end
$var wire 1 8" en $end
$var wire 1 @ rst_n $end
$var parameter 32 9" NUM_REG $end
$var reg 32 :" Q [31:0] $end
$upscope $end
$scope module mem_wb_reg $end
$var wire 6 ;" D [5:0] $end
$var wire 1 . clk $end
$var wire 1 <" en $end
$var wire 1 @ rst_n $end
$var parameter 33 =" NUM_REG $end
$var reg 6 >" Q [5:0] $end
$upscope $end
$scope module u_pc $end
$var wire 1 . clk $end
$var wire 1 q en $end
$var wire 1 @ rst_n $end
$var reg 9 ?" pc_out [8:0] $end
$upscope $end
$scope module u_regfile $end
$var wire 1 . clk $end
$var wire 5 @" r0addr [4:0] $end
$var wire 5 A" r1addr [4:0] $end
$var wire 5 B" waddr [4:0] $end
$var wire 64 C" wdata [63:0] $end
$var wire 1 t wena $end
$var reg 64 D" r0data [63:0] $end
$var reg 64 E" r1data [63:0] $end
$upscope $end
$upscope $end
$scope module u_d_mem $end
$var wire 8 F" addra [7:0] $end
$var wire 8 G" addrb [7:0] $end
$var wire 1 . clka $end
$var wire 1 . clkb $end
$var wire 64 H" dina [63:0] $end
$var wire 64 I" dinb [63:0] $end
$var wire 1 ` wea $end
$var wire 1 J" web $end
$var reg 64 K" douta [63:0] $end
$var reg 64 L" doutb [63:0] $end
$upscope $end
$scope module u_i_mem $end
$var wire 9 M" addr [8:0] $end
$var wire 1 . clk $end
$var wire 32 N" din [31:0] $end
$var wire 1 c we $end
$var reg 32 O" dout [31:0] $end
$upscope $end
$upscope $end
$scope task check $end
$var reg 64 P" actual [63:0] $end
$var reg 32 Q" addr [31:0] $end
$var reg 64 R" expected [63:0] $end
$var reg 256 S" tag [255:0] $end
$upscope $end
$scope task do_reset $end
$upscope $end
$scope task mmio_rd $end
$var reg 32 T" addr [31:0] $end
$var reg 64 U" rdata [63:0] $end
$var reg 64 V" tmp [63:0] $end
$upscope $end
$scope task mmio_txn $end
$var reg 32 W" addr [31:0] $end
$var reg 1 X" cmd $end
$var reg 64 Y" rdata [63:0] $end
$var reg 64 Z" wdata [63:0] $end
$upscope $end
$scope task mmio_wr $end
$var reg 32 [" addr [31:0] $end
$var reg 64 \" dummy [63:0] $end
$var reg 64 ]" wdata [63:0] $end
$upscope $end
$upscope $end
$enddefinitions $end
$comment Show the parameter values. $end
$dumpall
b110 ="
b100000 9"
b10000111 5"
b10000111 1"
b10 [
b0 Z
b1 Y
b11 X
b0 W
b10 V
b1 U
b1000000 -
b1000 ,
b1010 +
b0 *
b10000000000000000000000000000000 )
b1000000000000000000000000000000 (
b1111101000 '
b100000000 &
$end
#0
$dumpvars
bx ]"
bx \"
bx ["
bx Z"
bx Y"
xX"
bx W"
bx V"
bx U"
bx T"
bx S"
bx R"
bx Q"
bx P"
bx O"
b0 N"
b0 M"
bx L"
bx K"
0J"
b0 I"
b0 H"
b0 G"
b0 F"
b0 E"
b0 D"
bx C"
b0 B"
b0 A"
b0 @"
b0 ?"
b0 >"
1<"
b0 ;"
b0 :"
18"
bx 7"
b0 6"
14"
b0 3"
b0 2"
10"
b0 /"
b0 ."
bx -"
bx ,"
b0 +"
0*"
0)"
0("
b0 '"
b0 &"
b0 %"
b0 $"
b0 #"
b0 ""
b0 !"
b0 ~
b0 }
b0 |
b0 {
b0 z
b0 y
0x
0w
0v
0u
0t
bx s
b0 r
1q
bx p
b0 o
b0 n
0m
0l
b0 k
0j
b0 i
b0 h
b0 g
0f
b0 e
b0 d
0c
b0 b
b0 a
0`
b0 _
b0 ^
b0 ]
0\
b0 T
b0 S
0R
0Q
b0 P
bx O
bx N
0M
0L
1K
0J
b0 I
b0 H
0G
b0 F
b0 E
0D
0C
0B
0A
0@
b101010 ?
b0 >
bx =
b100000 <
b100000000 ;
b0 :
bx 9
bx 8
bx 7
bx 6
05
04
03
b0 2
01
b0 0
bx /
0.
1%
b0 $
0#
b0 "
0!
$end
#5000
1.
#10000
0.
#15000
1.
#20000
0.
#25000
1.
#30000
0.
#35000
1.
#40000
0.
#45000
1.
#50000
0.
#55000
1.
#60000
0.
#65000
1.
#70000
0.
#75000
1.
#80000
0.
#85000
1.
#90000
0.
#95000
1.
#96000
15
#100000
0.
#105000
1.
#110000
0.
#115000
1.
#120000
0.
#125000
1.
#130000
0.
#135000
1.
#140000
0.
#145000
b1000000010000000000000000000000 Z"
b0 W"
1X"
b1000000010000000000000000000000 ]"
b0 ["
b0 ;
1.
#150000
0.
#155000
1.
#156000
b1 d
1G
14
13
b1000000010000000000000000000000 2
b1000000010000000000000000000000 F
11
#160000
0.
#165000
1c
b1000000010000000000000000000000 b
b1000000010000000000000000000000 N"
0G
1D
b10 d
0%
1C
1l
b1000000010000000000000000000000 g
1f
b1 ]
1.
#166000
03
#170000
0.
#175000
0c
b10 ]
1.
#180000
0.
#185000
b0 d
b0xxxxxxxxxxxxxxxxxxxxxxxxxxxxxxxx "
b0xxxxxxxxxxxxxxxxxxxxxxxxxxxxxxxx I
b0xxxxxxxxxxxxxxxxxxxxxxxxxxxxxxxx k
1#
1j
1!
1m
b1000000010000000000000000000000 p
b1000000010000000000000000000000 7"
b1000000010000000000000000000000 N
b1000000010000000000000000000000 ,"
b1000000010000000000000000000000 O"
1.
#186000
b0xxxxxxxxxxxxxxxxxxxxxxxxxxxxxxxx Y"
#190000
0.
#195000
b0 b
b0 N"
0D
1%
0C
0l
0!
0m
b0 ]
1.
#196000
b1000000011000000000000000000000 Z"
b1 W"
b1000000011000000000000000000000 ]"
b1 ["
b1 ;
b0xxxxxxxxxxxxxxxxxxxxxxxxxxxxxxxx \"
04
#200000
0.
#205000
1.
#206000
b1 d
1G
14
13
b1000000011000000000000000000000 2
b1000000011000000000000000000000 F
b1 0
b1 E
#210000
0.
#215000
1c
b1000000011000000000000000000000 b
b1000000011000000000000000000000 N"
b1 a
b1 M"
0G
1D
b10 d
0%
1C
1l
b1000000011000000000000000000000 g
b1 e
b1 ]
1.
#216000
03
#220000
0.
#225000
0c
b10 ]
bx p
bx 7"
bx N
bx ,"
bx O"
1.
#230000
0.
#235000
b0 d
b1 $
b1 H
b1 i
1!
1m
b1000000011000000000000000000000 p
b1000000011000000000000000000000 7"
b1000000011000000000000000000000 N
b1000000011000000000000000000000 ,"
b1000000011000000000000000000000 O"
1.
#240000
0.
#245000
b0 b
b0 N"
b0 a
b0 M"
0D
1%
0C
0l
0!
0m
b0 ]
1.
#246000
b0 Z"
b10 W"
b0 ]"
b10 ["
b10 ;
04
#250000
0.
#255000
b1000000010000000000000000000000 p
b1000000010000000000000000000000 7"
b1000000010000000000000000000000 N
b1000000010000000000000000000000 ,"
b1000000010000000000000000000000 O"
1.
#256000
b1 d
1G
14
13
b0 2
b0 F
b10 0
b10 E
#260000
0.
#265000
1c
b10 a
b10 M"
0G
1D
b10 d
0%
1C
1l
b0 g
b10 e
b1 ]
1.
#266000
03
#270000
0.
#275000
0c
b10 ]
bx p
bx 7"
bx N
bx ,"
bx O"
1.
#280000
0.
#285000
b0 d
b10 $
b10 H
b10 i
1!
1m
b0 p
b0 7"
b0 N
b0 ,"
b0 O"
1.
#290000
0.
#295000
b0 a
b0 M"
0D
1%
0C
0l
0!
0m
b0 ]
1.
#296000
b11 W"
b11 ["
b11 ;
04
#300000
0.
#305000
b1000000010000000000000000000000 p
b1000000010000000000000000000000 7"
b1000000010000000000000000000000 N
b1000000010000000000000000000000 ,"
b1000000010000000000000000000000 O"
1.
#306000
b1 d
1G
14
13
b11 0
b11 E
#310000
0.
#315000
1c
b11 a
b11 M"
0G
1D
b10 d
0%
1C
1l
b11 e
b1 ]
1.
#316000
03
#320000
0.
#325000
0c
b10 ]
bx p
bx 7"
bx N
bx ,"
bx O"
1.
#330000
0.
#335000
b0 d
b11 $
b11 H
b11 i
1!
1m
b0 p
b0 7"
b0 N
b0 ,"
b0 O"
1.
#340000
0.
#345000
b0 a
b0 M"
0D
1%
0C
0l
0!
0m
b0 ]
1.
#346000
b100 W"
b100 ["
b100 ;
04
#350000
0.
#355000
b1000000010000000000000000000000 p
b1000000010000000000000000000000 7"
b1000000010000000000000000000000 N
b1000000010000000000000000000000 ,"
b1000000010000000000000000000000 O"
1.
#356000
b1 d
1G
14
13
b100 0
b100 E
#360000
0.
#365000
1c
b100 a
b100 M"
0G
1D
b10 d
0%
1C
1l
b100 e
b1 ]
1.
#366000
03
#370000
0.
#375000
0c
b10 ]
bx p
bx 7"
bx N
bx ,"
bx O"
1.
#380000
0.
#385000
b0 d
b100 $
b100 H
b100 i
1!
1m
b0 p
b0 7"
b0 N
b0 ,"
b0 O"
1.
#390000
0.
#395000
b0 a
b0 M"
0D
1%
0C
0l
0!
0m
b0 ]
1.
#396000
b10010011000000000000000000000000 Z"
b101 W"
b10010011000000000000000000000000 ]"
b101 ["
b101 ;
04
#400000
0.
#405000
b1000000010000000000000000000000 p
b1000000010000000000000000000000 7"
b1000000010000000000000000000000 N
b1000000010000000000000000000000 ,"
b1000000010000000000000000000000 O"
1.
#406000
b1 d
1G
14
13
b10010011000000000000000000000000 2
b10010011000000000000000000000000 F
b101 0
b101 E
#410000
0.
#415000
1c
b10010011000000000000000000000000 b
b10010011000000000000000000000000 N"
b101 a
b101 M"
0G
1D
b10 d
0%
1C
1l
b10010011000000000000000000000000 g
b101 e
b1 ]
1.
#416000
03
#420000
0.
#425000
0c
b10 ]
bx p
bx 7"
bx N
bx ,"
bx O"
1.
#430000
0.
#435000
b0 d
b101 $
b101 H
b101 i
1!
1m
b10010011000000000000000000000000 p
b10010011000000000000000000000000 7"
b10010011000000000000000000000000 N
b10010011000000000000000000000000 ,"
b10010011000000000000000000000000 O"
1.
#440000
0.
#445000
b0 b
b0 N"
b0 a
b0 M"
0D
1%
0C
0l
0!
0m
b0 ]
1.
#446000
b0 Z"
b110 W"
b0 ]"
b110 ["
b110 ;
04
#450000
0.
#455000
b1000000010000000000000000000000 p
b1000000010000000000000000000000 7"
b1000000010000000000000000000000 N
b1000000010000000000000000000000 ,"
b1000000010000000000000000000000 O"
1.
#456000
b1 d
1G
14
13
b0 2
b0 F
b110 0
b110 E
#460000
0.
#465000
1c
b110 a
b110 M"
0G
1D
b10 d
0%
1C
1l
b0 g
b110 e
b1 ]
1.
#466000
03
#470000
0.
#475000
0c
b10 ]
bx p
bx 7"
bx N
bx ,"
bx O"
1.
#480000
0.
#485000
b0 d
b110 $
b110 H
b110 i
1!
1m
b0 p
b0 7"
b0 N
b0 ,"
b0 O"
1.
#490000
0.
#495000
b0 a
b0 M"
0D
1%
0C
0l
0!
0m
b0 ]
1.
#496000
b111 W"
b111 ["
b111 ;
04
#500000
0.
#505000
b1000000010000000000000000000000 p
b1000000010000000000000000000000 7"
b1000000010000000000000000000000 N
b1000000010000000000000000000000 ,"
b1000000010000000000000000000000 O"
1.
#506000
b1 d
1G
14
13
b111 0
b111 E
#510000
0.
#515000
1c
b111 a
b111 M"
0G
1D
b10 d
0%
1C
1l
b111 e
b1 ]
1.
#516000
03
#520000
0.
#525000
0c
b10 ]
bx p
bx 7"
bx N
bx ,"
bx O"
1.
#530000
0.
#535000
b0 d
b111 $
b111 H
b111 i
1!
1m
b0 p
b0 7"
b0 N
b0 ,"
b0 O"
1.
#540000
0.
#545000
b0 a
b0 M"
0D
1%
0C
0l
0!
0m
b0 ]
1.
#546000
b100 Z"
b10000000000000000000000000000000 W"
b100 ]"
b10000000000000000000000000000000 ["
b0 ;
04
#550000
0.
#555000
b1000000010000000000000000000000 p
b1000000010000000000000000000000 7"
b1000000010000000000000000000000 N
b1000000010000000000000000000000 ,"
b1000000010000000000000000000000 O"
1.
#556000
b1 d
1G
14
13
b100 2
b100 F
b10000000000000000000000000000000 0
b10000000000000000000000000000000 E
#560000
0.
#565000
1`
b100 _
b100 H"
0G
1B
b10 d
0%
1C
1l
0K
1L
b10 h
b100 g
b10000000000000000000000000000000 e
b1 ]
1.
#566000
03
#570000
0.
#575000
0`
b10 ]
1.
#580000
0.
#585000
b0 d
bx "
bx I
bx k
b10000000000000000000000000000000 $
b10000000000000000000000000000000 H
b10000000000000000000000000000000 i
1!
1m
b100 s
b100 C"
b100 O
b100 -"
b100 K"
b100 L"
1.
#586000
bx Y"
#590000
0.
#595000
b0 _
b0 H"
0B
1%
0C
0l
0!
0m
b0 ]
1.
#596000
b0 Z"
b10000000000000000000000000000001 W"
b0 ]"
b10000000000000000000000000000001 ["
b1 ;
bx \"
04
#600000
0.
#605000
1.
#606000
b1 d
1G
14
13
b0 2
b0 F
b10000000000000000000000000000001 0
b10000000000000000000000000000001 E
#610000
0.
#615000
1`
b1 ^
b1 F"
0G
1B
b10 d
0%
1C
1l
b0 g
b10000000000000000000000000000001 e
b1 ]
1.
#616000
03
#620000
0.
#625000
0`
b10 ]
bx s
bx C"
bx O
bx -"
bx K"
1.
#630000
0.
#635000
b0 d
b10000000000000000000000000000001 $
b10000000000000000000000000000001 H
b10000000000000000000000000000001 i
1!
1m
b0 s
b0 C"
b0 O
b0 -"
b0 K"
1.
#640000
0.
#645000
b0 ^
b0 F"
0B
1%
0C
0l
0!
0m
b0 ]
1.
#646000
b10000000000000000000000000000010 W"
b10000000000000000000000000000010 ["
b10 ;
04
#650000
0.
#655000
b100 s
b100 C"
b100 O
b100 -"
b100 K"
1.
#656000
b1 d
1G
14
13
b10000000000000000000000000000010 0
b10000000000000000000000000000010 E
#660000
0.
#665000
1`
b10 ^
b10 F"
0G
1B
b10 d
0%
1C
1l
b10000000000000000000000000000010 e
b1 ]
1.
#666000
03
#670000
0.
#675000
0`
b10 ]
bx s
bx C"
bx O
bx -"
bx K"
1.
#680000
0.
#685000
b0 d
b10000000000000000000000000000010 $
b10000000000000000000000000000010 H
b10000000000000000000000000000010 i
1!
1m
b0 s
b0 C"
b0 O
b0 -"
b0 K"
1.
#690000
0.
#695000
b0 ^
b0 F"
0B
1%
0C
0l
0!
0m
b0 ]
1.
#696000
b10000000000000000000000000000011 W"
b10000000000000000000000000000011 ["
b11 ;
04
#700000
0.
#705000
b100 s
b100 C"
b100 O
b100 -"
b100 K"
1.
#706000
b1 d
1G
14
13
b10000000000000000000000000000011 0
b10000000000000000000000000000011 E
#710000
0.
#715000
1`
b11 ^
b11 F"
0G
1B
b10 d
0%
1C
1l
b10000000000000000000000000000011 e
b1 ]
1.
#716000
03
#720000
0.
#725000
0`
b10 ]
bx s
bx C"
bx O
bx -"
bx K"
1.
#730000
0.
#735000
b0 d
b10000000000000000000000000000011 $
b10000000000000000000000000000011 H
b10000000000000000000000000000011 i
1!
1m
b0 s
b0 C"
b0 O
b0 -"
b0 K"
1.
#740000
0.
#745000
b0 ^
b0 F"
0B
1%
0C
0l
0!
0m
b0 ]
1.
#746000
b1100100 Z"
b10000000000000000000000000000100 W"
b1100100 ]"
b10000000000000000000000000000100 ["
b100 ;
04
#750000
0.
#755000
b100 s
b100 C"
b100 O
b100 -"
b100 K"
1.
#756000
b1 d
1G
14
13
b1100100 2
b1100100 F
b10000000000000000000000000000100 0
b10000000000000000000000000000100 E
#760000
0.
#765000
1`
b1100100 _
b1100100 H"
b100 ^
b100 F"
0G
1B
b10 d
0%
1C
1l
b1100100 g
b10000000000000000000000000000100 e
b1 ]
1.
#766000
03
#770000
0.
#775000
0`
b10 ]
bx s
bx C"
bx O
bx -"
bx K"
1.
#780000
0.
#785000
b0 d
b10000000000000000000000000000100 $
b10000000000000000000000000000100 H
b10000000000000000000000000000100 i
1!
1m
b1100100 s
b1100100 C"
b1100100 O
b1100100 -"
b1100100 K"
1.
#790000
0.
#795000
b0 _
b0 H"
b0 ^
b0 F"
0B
1%
0C
0l
0!
0m
b0 ]
1.
#796000
b0 Z"
b10000000000000000000000000000101 W"
b0 ]"
b10000000000000000000000000000101 ["
b101 ;
04
#800000
0.
#805000
b100 s
b100 C"
b100 O
b100 -"
b100 K"
1.
#806000
b1 d
1G
14
13
b0 2
b0 F
b10000000000000000000000000000101 0
b10000000000000000000000000000101 E
#810000
0.
#815000
1`
b101 ^
b101 F"
0G
1B
b10 d
0%
1C
1l
b0 g
b10000000000000000000000000000101 e
b1 ]
1.
#816000
03
#820000
0.
#825000
0`
b10 ]
bx s
bx C"
bx O
bx -"
bx K"
1.
#830000
0.
#835000
b0 d
b10000000000000000000000000000101 $
b10000000000000000000000000000101 H
b10000000000000000000000000000101 i
1!
1m
b0 s
b0 C"
b0 O
b0 -"
b0 K"
1.
#840000
0.
#845000
b0 ^
b0 F"
0B
1%
0C
0l
0!
0m
b0 ]
1.
#846000
b10000000000000000000000000000110 W"
b10000000000000000000000000000110 ["
b110 ;
04
#850000
0.
#855000
b100 s
b100 C"
b100 O
b100 -"
b100 K"
1.
#856000
b1 d
1G
14
13
b10000000000000000000000000000110 0
b10000000000000000000000000000110 E
#860000
0.
#865000
1`
b110 ^
b110 F"
0G
1B
b10 d
0%
1C
1l
b10000000000000000000000000000110 e
b1 ]
1.
#866000
03
#870000
0.
#875000
0`
b10 ]
bx s
bx C"
bx O
bx -"
bx K"
1.
#880000
0.
#885000
b0 d
b10000000000000000000000000000110 $
b10000000000000000000000000000110 H
b10000000000000000000000000000110 i
1!
1m
b0 s
b0 C"
b0 O
b0 -"
b0 K"
1.
#890000
0.
#895000
b0 ^
b0 F"
0B
1%
0C
0l
0!
0m
b0 ]
1.
#896000
b10000000000000000000000000000111 W"
b10000000000000000000000000000111 ["
b111 ;
04
#900000
0.
#905000
b100 s
b100 C"
b100 O
b100 -"
b100 K"
1.
#906000
b1 d
1G
14
13
b10000000000000000000000000000111 0
b10000000000000000000000000000111 E
#910000
0.
#915000
1`
b111 ^
b111 F"
0G
1B
b10 d
0%
1C
1l
b10000000000000000000000000000111 e
b1 ]
1.
#916000
03
#920000
0.
#925000
0`
b10 ]
bx s
bx C"
bx O
bx -"
bx K"
1.
#930000
0.
#935000
b0 d
b10000000000000000000000000000111 $
b10000000000000000000000000000111 H
b10000000000000000000000000000111 i
1!
1m
b0 s
b0 C"
b0 O
b0 -"
b0 K"
1.
#940000
0.
#945000
b0 ^
b0 F"
0B
1%
0C
0l
0!
0m
b0 ]
1.
#946000
b10000000000000000000000000001000 W"
b10000000000000000000000000001000 ["
b1000 ;
04
#950000
0.
#955000
b100 s
b100 C"
b100 O
b100 -"
b100 K"
1.
#956000
b1 d
1G
14
13
b10000000000000000000000000001000 0
b10000000000000000000000000001000 E
#960000
0.
#965000
1`
b1000 ^
b1000 F"
0G
1B
b10 d
0%
1C
1l
b10000000000000000000000000001000 e
b1 ]
1.
#966000
03
#970000
0.
#975000
0`
b10 ]
bx s
bx C"
bx O
bx -"
bx K"
1.
#980000
0.
#985000
b0 d
b10000000000000000000000000001000 $
b10000000000000000000000000001000 H
b10000000000000000000000000001000 i
1!
1m
b0 s
b0 C"
b0 O
b0 -"
b0 K"
1.
#990000
0.
#995000
b0 ^
b0 F"
0B
1%
0C
0l
0!
0m
b0 ]
1.
#996000
b10000000000000000000000000001001 W"
b10000000000000000000000000001001 ["
b1001 ;
04
#1000000
0.
#1005000
b100 s
b100 C"
b100 O
b100 -"
b100 K"
1.
#1006000
b1 d
1G
14
13
b10000000000000000000000000001001 0
b10000000000000000000000000001001 E
#1010000
0.
#1015000
1`
b1001 ^
b1001 F"
0G
1B
b10 d
0%
1C
1l
b10000000000000000000000000001001 e
b1 ]
1.
#1016000
03
#1020000
0.
#1025000
0`
b10 ]
bx s
bx C"
bx O
bx -"
bx K"
1.
#1030000
0.
#1035000
b0 d
b10000000000000000000000000001001 $
b10000000000000000000000000001001 H
b10000000000000000000000000001001 i
1!
1m
b0 s
b0 C"
b0 O
b0 -"
b0 K"
1.
#1040000
0.
#1045000
b0 ^
b0 F"
0B
1%
0C
0l
0!
0m
b0 ]
1.
#1046000
b0 W"
0X"
b0 T"
b0 6
b0 ;
04
#1050000
0.
#1055000
b100 s
b100 C"
b100 O
b100 -"
b100 K"
1.
#1056000
b1 d
1G
14
13
b0 0
b0 E
01
#1060000
0.
#1065000
0G
1D
b10 d
0%
1C
1l
1K
0L
b0 h
b0 e
0f
b1 ]
1.
#1066000
03
#1070000
0.
#1075000
b10 ]
1.
#1080000
0.
#1085000
b0 d
b1000000010000000000000000000000 "
b1000000010000000000000000000000 I
b1000000010000000000000000000000 k
b0 $
b0 H
b0 i
0#
0j
1!
1m
1.
#1086000
b1000000010000000000000000000000 Y"
#1090000
0.
#1095000
0D
1%
0C
0l
0!
0m
b0 ]
1.
#1096000
b1 W"
b1 T"
b1 6
b1 ;
b1 >
b100001101001111010001010101111101001001010011010100010101001101 S"
b0 Q"
b1000000010000000000000000000000 P"
b1000000010000000000000000000000 R"
b1000000010000000000000000000000 /
b1000000010000000000000000000000 U"
b1000000010000000000000000000000 V"
04
#1100000
0.
#1105000
1.
#1106000
b1 d
1G
14
13
b1 0
b1 E
#1110000
0.
#1115000
b1 a
b1 M"
0G
1D
b10 d
0%
1C
1l
b1 e
b1 ]
1.
#1116000
03
#1120000
0.
#1125000
b10 ]
b1000000011000000000000000000000 p
b1000000011000000000000000000000 7"
b1000000011000000000000000000000 N
b1000000011000000000000000000000 ,"
b1000000011000000000000000000000 O"
1.
#1130000
0.
#1135000
b0 d
b1000000011000000000000000000000 "
b1000000011000000000000000000000 I
b1000000011000000000000000000000 k
b1 $
b1 H
b1 i
1!
1m
1.
#1136000
b1000000011000000000000000000000 Y"
#1140000
0.
#1145000
b0 a
b0 M"
0D
1%
0C
0l
0!
0m
b0 ]
1.
#1146000
b10 W"
b10 T"
b10 6
b10 ;
b10 >
b1 Q"
b1000000011000000000000000000000 P"
b1000000011000000000000000000000 R"
b1000000011000000000000000000000 /
b1000000011000000000000000000000 U"
b1000000011000000000000000000000 V"
04
#1150000
0.
#1155000
b1000000010000000000000000000000 p
b1000000010000000000000000000000 7"
b1000000010000000000000000000000 N
b1000000010000000000000000000000 ,"
b1000000010000000000000000000000 O"
1.
#1156000
b1 d
1G
14
13
b10 0
b10 E
#1160000
0.
#1165000
b10 a
b10 M"
0G
1D
b10 d
0%
1C
1l
b10 e
b1 ]
1.
#1166000
03
#1170000
0.
#1175000
b10 ]
b0 p
b0 7"
b0 N
b0 ,"
b0 O"
1.
#1180000
0.
#1185000
b0 d
b0 "
b0 I
b0 k
b10 $
b10 H
b10 i
1!
1m
1.
#1186000
b0 Y"
#1190000
0.
#1195000
b0 a
b0 M"
0D
1%
0C
0l
0!
0m
b0 ]
1.
#1196000
b11 W"
b11 T"
b11 6
b11 ;
b11 >
b10 Q"
b0 P"
b0 R"
b0 /
b0 U"
b0 V"
04
#1200000
0.
#1205000
b1000000010000000000000000000000 p
b1000000010000000000000000000000 7"
b1000000010000000000000000000000 N
b1000000010000000000000000000000 ,"
b1000000010000000000000000000000 O"
1.
#1206000
b1 d
1G
14
13
b11 0
b11 E
#1210000
0.
#1215000
b11 a
b11 M"
0G
1D
b10 d
0%
1C
1l
b11 e
b1 ]
1.
#1216000
03
#1220000
0.
#1225000
b10 ]
b0 p
b0 7"
b0 N
b0 ,"
b0 O"
1.
#1230000
0.
#1235000
b0 d
b11 $
b11 H
b11 i
1!
1m
1.
#1240000
0.
#1245000
b0 a
b0 M"
0D
1%
0C
0l
0!
0m
b0 ]
1.
#1246000
b100 W"
b100 T"
b100 6
b100 ;
b100 >
b11 Q"
04
#1250000
0.
#1255000
b1000000010000000000000000000000 p
b1000000010000000000000000000000 7"
b1000000010000000000000000000000 N
b1000000010000000000000000000000 ,"
b1000000010000000000000000000000 O"
1.
#1256000
b1 d
1G
14
13
b100 0
b100 E
#1260000
0.
#1265000
b100 a
b100 M"
0G
1D
b10 d
0%
1C
1l
b100 e
b1 ]
1.
#1266000
03
#1270000
0.
#1275000
b10 ]
b0 p
b0 7"
b0 N
b0 ,"
b0 O"
1.
#1280000
0.
#1285000
b0 d
b100 $
b100 H
b100 i
1!
1m
1.
#1290000
0.
#1295000
b0 a
b0 M"
0D
1%
0C
0l
0!
0m
b0 ]
1.
#1296000
b101 W"
b101 T"
b101 6
b101 ;
b101 >
b100 Q"
04
#1300000
0.
#1305000
b1000000010000000000000000000000 p
b1000000010000000000000000000000 7"
b1000000010000000000000000000000 N
b1000000010000000000000000000000 ,"
b1000000010000000000000000000000 O"
1.
