Lab5/src/sim/top_tb.vcd
$date
	Sat Feb 14 14:44:15 2026
$end
$version
	Icarus Verilog
$end
$timescale
	1ps
$end
$scope module top_tb $end
$var wire 1 ! user_ready $end
$var wire 64 " user_rdata [63:0] $end
$var wire 64 # txn_quality [63:0] $end
$var wire 64 $ txn_counters [63:0] $end
$var wire 32 % status [31:0] $end
$var wire 64 & ila_dout [63:0] $end
$var wire 8 ' conn_status [7:0] $end
$var parameter 32 ( CLK_PERIOD $end
$var parameter 32 ) CPU_RUN_CYCLES $end
$var parameter 32 * CTRL_BASE $end
$var parameter 32 + DMEM_BASE $end
$var parameter 32 , IMEM_BASE $end
$var parameter 32 - RESET_CYCLES $end
$var reg 1 . clear_stats $end
$var reg 1 / clk $end
$var reg 1 0 debug_mode $end
$var reg 3 1 ila_addr_r [2:0] $end
$var reg 64 2 ila_din_r [63:0] $end
$var reg 1 3 ila_we_r $end
$var reg 64 4 rd [63:0] $end
$var reg 1 5 rst_n $end
$var reg 32 6 user_addr [31:0] $end
$var reg 1 7 user_cmd $end
$var reg 1 8 user_valid $end
$var reg 64 9 user_wdata [63:0] $end
$var integer 32 : errors [31:0] $end
$scope module u_top $end
$var wire 1 . clear_stats $end
$var wire 1 / clk $end
$var wire 1 0 debug_mode $end
$var wire 3 ; ila_addr [2:0] $end
$var wire 64 < ila_din [63:0] $end
$var wire 1 3 ila_we $end
$var wire 1 5 rst_n $end
$var wire 1 = soc_gated_clk $end
$var wire 32 > user_addr [31:0] $end
$var wire 1 7 user_cmd $end
$var wire 1 8 user_valid $end
$var wire 64 ? user_wdata [63:0] $end
$var wire 1 ! user_ready $end
$var wire 64 @ user_rdata [63:0] $end
$var wire 64 A txn_quality [63:0] $end
$var wire 64 B txn_counters [63:0] $end
$var wire 32 C status [31:0] $end
$var wire 1 D soc_clk_en $end
$var wire 1 E resp_val $end
$var wire 1 F resp_rdy $end
$var wire 64 G resp_data [63:0] $end
$var wire 1 H resp_cmd $end
$var wire 32 I resp_addr [31:0] $end
$var wire 1 J req_val $end
$var wire 1 K req_rdy $end
$var wire 64 L req_data [63:0] $end
$var wire 1 M req_cmd $end
$var wire 32 N req_addr [31:0] $end
$var wire 1 O ila_soc_start $end
$var wire 64 P ila_dout [63:0] $end
$var wire 1 Q driver_busy $end
$var wire 5 R cpu_debug_sel [4:0] $end
$var wire 64 S cpu_debug_data [63:0] $end
$var wire 8 T conn_status [7:0] $end
$var reg 1 U soc_clk_en_latch $end
$scope module u_driver $end
$var wire 1 . clear_stats $end
$var wire 1 / clk $end
$var wire 1 V fifo_wr_en $end
$var wire 1 W req_timeout $end
$var wire 1 X resp_timeout $end
$var wire 1 5 rst_n $end
$var wire 32 Y user_addr [31:0] $end
$var wire 1 7 user_cmd $end
$var wire 1 8 user_valid $end
$var wire 64 Z user_wdata [63:0] $end
$var wire 1 ! user_ready $end
$var wire 64 [ txn_quality [63:0] $end
$var wire 64 \ txn_counters [63:0] $end
$var wire 1 E soc_resp_val $end
$var wire 64 ] soc_resp_data [63:0] $end
$var wire 1 H soc_resp_cmd $end
$var wire 32 ^ soc_resp_addr [31:0] $end
$var wire 1 K soc_req_rdy $end
$var wire 1 _ fifo_full $end
$var wire 1 ` fifo_empty $end
$var wire 97 a fifo_dout [96:0] $end
$var wire 97 b fifo_din [96:0] $end
$var wire 64 c current_data [63:0] $end
$var wire 1 d current_cmd $end
$var wire 32 e current_addr [31:0] $end
$var wire 8 f conn_status [7:0] $end
$var parameter 32 g DW $end
$var parameter 32 h FIFO_DEPTH $end
$var parameter 34 i FIFO_WIDTH $end
$var parameter 2 j STATE_CHECK $end
$var parameter 2 k STATE_IDLE $end
$var parameter 2 l STATE_SEND_REQ $end
$var parameter 2 m STATE_WAIT_RESP $end
$var parameter 16 n TIMEOUT_THRESHOLD $end
$var reg 32 o active_addr [31:0] $end
$var reg 1 p active_cmd $end
$var reg 32 q captured_resp_addr [31:0] $end
$var reg 1 r captured_resp_cmd $end
$var reg 2 s current_state [1:0] $end
$var reg 1 t fifo_rd_en $end
$var reg 1 u link_active_r $end
$var reg 16 v max_latency_r [15:0] $end
$var reg 2 w next_state [1:0] $end
$var reg 1 x protocol_error_r $end
$var reg 16 y read_txn_count_r [15:0] $end
$var reg 1 z req_timeout_flag_r $end
$var reg 1 { resp_timeout_flag_r $end
$var reg 32 | soc_req_addr [31:0] $end
$var reg 1 M soc_req_cmd $end
$var reg 64 } soc_req_data [63:0] $end
$var reg 1 J soc_req_val $end
$var reg 1 F soc_resp_rdy $end
$var reg 32 ~ status [31:0] $end
$var reg 16 !" timeout_count_r [15:0] $end
$var reg 16 "" total_txn_count_r [15:0] $end
$var reg 1 #" txn_req_phase_timeout $end
$var reg 1 $" txn_timed_out $end
$var reg 16 %" txn_timer [15:0] $end
$var reg 64 &" user_rdata [63:0] $end
$var reg 16 '" write_txn_count_r [15:0] $end
$scope module u_fifo $end
$var wire 1 / clk $end
$var wire 97 (" din [96:0] $end
$var wire 97 )" dout [96:0] $end
$var wire 1 t rd_en $end
$var wire 1 5 rst_n $end
$var wire 1 V wr_en $end
$var wire 1 _ full $end
$var wire 1 ` empty $end
$var parameter 34 *" DATA_WIDTH $end
$var parameter 32 +" DEPTH $end
$var reg 5 ," count [4:0] $end
$var reg 4 -" rd_ptr [3:0] $end
$var reg 4 ." wr_ptr [3:0] $end
$upscope $end
$upscope $end
$scope module u_ila $end
$var wire 1 / clk $end
$var wire 1 0 debug_mode $end
$var wire 3 /" ila_addr [2:0] $end
$var wire 64 0" ila_din [63:0] $end
$var wire 1 3 ila_we $end
$var wire 1 5 rst_n $end
$var wire 1 Q soc_busy $end
$var wire 1 D soc_clk_en $end
$var wire 1 O soc_start $end
$var wire 5 1" cpu_debug_sel [4:0] $end
$var wire 64 2" cpu_debug_data [63:0] $end
$var reg 1 3" clear_pulse $end
$var reg 1 O cpu_run_level $end
$var reg 32 4" cycle_cnt [31:0] $end
$var reg 64 5" ila_dout [63:0] $end
$var reg 5 6" probe_sel_r [4:0] $end
$var reg 1 7" run_mode $end
$var reg 1 8" run_pulse $end
$var reg 1 9" step_active $end
$var reg 1 :" step_pulse $end
$var reg 1 ;" stop_pulse $end
$upscope $end
$scope module u_soc $end
$var wire 1 = clk $end
$var wire 1 <" cpu_rst_n $end
$var wire 1 =" ctrl_host_active $end
$var wire 1 >" dmem_host_active $end
$var wire 1 ?" host_active $end
$var wire 5 @" ila_debug_sel [4:0] $end
$var wire 1 A" imem_host_active $end
$var wire 32 B" req_addr [31:0] $end
$var wire 1 M req_cmd $end
$var wire 64 C" req_data [63:0] $end
$var wire 1 D" req_fire $end
$var wire 1 K req_rdy $end
$var wire 1 J req_val $end
$var wire 32 E" resp_addr [31:0] $end
$var wire 1 H resp_cmd $end
$var wire 64 F" resp_data [63:0] $end
$var wire 1 F resp_rdy $end
$var wire 1 E resp_val $end
$var wire 1 5 rst_n $end
$var wire 1 O start $end
$var wire 1 G" start_pulse $end
$var wire 1 H" system_active $end
$var wire 1 I" req_is_imem $end
$var wire 1 J" req_is_dmem $end
$var wire 1 K" req_is_ctrl $end
$var wire 32 L" imem_dout [31:0] $end
$var wire 64 M" ila_debug_data [63:0] $end
$var wire 64 N" dmem_douta [63:0] $end
$var wire 9 O" cpu_imem_addr [8:0] $end
$var wire 1 P" cpu_done $end
$var wire 1 Q" cpu_dmem_wen $end
$var wire 64 R" cpu_dmem_wdata [63:0] $end
$var wire 8 S" cpu_dmem_addr [7:0] $end
$var parameter 2 T" REGION_CTRL $end
$var parameter 2 U" REGION_DMEM $end
$var parameter 2 V" REGION_IMEM $end
$var parameter 2 W" REGION_RESERVED $end
$var parameter 2 X" STATE_ACCESS $end
$var parameter 2 Y" STATE_IDLE $end
$var parameter 2 Z" STATE_RESP $end
$var reg 1 [" cpu_active $end
$var reg 2 \" current_state [1:0] $end
$var reg 8 ]" dmem_addr_mux [7:0] $end
$var reg 64 ^" dmem_din_mux [63:0] $end
$var reg 1 _" dmem_we_mux $end
$var reg 9 `" imem_addr_mux [8:0] $end
$var reg 32 a" imem_din_mux [31:0] $end
$var reg 1 b" imem_we_mux $end
$var reg 2 c" next_state [1:0] $end
$var reg 32 d" req_addr_reg [31:0] $end
$var reg 1 e" req_cmd_reg $end
$var reg 64 f" req_data_reg [63:0] $end
$var reg 2 g" req_region_reg [1:0] $end
$var reg 32 h" resp_addr_reg [31:0] $end
$var reg 1 i" resp_cmd_reg $end
$var reg 64 j" resp_data_reg [63:0] $end
$var reg 1 k" resp_pending $end
$var reg 1 l" resp_val_reg $end
$scope module u_cpu $end
$var wire 1 = clk $end
$var wire 64 m" d_mem_data_o [63:0] $end
$var wire 1 Q" d_mem_wen_o $end
$var wire 9 n" i_mem_addr_o [8:0] $end
$var wire 5 o" ila_debug_sel [4:0] $end
$var wire 32 p" instr_if [31:0] $end
$var wire 1 q" pc_en $end
$var wire 3 r" reg_write_addr [2:0] $end
$var wire 64 s" reg_write_data [63:0] $end
$var wire 1 t" reg_write_en $end
$var wire 1 <" rst_n $end
$var wire 1 u" reg_write_wb $end
$var wire 1 v" reg_write_mem $end
$var wire 1 w" reg_write_id $end
$var wire 1 x" reg_write_ex $end
$var wire 3 y" rdaddr_wb [2:0] $end
$var wire 3 z" rdaddr_mem [2:0] $end
$var wire 3 {" rdaddr_id [2:0] $end
$var wire 3 |" rdaddr_ex [2:0] $end
$var wire 3 }" r1addr_id [2:0] $end
$var wire 64 ~" r1_out_mem [63:0] $end
$var wire 64 !# r1_out_id [63:0] $end
$var wire 64 "# r1_out_ex [63:0] $end
$var wire 3 ## r0addr_id [2:0] $end
$var wire 64 $# r0_out_mem [63:0] $end
$var wire 64 %# r0_out_id [63:0] $end
$var wire 64 &# r0_out_ex [63:0] $end
$var wire 9 '# pc_if [8:0] $end
$var wire 1 (# mem_write_mem $end
$var wire 1 )# mem_write_id $end
$var wire 1 *# mem_write_ex $end
$var wire 32 +# instr_id [31:0] $end
$var wire 32 ,# i_mem_data_i [31:0] $end
$var wire 64 -# debug_reg_out [63:0] $end
$var wire 64 .# d_mem_data_i [63:0] $end
$var wire 8 /# d_mem_addr_o [7:0] $end
$var wire 1 P" cpu_done $end
$var reg 64 0# ila_debug_data [63:0] $end
$scope module ex_mem_reg $end
$var wire 133 1# D [132:0] $end
$var wire 1 = clk $end
$var wire 1 2# en $end
$var wire 1 <" rst_n $end
$var parameter 36 3# NUM_REG $end
$var reg 133 4# Q [132:0] $end
$upscope $end
$scope module id_ex_reg $end
$var wire 133 5# D [132:0] $end
$var wire 1 = clk $end
$var wire 1 6# en $end
$var wire 1 <" rst_n $end
$var parameter 36 7# NUM_REG $end
$var reg 133 8# Q [132:0] $end
$upscope $end
$scope module if_id_reg $end
$var wire 32 9# D [31:0] $end
$var wire 1 = clk $end
$var wire 1 :# en $end
$var wire 1 <" rst_n $end
$var parameter 32 ;# NUM_REG $end
$var reg 32 <# Q [31:0] $end
$upscope $end
$scope module mem_wb_reg $end
$var wire 4 =# D [3:0] $end
$var wire 1 = clk $end
$var wire 1 ># en $end
$var wire 1 <" rst_n $end
$var parameter 33 ?# NUM_REG $end
$var reg 4 @# Q [3:0] $end
$upscope $end
$scope module u_pc $end
$var wire 1 = clk $end
$var wire 1 q" en $end
$var wire 1 <" rst_n $end
$var reg 9 A# pc_out [8:0] $end
$upscope $end
$scope module u_regfile $end
$var wire 1 = clk $end
$var wire 3 B# ila_cpu_reg_addr [2:0] $end
$var wire 3 C# r0addr [2:0] $end
$var wire 3 D# r1addr [2:0] $end
$var wire 3 E# waddr [2:0] $end
$var wire 64 F# wdata [63:0] $end
$var wire 1 t" wena $end
$var reg 64 G# ila_cpu_reg_data [63:0] $end
$var reg 64 H# r0data [63:0] $end
$var reg 64 I# r1data [63:0] $end
$upscope $end
$upscope $end
$scope module u_d_mem $end
$var wire 8 J# addra [7:0] $end
$var wire 8 K# addrb [7:0] $end
$var wire 1 = clka $end
$var wire 1 = clkb $end
$var wire 64 L# dina [63:0] $end
$var wire 64 M# dinb [63:0] $end
$var wire 1 _" wea $end
$var wire 1 N# web $end
$var reg 64 O# douta [63:0] $end
$var reg 64 P# doutb [63:0] $end
$upscope $end
$scope module u_i_mem $end
$var wire 9 Q# addr [8:0] $end
$var wire 1 = clk $end
$var wire 32 R# din [31:0] $end
$var wire 1 b" we $end
$var reg 32 S# dout [31:0] $end
$upscope $end
$upscope $end
$upscope $end
$scope task check $end
$var reg 64 T# exp [63:0] $end
$var reg 64 U# got [63:0] $end
$upscope $end
$scope task cpu_start $end
$upscope $end
$scope task cpu_stop $end
$upscope $end
$scope task ila_rd $end
$var reg 3 V# a [2:0] $end
$var reg 64 W# d [63:0] $end
$upscope $end
$scope task ila_wr $end
$var reg 3 X# a [2:0] $end
$var reg 64 Y# d [63:0] $end
$upscope $end
$scope task mmio_push $end
$var reg 32 Z# addr [31:0] $end
$var reg 1 [# cmd $end
$var reg 64 \# data [63:0] $end
$upscope $end
$scope task mmio_rd $end
$var reg 32 ]# addr [31:0] $end
$var reg 64 ^# data [63:0] $end
$upscope $end
$scope task mmio_wr $end
$var reg 32 _# addr [31:0] $end
$var reg 64 `# data [63:0] $end
$upscope $end
$scope task wait_idle $end
$upscope $end
$upscope $end
$enddefinitions $end
$comment Show the parameter values. $end
$dumpall
b100 ?#
b100000 ;#
b10000101 7#
b10000101 3#
b10 Z"
b0 Y"
b1 X"
b11 W"
b0 V"
b10 U"
b1 T"
b10000 +"
b1100001 *"
b1111101000 n
b10 m
b1 l
b0 k
b11 j
b1100001 i
b10000 h
b1000000 g
b1010 -
b0 ,
b10000000000000000000000000000000 +
b1000000000000000000000000000000 *
b111110100 )
b1010 (
$end
#0
$dumpvars
bx `#
bx _#
bx ^#
bx ]#
bx \#
x[#
bx Z#
bx Y#
bx X#
bx W#
bx V#
bx U#
bx T#
bx S#
b0 R#
b0 Q#
bx P#
bx O#
0N#
b0 M#
b0 L#
b0 K#
b0 J#
bx I#
bx H#
bx G#
bx F#
b0 E#
b0 D#
b0 C#
b0 B#
b0 A#
b0 @#
1>#
b0 =#
b0 <#
1:#
bx 9#
b0 8#
16#
b0xxxxxxxxxxxxxxxxxxxxxxxxxxxxxxxxxxxxxxxxxxxxxxxxxxxxxxxxxxxxxxxxxxxxxxxxxxxxxxxxxxxxxxxxxxxxxxxxxxxxxxxxxxxxxxxxxxxxxxxxxxxxxxxx000 5#
b0 4#
12#
b0 1#
b0 0#
b0 /#
bx .#
bx -#
bx ,#
b0 +#
0*#
0)#
0(#
b0 '#
b0 &#
bx %#
b0 $#
b0 ##
b0 "#
bx !#
b0 ~"
b0 }"
b0 |"
b0 {"
b0 z"
b0 y"
0x"
0w"
0v"
0u"
0t"
bx s"
b0 r"
1q"
bx p"
b0 o"
b0 n"
b0 m"
0l"
0k"
b0 j"
0i"
b0 h"
b0 g"
b0 f"
0e"
b0 d"
b0 c"
0b"
b0 a"
b0 `"
0_"
b0 ^"
b0 ]"
b0 \"
0["
b0 S"
b0 R"
0Q"
0P"
b0 O"
bx N"
b0 M"
bx L"
0K"
0J"
1I"
1H"
0G"
b0 F"
b0 E"
0D"
b0 C"
b0 B"
0A"
b0 @"
0?"
0>"
0="
0<"
0;"
0:"
09"
08"
07"
b0 6"
b1000 5"
b0 4"
03"
b0 2"
b0 1"
b0 0"
b0 /"
b0 ."
b0 -"
b0 ,"
bx )"
b0 ("
b0 '"
b0 &"
b0 %"
0$"
0#"
b0 ""
b0 !"
b0 ~
b0 }
b0 |
0{
0z
b0 y
0x
b0 w
b0 v
0u
0t
b0 s
0r
b0 q
0p
b0 o
b10000000 f
bx e
xd
bx c
b0 b
bx a
1`
0_
b0 ^
b0 ]
b0 \
b0 [
b0 Z
b0 Y
0X
0W
0V
1U
b10000000 T
b0 S
b0 R
0Q
b1000 P
1O
b0 N
0M
b0 L
0K
0J
b0 I
0H
b0 G
0F
0E
1D
b0 C
b0 B
b0 A
b0 @
b0 ?
b0 >
0=
b0 <
b0 ;
b0 :
b0 9
08
07
b0 6
05
bx 4
03
b0 2
b0 1
00
0/
0.
b10000000 '
b1000 &
b0 %
b0 $
b0 #
b0 "
1!
$end
#5000
1=
1/
#10000
0=
0/
#15000
1=
1/
#20000
0=
0/
#25000
1=
1/
#30000
0=
0/
#35000
1=
1/
#40000
0=
0/
#45000
1=
1/
#50000
0=
0/
#55000
1=
1/
#60000
0=
0/
#65000
1=
1/
#70000
0=
0/
#75000
1=
1/
#80000
0=
0/
#85000
1=
1/
#90000
0=
0/
#95000
b1 `"
b1 Q#
bx {"
bx }"
bx D#
bx ##
bx C#
xw"
bx 5#
x)#
b1 S
b1 2"
b1 M"
b1 0#
bx "#
b0xxxxxxxxxxxxxxxxxxxxxxxxxxxxxxxxxxxxxxxxxxxxxxxxxxxxxxxxxxxxxxxxxxxxxxxxxxxxxxxxxxxxxxxxxxxxxxxxxxxxxxxxxxxxxxxxxxxxxxxxxxxxxxxx000 1#
bx &#
b1 O"
b1 n"
b1 '#
b1 A#
bx +#
bx <#
b0xxxxxxxxxxxxxxxxxxxxxxxxxxxxxxxxxxxxxxxxxxxxxxxxxxxxxxxxxxxxxxxxxxxxxxxxxxxxxxxxxxxxxxxxxxxxxxxxxxxxxxxxxxxxxxxxxxxxxxxxxxxxxxxx000 8#
b1 4"
1<"
1=
15
1/
#100000
0=
0/
#105000
bx ^"
bx L#
bx ]"
bx J#
bx S"
bx /#
bx R"
bx m"
bx ~"
bx $#
bx |"
x*#
bx 1#
xx"
b10 S
b10 2"
b10 M"
b10 0#
b10 `"
b10 Q#
b0xxxxxxxxxxxxxxxxxxxxxxxxxxxxxxxxxxxxxxxxxxxxxxxxxxxxxxxxxxxxxxxxxxxxxxxxxxxxxxxxxxxxxxxxxxxxxxxxxxxxxxxxxxxxxxxxxxxxxxxxxxxxxxxx000 4#
bx 8#
b10 O"
b10 n"
b10 '#
b10 A#
b10 4"
1=
1/
#110000
0=
0/
#115000
x_"
b11 S
b11 2"
b11 M"
b11 0#
b11 `"
b11 Q#
bx z"
xQ"
x(#
bx =#
xv"
b11 O"
b11 n"
b11 '#
b11 A#
bx 4#
b11 4"
1=
1/
#120000
0=
0/
#125000
bx r"
bx E#
bx y"
xt"
xu"
b100 S
b100 2"
b100 M"
b100 0#
b100 `"
b100 Q#
bx @#
b100 O"
b100 n"
b100 '#
b100 A#
b100 4"
1=
1/
#130000
0=
0/
#135000
b101 S
b101 2"
b101 M"
b101 0#
b101 `"
b101 Q#
b101 O"
b101 n"
b101 '#
b101 A#
b101 4"
1=
1/
#140000
0=
0/
#145000
b110 S
b110 2"
b110 M"
b110 0#
b110 `"
b110 Q#
b110 O"
b110 n"
b110 '#
b110 A#
b110 4"
1=
b0 \#
b1000000000000000000000000000000 Z#
0[#
b1000000000000000000000000000000 ]#
1/
#150000
1V
0=
b10000000000000000000000000000000000000000000000000000000000000000000000000000000000000000000000 b
b10000000000000000000000000000000000000000000000000000000000000000000000000000000000000000000000 ("
b1000000000000000000000000000000 6
b1000000000000000000000000000000 >
b1000000000000000000000000000000 Y
18
0/
#155000
b111 S
b111 2"
b111 M"
b111 0#
b111 `"
b111 Q#
0d
b1000000000000000000000000000000 e
b0 c
b1 w
b10010000 '
b10010000 T
b10010000 f
b111 O"
b111 n"
b111 '#
b111 A#
b1 ."
b10000000000000000000000000000000000000000000000000000000000000000000000000000000000000000000000 a
b10000000000000000000000000000000000000000000000000000000000000000000000000000000000000000000000 )"
0`
b1 ,"
b111 4"
1=
1/
#160000
0V
0=
08
0/
#165000
b1000 S
b1000 2"
b1000 M"
b1000 0#
b1000 `"
b1000 Q#
1Q
b1000 O"
b1000 n"
b1000 '#
b1000 A#
b1000 4"
b1000000000000000000000000000000 o
b1000000000000000000000000000000 N
b1000000000000000000000000000000 |
b1000000000000000000000000000000 B"
1t
b10110000 '
b10110000 T
b10110000 f
b1 s
1=
1/
#170000
0=
0/
#175000
b1001 S
b1001 2"
b1001 M"
b1001 0#
b1001 `"
b1001 Q#
xd
bx e
bx c
b10100000 '
b10100000 T
b10100000 f
b1001 O"
b1001 n"
b1001 '#
b1001 A#
bx a
bx )"
b1 -"
1`
b0 ,"
b1 %"
1J
0t
b1001 4"
1=
1/
#180000
0=
0/
#185000
b1010 S
b1010 2"
b1010 M"
b1010 0#
b1010 `"
b1010 Q#
b1010 O"
b1010 n"
b1010 '#
b1010 A#
b1010 4"
1J
b10 %"
1=
1/
#190000
0=
0/
#195000
b1011 S
b1011 2"
b1011 M"
b1011 0#
b1011 `"
b1011 Q#
b1011 O"
b1011 n"
b1011 '#
b1011 A#
b11 %"
1J
b1011 4"
1=
1/
#200000
0=
0/
#205000
b1100 S
b1100 2"
b1100 M"
b1100 0#
b1100 `"
b1100 Q#
b1100 O"
b1100 n"
b1100 '#
b1100 A#
b1100 4"
1J
b100 %"
1=
1/
#210000
0=
0/
#215000
b1101 S
b1101 2"
b1101 M"
b1101 0#
b1101 `"
b1101 Q#
b1101 O"
b1101 n"
b1101 '#
b1101 A#
b101 %"
1J
b1101 4"
1=
1/
#220000
0=
0/
#225000
b1110 S
b1110 2"
b1110 M"
b1110 0#
b1110 `"
b1110 Q#
b1110 O"
b1110 n"
b1110 '#
b1110 A#
b1110 4"
1J
b110 %"
1=
1/
#230000
0=
0/
#235000
b1111 S
b1111 2"
b1111 M"
b1111 0#
b1111 `"
b1111 Q#
b1111 O"
b1111 n"
b1111 '#
b1111 A#
b111 %"
1J
b1111 4"
1=
1/
#240000
0=
0/
#245000
b10000 S
b10000 2"
b10000 M"
b10000 0#
b10000 `"
b10000 Q#
b10000 O"
b10000 n"
b10000 '#
b10000 A#
b10000 4"
1J
b1000 %"
1=
1/
#250000
0=
0/
#255000
b10001 S
b10001 2"
b10001 M"
b10001 0#
b10001 `"
b10001 Q#
b10001 O"
b10001 n"
b10001 '#
b10001 A#
b1001 %"
1J
b10001 4"
1=
1/
#260000
0=
0/
#265000
b10010 S
b10010 2"
b10010 M"
b10010 0#
b10010 `"
b10010 Q#
b10010 O"
b10010 n"
b10010 '#
b10010 A#
b10010 4"
1J
b1010 %"
1=
1/
#270000
0=
0/
#275000
b10011 S
b10011 2"
b10011 M"
b10011 0#
b10011 `"
b10011 Q#
b10011 O"
b10011 n"
b10011 '#
b10011 A#
b1011 %"
1J
b10011 4"
1=
1/
#280000
0=
0/
#285000
b10100 S
b10100 2"
b10100 M"
b10100 0#
b10100 `"
b10100 Q#
b10100 O"
b10100 n"
b10100 '#
b10100 A#
b10100 4"
1J
b1100 %"
1=
1/
#290000
0=
0/
#295000
b10101 S
b10101 2"
b10101 M"
b10101 0#
b10101 `"
b10101 Q#
b10101 O"
b10101 n"
b10101 '#
b10101 A#
b1101 %"
1J
b10101 4"
1=
1/
#300000
0=
0/
#305000
b10110 S
b10110 2"
b10110 M"
b10110 0#
b10110 `"
b10110 Q#
b10110 O"
b10110 n"
b10110 '#
b10110 A#
b10110 4"
1J
b1110 %"
1=
1/
#310000
0=
0/
#315000
b10111 S
b10111 2"
b10111 M"
b10111 0#
b10111 `"
b10111 Q#
b10111 O"
b10111 n"
b10111 '#
b10111 A#
b1111 %"
1J
b10111 4"
1=
1/
#320000
0=
0/
#325000
b11000 S
b11000 2"
b11000 M"
b11000 0#
b11000 `"
b11000 Q#
b11000 O"
b11000 n"
b11000 '#
b11000 A#
b11000 4"
1J
b10000 %"
1=
1/
#330000
0=
0/
#335000
b11001 S
b11001 2"
b11001 M"
b11001 0#
b11001 `"
b11001 Q#
b11001 O"
b11001 n"
b11001 '#
b11001 A#
b10001 %"
1J
b11001 4"
1=
1/
#340000
0=
0/
#345000
b11010 S
b11010 2"
b11010 M"
b11010 0#
b11010 `"
b11010 Q#
b11010 O"
b11010 n"
b11010 '#
b11010 A#
b11010 4"
1J
b10010 %"
1=
1/
#350000
0=
0/
#355000
b11011 S
b11011 2"
b11011 M"
b11011 0#
b11011 `"
b11011 Q#
b11011 O"
b11011 n"
b11011 '#
b11011 A#
b10011 %"
1J
b11011 4"
1=
1/
#360000
0=
0/
#365000
b11100 S
b11100 2"
b11100 M"
b11100 0#
b11100 `"
b11100 Q#
b11100 O"
b11100 n"
b11100 '#
b11100 A#
b11100 4"
1J
b10100 %"
1=
1/
#370000
0=
0/
#375000
b11101 S
b11101 2"
b11101 M"
b11101 0#
b11101 `"
b11101 Q#
b11101 O"
b11101 n"
b11101 '#
b11101 A#
b10101 %"
1J
b11101 4"
1=
1/
#380000
0=
0/
#385000
b11110 S
b11110 2"
b11110 M"
b11110 0#
b11110 `"
b11110 Q#
b11110 O"
b11110 n"
b11110 '#
b11110 A#
b11110 4"
1J
b10110 %"
1=
1/
#390000
0=
0/
#395000
b11111 S
b11111 2"
b11111 M"
b11111 0#
b11111 `"
b11111 Q#
b11111 O"
b11111 n"
b11111 '#
b11111 A#
b10111 %"
1J
b11111 4"
1=
1/
#400000
0=
0/
#405000
b100000 S
b100000 2"
b100000 M"
b100000 0#
b100000 `"
b100000 Q#
b100000 O"
b100000 n"
b100000 '#
b100000 A#
b100000 4"
1J
b11000 %"
1=
1/
#410000
0=
0/
#415000
b100001 S
b100001 2"
b100001 M"
b100001 0#
b100001 `"
b100001 Q#
b100001 O"
b100001 n"
b100001 '#
b100001 A#
b11001 %"
1J
b100001 4"
1=
1/
#420000
0=
0/
#425000
b100010 S
b100010 2"
b100010 M"
b100010 0#
b100010 `"
b100010 Q#
b100010 O"
b100010 n"
b100010 '#
b100010 A#
b100010 4"
1J
b11010 %"
1=
1/
#430000
0=
0/
#435000
b100011 S
b100011 2"
b100011 M"
b100011 0#
b100011 `"
b100011 Q#
b100011 O"
b100011 n"
b100011 '#
b100011 A#
b11011 %"
1J
b100011 4"
1=
1/
#440000
0=
0/
#445000
b100100 S
b100100 2"
b100100 M"
b100100 0#
b100100 `"
b100100 Q#
b100100 O"
b100100 n"
b100100 '#
b100100 A#
b100100 4"
1J
b11100 %"
1=
1/
#450000
0=
0/
#455000
b100101 S
b100101 2"
b100101 M"
b100101 0#
b100101 `"
b100101 Q#
b100101 O"
b100101 n"
b100101 '#
b100101 A#
b11101 %"
1J
b100101 4"
1=
1/
#460000
0=
0/
#465000
b100110 S
b100110 2"
b100110 M"
b100110 0#
b100110 `"
b100110 Q#
b100110 O"
b100110 n"
b100110 '#
b100110 A#
b100110 4"
1J
b11110 %"
1=
1/
#470000
0=
0/
#475000
b100111 S
b100111 2"
b100111 M"
b100111 0#
b100111 `"
b100111 Q#
b100111 O"
b100111 n"
b100111 '#
b100111 A#
b11111 %"
1J
b100111 4"
1=
1/
#480000
0=
0/
#485000
b101000 S
b101000 2"
b101000 M"
b101000 0#
b101000 `"
b101000 Q#
b101000 O"
b101000 n"
b101000 '#
b101000 A#
b101000 4"
1J
b100000 %"
1=
1/
#490000
0=
0/
#495000
b101001 S
b101001 2"
b101001 M"
b101001 0#
b101001 `"
b101001 Q#
b101001 O"
b101001 n"
b101001 '#
b101001 A#
b100001 %"
1J
b101001 4"
1=
1/
#500000
0=
0/
#505000
b101010 S
b101010 2"
b101010 M"
b101010 0#
b101010 `"
b101010 Q#
b101010 O"
b101010 n"
b101010 '#
b101010 A#
b101010 4"
1J
b100010 %"
1=
1/
#510000
0=
0/
#515000
b101011 S
b101011 2"
b101011 M"
b101011 0#
b101011 `"
b101011 Q#
b101011 O"
b101011 n"
b101011 '#
b101011 A#
b100011 %"
1J
b101011 4"
1=
1/
#520000
0=
0/
#525000
b101100 S
b101100 2"
b101100 M"
b101100 0#
b101100 `"
b101100 Q#
b101100 O"
b101100 n"
b101100 '#
b101100 A#
b101100 4"
1J
b100100 %"
1=
1/
#530000
0=
0/
#535000
b101101 S
b101101 2"
b101101 M"
b101101 0#
b101101 `"
b101101 Q#
b101101 O"
b101101 n"
b101101 '#
b101101 A#
b100101 %"
1J
b101101 4"
1=
1/
#540000
0=
0/
#545000
b101110 S
b101110 2"
b101110 M"
b101110 0#
b101110 `"
b101110 Q#
b101110 O"
b101110 n"
b101110 '#
b101110 A#
b101110 4"
1J
b100110 %"
1=
1/
#550000
0=
0/
#555000
b101111 S
b101111 2"
b101111 M"
b101111 0#
b101111 `"
b101111 Q#
b101111 O"
b101111 n"
b101111 '#
b101111 A#
b100111 %"
1J
b101111 4"
1=
1/
#560000
0=
0/
#565000
b110000 S
b110000 2"
b110000 M"
b110000 0#
b110000 `"
b110000 Q#
b110000 O"
b110000 n"
b110000 '#
b110000 A#
b110000 4"
1J
b101000 %"
1=
1/
#570000
0=
0/
#575000
b110001 S
b110001 2"
b110001 M"
b110001 0#
b110001 `"
b110001 Q#
b110001 O"
b110001 n"
b110001 '#
b110001 A#
b101001 %"
1J
b110001 4"
1=
1/
#580000
0=
0/
#585000
b110010 S
b110010 2"
b110010 M"
b110010 0#
b110010 `"
b110010 Q#
b110010 O"
b110010 n"
b110010 '#
b110010 A#
b110010 4"
1J
b101010 %"
1=
1/
#590000
0=
0/
#595000
b110011 S
b110011 2"
b110011 M"
b110011 0#
b110011 `"
b110011 Q#
b110011 O"
b110011 n"
b110011 '#
b110011 A#
b101011 %"
1J
b110011 4"
1=
1/
#600000
0=
0/
#605000
b110100 S
b110100 2"
b110100 M"
b110100 0#
b110100 `"
b110100 Q#
b110100 O"
b110100 n"
b110100 '#
b110100 A#
b110100 4"
1J
b101100 %"
1=
1/
#610000
0=
0/
#615000
b110101 S
b110101 2"
b110101 M"
b110101 0#
b110101 `"
b110101 Q#
b110101 O"
b110101 n"
b110101 '#
b110101 A#
b101101 %"
1J
b110101 4"
1=
1/
#620000
0=
0/
